timestamp, the_dissipator_max_temperature
1.000000e-02, 300.887
2.000000e-02, 301.172
3.000000e-02, 301.672
4.000000e-02, 301.767
5.000000e-02, 302.198
6.000000e-02, 302.242
7.000000e-02, 302.632
8.000000e-02, 302.648
9.000000e-02, 303.006
1.000000e-01, 303.001
1.100000e-01, 303.332
1.200000e-01, 303.309
1.300000e-01, 303.618
1.400000e-01, 303.579
1.500000e-01, 303.868
1.600000e-01, 303.818
1.700000e-01, 304.088
1.800000e-01, 304.028
1.900000e-01, 304.283
2.000000e-01, 304.214
2.100000e-01, 304.456
2.200000e-01, 304.381
2.300000e-01, 304.61
2.400000e-01, 304.53
2.500000e-01, 304.748
2.600000e-01, 304.663
2.700000e-01, 304.871
2.800000e-01, 304.783
2.900000e-01, 304.982
3.000000e-01, 304.891
3.100000e-01, 305.082
3.200000e-01, 304.989
3.300000e-01, 305.172
3.400000e-01, 305.078
3.500000e-01, 305.255
3.600000e-01, 305.159
3.700000e-01, 305.329
3.800000e-01, 305.232
3.900000e-01, 305.397
4.000000e-01, 305.299
4.100000e-01, 305.458
4.200000e-01, 305.361
4.300000e-01, 305.514
4.400000e-01, 305.417
4.500000e-01, 305.566
4.600000e-01, 305.468
4.700000e-01, 305.613
4.800000e-01, 305.516
4.900000e-01, 305.656
5.000000e-01, 305.559
5.100000e-01, 305.695
5.200000e-01, 305.6
5.300000e-01, 305.731
5.400000e-01, 305.637
5.500000e-01, 305.765
5.600000e-01, 305.671
5.700000e-01, 305.795
5.800000e-01, 305.702
5.900000e-01, 305.824
6.000000e-01, 305.732
6.100000e-01, 305.85
6.200000e-01, 305.759
6.300000e-01, 305.874
6.400000e-01, 305.784
6.500000e-01, 305.896
6.600000e-01, 305.808
6.700000e-01, 305.917
6.800000e-01, 305.829
6.900000e-01, 305.936
7.000000e-01, 305.85
7.100000e-01, 305.954
7.200000e-01, 305.868
7.300000e-01, 305.97
7.400000e-01, 305.886
7.500000e-01, 305.985
7.600000e-01, 305.903
7.700000e-01, 305.999
7.800000e-01, 305.918
7.900000e-01, 306.012
8.000000e-01, 305.932
8.100000e-01, 306.025
8.200000e-01, 305.946
8.300000e-01, 306.036
8.400000e-01, 305.959
8.500000e-01, 306.047
8.600000e-01, 305.97
8.700000e-01, 306.056
8.800000e-01, 305.981
8.900000e-01, 306.066
9.000000e-01, 305.992
9.100000e-01, 306.074
9.200000e-01, 306.002
9.300000e-01, 306.082
9.400000e-01, 306.011
9.500000e-01, 306.09
9.600000e-01, 306.02
9.700000e-01, 306.097
9.800000e-01, 306.028
9.900000e-01, 306.103
1.000000e+00, 306.036
1.010000e+00, 306.109
1.020000e+00, 306.043
1.030000e+00, 306.115
1.040000e+00, 306.05
1.050000e+00, 306.12
1.060000e+00, 306.056
1.070000e+00, 306.125
1.080000e+00, 306.062
1.090000e+00, 306.13
1.100000e+00, 306.068
1.110000e+00, 306.134
1.120000e+00, 306.074
1.130000e+00, 306.138
1.140000e+00, 306.079
1.150000e+00, 306.142
1.160000e+00, 306.084
1.170000e+00, 306.146
1.180000e+00, 306.088
1.190000e+00, 306.149
1.200000e+00, 306.093
1.210000e+00, 306.152
1.220000e+00, 306.097
1.230000e+00, 306.155
1.240000e+00, 306.101
1.250000e+00, 306.158
1.260000e+00, 306.105
1.270000e+00, 306.16
1.280000e+00, 306.108
1.290000e+00, 306.163
1.300000e+00, 306.112
1.310000e+00, 306.165
1.320000e+00, 306.115
1.330000e+00, 306.167
1.340000e+00, 306.118
1.350000e+00, 306.169
1.360000e+00, 306.121
1.370000e+00, 306.171
1.380000e+00, 306.124
1.390000e+00, 306.173
1.400000e+00, 306.126
1.410000e+00, 306.175
1.420000e+00, 306.129
1.430000e+00, 306.176
1.440000e+00, 306.131
1.450000e+00, 306.178
1.460000e+00, 306.134
1.470000e+00, 306.179
1.480000e+00, 306.136
1.490000e+00, 306.18
1.500000e+00, 306.138
1.510000e+00, 306.181
1.520000e+00, 306.14
1.530000e+00, 306.182
1.540000e+00, 306.142
1.550000e+00, 306.183
1.560000e+00, 306.144
1.570000e+00, 306.184
1.580000e+00, 306.145
1.590000e+00, 306.185
1.600000e+00, 306.147
1.610000e+00, 306.186
1.620000e+00, 306.149
1.630000e+00, 306.187
1.640000e+00, 306.15
1.650000e+00, 306.188
1.660000e+00, 306.152
1.670000e+00, 306.188
1.680000e+00, 306.153
1.690000e+00, 306.189
1.700000e+00, 306.154
1.710000e+00, 306.19
1.720000e+00, 306.156
1.730000e+00, 306.19
1.740000e+00, 306.157
1.750000e+00, 306.191
1.760000e+00, 306.158
1.770000e+00, 306.191
1.780000e+00, 306.159
1.790000e+00, 306.192
1.800000e+00, 306.16
1.810000e+00, 306.192
1.820000e+00, 306.161
1.830000e+00, 306.192
1.840000e+00, 306.162
1.850000e+00, 306.193
1.860000e+00, 306.163
1.870000e+00, 306.193
1.880000e+00, 306.164
1.890000e+00, 306.193
1.900000e+00, 306.165
1.910000e+00, 306.194
1.920000e+00, 306.166
1.930000e+00, 306.194
1.940000e+00, 306.166
1.950000e+00, 306.194
1.960000e+00, 306.167
1.970000e+00, 306.194
1.980000e+00, 306.168
1.990000e+00, 306.194
2.000000e+00, 305.631
2.010000e+00, 305.445
2.020000e+00, 305.056
2.030000e+00, 304.823
2.040000e+00, 304.465
2.050000e+00, 304.268
2.060000e+00, 303.947
2.070000e+00, 303.792
2.080000e+00, 303.505
2.090000e+00, 303.386
2.100000e+00, 303.128
2.110000e+00, 303.039
2.120000e+00, 302.804
2.130000e+00, 302.739
2.140000e+00, 302.524
2.150000e+00, 302.478
2.160000e+00, 302.28
2.170000e+00, 302.251
2.180000e+00, 302.067
2.190000e+00, 302.05
2.200000e+00, 301.879
2.210000e+00, 301.873
2.220000e+00, 301.713
2.230000e+00, 301.716
2.240000e+00, 301.565
2.250000e+00, 301.575
2.260000e+00, 301.433
2.270000e+00, 301.449
2.280000e+00, 301.315
2.290000e+00, 301.336
2.300000e+00, 301.208
2.310000e+00, 301.234
2.320000e+00, 301.112
2.330000e+00, 301.142
2.340000e+00, 301.025
2.350000e+00, 301.058
2.360000e+00, 300.947
2.370000e+00, 300.982
2.380000e+00, 300.875
2.390000e+00, 300.913
2.400000e+00, 300.81
2.410000e+00, 300.85
2.420000e+00, 300.751
2.430000e+00, 300.792
2.440000e+00, 300.697
2.450000e+00, 300.739
2.460000e+00, 300.647
2.470000e+00, 300.69
2.480000e+00, 300.602
2.490000e+00, 300.645
2.500000e+00, 300.56
2.510000e+00, 300.604
2.520000e+00, 300.522
2.530000e+00, 300.566
2.540000e+00, 300.487
2.550000e+00, 300.531
2.560000e+00, 300.454
2.570000e+00, 300.499
2.580000e+00, 300.424
2.590000e+00, 300.469
2.600000e+00, 300.396
2.610000e+00, 300.441
2.620000e+00, 300.371
2.630000e+00, 300.416
2.640000e+00, 300.347
2.650000e+00, 300.392
2.660000e+00, 300.325
2.670000e+00, 300.37
2.680000e+00, 300.305
2.690000e+00, 300.349
2.700000e+00, 300.286
2.710000e+00, 300.33
2.720000e+00, 300.268
2.730000e+00, 300.312
2.740000e+00, 300.252
2.750000e+00, 300.295
2.760000e+00, 300.237
2.770000e+00, 300.279
2.780000e+00, 300.223
2.790000e+00, 300.265
2.800000e+00, 300.209
2.810000e+00, 300.251
2.820000e+00, 300.197
2.830000e+00, 300.238
2.840000e+00, 300.186
2.850000e+00, 300.226
2.860000e+00, 300.175
2.870000e+00, 300.215
2.880000e+00, 300.165
2.890000e+00, 300.204
2.900000e+00, 300.155
2.910000e+00, 300.194
2.920000e+00, 300.147
2.930000e+00, 300.185
2.940000e+00, 300.138
2.950000e+00, 300.176
2.960000e+00, 300.131
2.970000e+00, 300.168
2.980000e+00, 300.123
2.990000e+00, 300.16
3.000000e+00, 300.117
3.010000e+00, 300.153
3.020000e+00, 300.11
3.030000e+00, 300.146
3.040000e+00, 300.104
3.050000e+00, 300.14
3.060000e+00, 300.099
3.070000e+00, 300.133
3.080000e+00, 300.093
3.090000e+00, 300.128
3.100000e+00, 300.089
3.110000e+00, 300.122
3.120000e+00, 300.084
3.130000e+00, 300.117
3.140000e+00, 300.08
3.150000e+00, 300.112
3.160000e+00, 300.076
3.170000e+00, 300.108
3.180000e+00, 300.072
3.190000e+00, 300.103
3.200000e+00, 300.068
3.210000e+00, 300.099
3.220000e+00, 300.065
3.230000e+00, 300.095
3.240000e+00, 300.061
3.250000e+00, 300.092
3.260000e+00, 300.058
3.270000e+00, 300.088
3.280000e+00, 300.055
3.290000e+00, 300.085
3.300000e+00, 300.053
3.310000e+00, 300.081
3.320000e+00, 300.05
3.330000e+00, 300.078
3.340000e+00, 300.048
3.350000e+00, 300.076
3.360000e+00, 300.045
3.370000e+00, 300.073
3.380000e+00, 300.043
3.390000e+00, 300.07
3.400000e+00, 300.041
3.410000e+00, 300.068
3.420000e+00, 300.039
3.430000e+00, 300.065
3.440000e+00, 300.037
3.450000e+00, 300.063
3.460000e+00, 300.036
3.470000e+00, 300.061
3.480000e+00, 300.034
3.490000e+00, 300.059
3.500000e+00, 300.032
3.510000e+00, 300.057
3.520000e+00, 300.031
3.530000e+00, 300.055
3.540000e+00, 300.029
3.550000e+00, 300.053
3.560000e+00, 300.028
3.570000e+00, 300.052
3.580000e+00, 300.027
3.590000e+00, 300.05
3.600000e+00, 300.026
3.610000e+00, 300.048
3.620000e+00, 300.025
3.630000e+00, 300.047
3.640000e+00, 300.023
3.650000e+00, 300.045
3.660000e+00, 300.022
3.670000e+00, 300.044
3.680000e+00, 300.021
3.690000e+00, 300.043
3.700000e+00, 300.021
3.710000e+00, 300.041
3.720000e+00, 300.02
3.730000e+00, 300.04
3.740000e+00, 300.019
3.750000e+00, 300.039
3.760000e+00, 300.018
3.770000e+00, 300.038
3.780000e+00, 300.017
3.790000e+00, 300.037
3.800000e+00, 300.017
3.810000e+00, 300.036
3.820000e+00, 300.016
3.830000e+00, 300.035
3.840000e+00, 300.015
3.850000e+00, 300.034
3.860000e+00, 300.015
3.870000e+00, 300.033
3.880000e+00, 300.014
3.890000e+00, 300.032
3.900000e+00, 300.014
3.910000e+00, 300.031
3.920000e+00, 300.013
3.930000e+00, 300.03
3.940000e+00, 300.013
3.950000e+00, 300.03
3.960000e+00, 300.012
3.970000e+00, 300.029
3.980000e+00, 300.012
3.990000e+00, 300.028
4.000000e+00, 304.428
4.010000e+00, 305.883
4.020000e+00, 308.356
4.030000e+00, 308.857
4.040000e+00, 310.985
4.050000e+00, 311.232
4.060000e+00, 313.152
4.070000e+00, 313.262
4.080000e+00, 315.024
4.090000e+00, 315.025
4.100000e+00, 316.653
4.110000e+00, 316.566
4.120000e+00, 318.081
4.130000e+00, 317.914
4.140000e+00, 319.332
4.150000e+00, 319.106
4.160000e+00, 320.435
4.170000e+00, 320.157
4.180000e+00, 321.406
4.190000e+00, 321.088
4.200000e+00, 322.273
4.210000e+00, 321.921
4.220000e+00, 323.044
4.230000e+00, 322.665
4.240000e+00, 323.733
4.250000e+00, 323.33
4.260000e+00, 324.349
4.270000e+00, 323.929
4.280000e+00, 324.903
4.290000e+00, 324.469
4.300000e+00, 325.402
4.310000e+00, 324.959
4.320000e+00, 325.856
4.330000e+00, 325.403
4.340000e+00, 326.266
4.350000e+00, 325.807
4.360000e+00, 326.638
4.370000e+00, 326.175
4.380000e+00, 326.976
4.390000e+00, 326.51
4.400000e+00, 327.284
4.410000e+00, 326.816
4.420000e+00, 327.565
4.430000e+00, 327.097
4.440000e+00, 327.822
4.450000e+00, 327.355
4.460000e+00, 328.057
4.470000e+00, 327.591
4.480000e+00, 328.272
4.490000e+00, 327.808
4.500000e+00, 328.469
4.510000e+00, 328.009
4.520000e+00, 328.651
4.530000e+00, 328.194
4.540000e+00, 328.817
4.550000e+00, 328.364
4.560000e+00, 328.971
4.570000e+00, 328.522
4.580000e+00, 329.112
4.590000e+00, 328.668
4.600000e+00, 329.243
4.610000e+00, 328.804
4.620000e+00, 329.363
4.630000e+00, 328.93
4.640000e+00, 329.475
4.650000e+00, 329.047
4.660000e+00, 329.578
4.670000e+00, 329.155
4.680000e+00, 329.673
4.690000e+00, 329.257
4.700000e+00, 329.762
4.710000e+00, 329.351
4.720000e+00, 329.844
4.730000e+00, 329.439
4.740000e+00, 329.92
4.750000e+00, 329.521
4.760000e+00, 329.991
4.770000e+00, 329.598
4.780000e+00, 330.056
4.790000e+00, 329.67
4.800000e+00, 330.117
4.810000e+00, 329.737
4.820000e+00, 330.174
4.830000e+00, 329.8
4.840000e+00, 330.227
4.850000e+00, 329.859
4.860000e+00, 330.277
4.870000e+00, 329.914
4.880000e+00, 330.323
4.890000e+00, 329.966
4.900000e+00, 330.366
4.910000e+00, 330.015
4.920000e+00, 330.406
4.930000e+00, 330.061
4.940000e+00, 330.443
4.950000e+00, 330.105
4.960000e+00, 330.478
4.970000e+00, 330.146
4.980000e+00, 330.51
4.990000e+00, 330.184
5.000000e+00, 330.541
5.010000e+00, 330.22
5.020000e+00, 330.569
5.030000e+00, 330.254
5.040000e+00, 330.596
5.050000e+00, 330.287
5.060000e+00, 330.621
5.070000e+00, 330.317
5.080000e+00, 330.644
5.090000e+00, 330.346
5.100000e+00, 330.666
5.110000e+00, 330.373
5.120000e+00, 330.687
5.130000e+00, 330.399
5.140000e+00, 330.706
5.150000e+00, 330.424
5.160000e+00, 330.724
5.170000e+00, 330.447
5.180000e+00, 330.741
5.190000e+00, 330.469
5.200000e+00, 330.757
5.210000e+00, 330.49
5.220000e+00, 330.771
5.230000e+00, 330.509
5.240000e+00, 330.785
5.250000e+00, 330.528
5.260000e+00, 330.798
5.270000e+00, 330.546
5.280000e+00, 330.811
5.290000e+00, 330.563
5.300000e+00, 330.822
5.310000e+00, 330.579
5.320000e+00, 330.833
5.330000e+00, 330.594
5.340000e+00, 330.843
5.350000e+00, 330.609
5.360000e+00, 330.852
5.370000e+00, 330.623
5.380000e+00, 330.861
5.390000e+00, 330.636
5.400000e+00, 330.869
5.410000e+00, 330.648
5.420000e+00, 330.877
5.430000e+00, 330.66
5.440000e+00, 330.884
5.450000e+00, 330.672
5.460000e+00, 330.891
5.470000e+00, 330.683
5.480000e+00, 330.897
5.490000e+00, 330.693
5.500000e+00, 330.903
5.510000e+00, 330.703
5.520000e+00, 330.909
5.530000e+00, 330.712
5.540000e+00, 330.914
5.550000e+00, 330.721
5.560000e+00, 330.919
5.570000e+00, 330.73
5.580000e+00, 330.924
5.590000e+00, 330.738
5.600000e+00, 330.928
5.610000e+00, 330.746
5.620000e+00, 330.932
5.630000e+00, 330.753
5.640000e+00, 330.936
5.650000e+00, 330.761
5.660000e+00, 330.939
5.670000e+00, 330.767
5.680000e+00, 330.942
5.690000e+00, 330.774
5.700000e+00, 330.945
5.710000e+00, 330.78
5.720000e+00, 330.948
5.730000e+00, 330.786
5.740000e+00, 330.951
5.750000e+00, 330.792
5.760000e+00, 330.953
5.770000e+00, 330.798
5.780000e+00, 330.955
5.790000e+00, 330.803
5.800000e+00, 330.958
5.810000e+00, 330.808
5.820000e+00, 330.96
5.830000e+00, 330.813
5.840000e+00, 330.961
5.850000e+00, 330.817
5.860000e+00, 330.963
5.870000e+00, 330.822
5.880000e+00, 330.965
5.890000e+00, 330.826
5.900000e+00, 330.966
5.910000e+00, 330.83
5.920000e+00, 330.967
5.930000e+00, 330.834
5.940000e+00, 330.968
5.950000e+00, 330.838
5.960000e+00, 330.97
5.970000e+00, 330.842
5.980000e+00, 330.97
5.990000e+00, 330.845
6.000000e+00, 330.971
6.010000e+00, 330.848
6.020000e+00, 330.972
6.030000e+00, 330.852
6.040000e+00, 330.973
6.050000e+00, 330.855
6.060000e+00, 330.974
6.070000e+00, 330.858
6.080000e+00, 330.974
6.090000e+00, 330.861
6.100000e+00, 330.975
6.110000e+00, 330.863
6.120000e+00, 330.975
6.130000e+00, 330.866
6.140000e+00, 330.976
6.150000e+00, 330.869
6.160000e+00, 330.976
6.170000e+00, 330.871
6.180000e+00, 330.976
6.190000e+00, 330.874
6.200000e+00, 330.977
6.210000e+00, 330.876
6.220000e+00, 330.977
6.230000e+00, 330.878
6.240000e+00, 330.977
6.250000e+00, 330.88
6.260000e+00, 330.977
6.270000e+00, 330.882
6.280000e+00, 330.977
6.290000e+00, 330.884
6.300000e+00, 330.977
6.310000e+00, 330.886
6.320000e+00, 330.977
6.330000e+00, 330.888
6.340000e+00, 330.977
6.350000e+00, 330.89
6.360000e+00, 330.977
6.370000e+00, 330.891
6.380000e+00, 330.977
6.390000e+00, 330.893
6.400000e+00, 330.977
6.410000e+00, 330.895
6.420000e+00, 330.977
6.430000e+00, 330.896
6.440000e+00, 330.977
6.450000e+00, 330.898
6.460000e+00, 330.977
6.470000e+00, 330.899
6.480000e+00, 330.977
6.490000e+00, 330.901
6.500000e+00, 330.977
6.510000e+00, 330.902
6.520000e+00, 330.977
6.530000e+00, 330.903
6.540000e+00, 330.976
6.550000e+00, 330.904
6.560000e+00, 330.976
6.570000e+00, 330.906
6.580000e+00, 330.976
6.590000e+00, 330.907
6.600000e+00, 330.976
6.610000e+00, 330.908
6.620000e+00, 330.976
6.630000e+00, 330.909
6.640000e+00, 330.975
6.650000e+00, 330.91
6.660000e+00, 330.975
6.670000e+00, 330.911
6.680000e+00, 330.975
6.690000e+00, 330.912
6.700000e+00, 330.975
6.710000e+00, 330.913
6.720000e+00, 330.974
6.730000e+00, 330.914
6.740000e+00, 330.974
6.750000e+00, 330.915
6.760000e+00, 330.974
6.770000e+00, 330.916
6.780000e+00, 330.974
6.790000e+00, 330.917
6.800000e+00, 330.973
6.810000e+00, 330.918
6.820000e+00, 330.973
6.830000e+00, 330.919
6.840000e+00, 330.973
6.850000e+00, 330.919
6.860000e+00, 330.972
6.870000e+00, 330.92
6.880000e+00, 330.972
6.890000e+00, 330.921
6.900000e+00, 330.972
6.910000e+00, 330.922
6.920000e+00, 330.972
6.930000e+00, 330.922
6.940000e+00, 330.971
6.950000e+00, 330.923
6.960000e+00, 330.971
6.970000e+00, 330.924
6.980000e+00, 330.971
6.990000e+00, 330.924
7.000000e+00, 328.191
7.010000e+00, 327.172
7.020000e+00, 325.312
7.030000e+00, 324.062
7.040000e+00, 322.355
7.050000e+00, 321.284
7.060000e+00, 319.764
7.070000e+00, 318.904
7.080000e+00, 317.552
7.090000e+00, 316.876
7.100000e+00, 315.664
7.110000e+00, 315.138
7.120000e+00, 314.044
7.130000e+00, 313.64
7.140000e+00, 312.643
7.150000e+00, 312.338
7.160000e+00, 311.425
7.170000e+00, 311.2
7.180000e+00, 310.357
7.190000e+00, 310.199
7.200000e+00, 309.416
7.210000e+00, 309.313
7.220000e+00, 308.584
7.230000e+00, 308.527
7.240000e+00, 307.843
7.250000e+00, 307.825
7.260000e+00, 307.182
7.270000e+00, 307.195
7.280000e+00, 306.589
7.290000e+00, 306.63
7.300000e+00, 306.056
7.310000e+00, 306.12
7.320000e+00, 305.575
7.330000e+00, 305.659
7.340000e+00, 305.14
7.350000e+00, 305.241
7.360000e+00, 304.746
7.370000e+00, 304.861
7.380000e+00, 304.388
7.390000e+00, 304.515
7.400000e+00, 304.062
7.410000e+00, 304.199
7.420000e+00, 303.765
7.430000e+00, 303.91
7.440000e+00, 303.494
7.450000e+00, 303.646
7.460000e+00, 303.245
7.470000e+00, 303.404
7.480000e+00, 303.018
7.490000e+00, 303.181
7.500000e+00, 302.809
7.510000e+00, 302.976
7.520000e+00, 302.616
7.530000e+00, 302.787
7.540000e+00, 302.44
7.550000e+00, 302.613
7.560000e+00, 302.277
7.570000e+00, 302.452
7.580000e+00, 302.126
7.590000e+00, 302.303
7.600000e+00, 301.988
7.610000e+00, 302.165
7.620000e+00, 301.859
7.630000e+00, 302.037
7.640000e+00, 301.74
7.650000e+00, 301.918
7.660000e+00, 301.63
7.670000e+00, 301.808
7.680000e+00, 301.528
7.690000e+00, 301.705
7.700000e+00, 301.433
7.710000e+00, 301.609
7.720000e+00, 301.345
7.730000e+00, 301.52
7.740000e+00, 301.263
7.750000e+00, 301.437
7.760000e+00, 301.187
7.770000e+00, 301.36
7.780000e+00, 301.116
7.790000e+00, 301.287
7.800000e+00, 301.05
7.810000e+00, 301.219
7.820000e+00, 300.988
7.830000e+00, 301.156
7.840000e+00, 300.93
7.850000e+00, 301.096
7.860000e+00, 300.876
7.870000e+00, 301.04
7.880000e+00, 300.826
7.890000e+00, 300.988
7.900000e+00, 300.778
7.910000e+00, 300.939
7.920000e+00, 300.734
7.930000e+00, 300.892
7.940000e+00, 300.693
7.950000e+00, 300.849
7.960000e+00, 300.654
7.970000e+00, 300.808
7.980000e+00, 300.618
7.990000e+00, 300.769
8.000000e+00, 300.583
8.010000e+00, 300.733
8.020000e+00, 300.551
8.030000e+00, 300.699
8.040000e+00, 300.521
8.050000e+00, 300.666
8.060000e+00, 300.493
8.070000e+00, 300.636
8.080000e+00, 300.466
8.090000e+00, 300.607
8.100000e+00, 300.441
8.110000e+00, 300.579
8.120000e+00, 300.417
8.130000e+00, 300.553
8.140000e+00, 300.395
8.150000e+00, 300.529
8.160000e+00, 300.374
8.170000e+00, 300.506
8.180000e+00, 300.354
8.190000e+00, 300.484
8.200000e+00, 300.336
8.210000e+00, 300.463
8.220000e+00, 300.318
8.230000e+00, 300.443
8.240000e+00, 300.301
8.250000e+00, 300.425
8.260000e+00, 300.286
8.270000e+00, 300.407
8.280000e+00, 300.271
8.290000e+00, 300.39
8.300000e+00, 300.257
8.310000e+00, 300.374
8.320000e+00, 300.244
8.330000e+00, 300.359
8.340000e+00, 300.231
8.350000e+00, 300.344
8.360000e+00, 300.219
8.370000e+00, 300.33
8.380000e+00, 300.208
8.390000e+00, 300.317
8.400000e+00, 300.198
8.410000e+00, 300.305
8.420000e+00, 300.188
8.430000e+00, 300.293
8.440000e+00, 300.178
8.450000e+00, 300.282
8.460000e+00, 300.169
8.470000e+00, 300.271
8.480000e+00, 300.161
8.490000e+00, 300.26
8.500000e+00, 300.153
8.510000e+00, 300.251
8.520000e+00, 300.145
8.530000e+00, 300.241
8.540000e+00, 300.138
8.550000e+00, 300.232
8.560000e+00, 300.131
8.570000e+00, 300.224
8.580000e+00, 300.125
8.590000e+00, 300.216
8.600000e+00, 300.118
8.610000e+00, 300.208
8.620000e+00, 300.113
8.630000e+00, 300.2
8.640000e+00, 300.107
8.650000e+00, 300.193
8.660000e+00, 300.102
8.670000e+00, 300.186
8.680000e+00, 300.097
8.690000e+00, 300.18
8.700000e+00, 300.092
8.710000e+00, 300.174
8.720000e+00, 300.088
8.730000e+00, 300.168
8.740000e+00, 300.084
8.750000e+00, 300.162
8.760000e+00, 300.08
8.770000e+00, 300.156
8.780000e+00, 300.076
8.790000e+00, 300.151
8.800000e+00, 300.073
8.810000e+00, 300.146
8.820000e+00, 300.069
8.830000e+00, 300.142
8.840000e+00, 300.066
8.850000e+00, 300.137
8.860000e+00, 300.063
8.870000e+00, 300.133
8.880000e+00, 300.061
8.890000e+00, 300.129
8.900000e+00, 300.058
8.910000e+00, 300.125
8.920000e+00, 300.055
8.930000e+00, 300.121
8.940000e+00, 300.053
8.950000e+00, 300.118
8.960000e+00, 300.051
8.970000e+00, 300.114
8.980000e+00, 300.049
8.990000e+00, 300.111
9.000000e+00, 300.046
9.010000e+00, 300.108
9.020000e+00, 300.044
9.030000e+00, 300.105
9.040000e+00, 300.043
9.050000e+00, 300.102
9.060000e+00, 300.041
9.070000e+00, 300.099
9.080000e+00, 300.039
9.090000e+00, 300.097
9.100000e+00, 300.038
9.110000e+00, 300.094
9.120000e+00, 300.036
9.130000e+00, 300.092
9.140000e+00, 300.035
9.150000e+00, 300.089
9.160000e+00, 300.033
9.170000e+00, 300.087
9.180000e+00, 300.032
9.190000e+00, 300.085
9.200000e+00, 300.031
9.210000e+00, 300.083
9.220000e+00, 300.03
9.230000e+00, 300.081
9.240000e+00, 300.029
9.250000e+00, 300.079
9.260000e+00, 300.028
9.270000e+00, 300.077
9.280000e+00, 300.027
9.290000e+00, 300.075
9.300000e+00, 300.026
9.310000e+00, 300.073
9.320000e+00, 300.025
9.330000e+00, 300.071
9.340000e+00, 300.024
9.350000e+00, 300.07
9.360000e+00, 300.023
9.370000e+00, 300.068
9.380000e+00, 300.022
9.390000e+00, 300.067
9.400000e+00, 300.021
9.410000e+00, 300.065
9.420000e+00, 300.021
9.430000e+00, 300.064
9.440000e+00, 300.02
9.450000e+00, 300.062
9.460000e+00, 300.019
9.470000e+00, 300.061
9.480000e+00, 300.019
9.490000e+00, 300.06
9.500000e+00, 300.018
9.510000e+00, 300.058
9.520000e+00, 300.018
9.530000e+00, 300.057
9.540000e+00, 300.017
9.550000e+00, 300.056
9.560000e+00, 300.017
9.570000e+00, 300.055
9.580000e+00, 300.016
9.590000e+00, 300.054
9.600000e+00, 300.016
9.610000e+00, 300.053
9.620000e+00, 300.015
9.630000e+00, 300.052
9.640000e+00, 300.015
9.650000e+00, 300.051
9.660000e+00, 300.015
9.670000e+00, 300.05
9.680000e+00, 300.014
9.690000e+00, 300.049
9.700000e+00, 300.014
9.710000e+00, 300.048
9.720000e+00, 300.013
9.730000e+00, 300.047
9.740000e+00, 300.013
9.750000e+00, 300.046
9.760000e+00, 300.013
9.770000e+00, 300.045
9.780000e+00, 300.012
9.790000e+00, 300.044
9.800000e+00, 300.012
9.810000e+00, 300.043
9.820000e+00, 300.012
9.830000e+00, 300.043
9.840000e+00, 300.012
9.850000e+00, 300.042
9.860000e+00, 300.011
9.870000e+00, 300.041
9.880000e+00, 300.011
9.890000e+00, 300.04
9.900000e+00, 300.011
9.910000e+00, 300.04
9.920000e+00, 300.011
9.930000e+00, 300.039
9.940000e+00, 300.01
9.950000e+00, 300.038
9.960000e+00, 300.01
9.970000e+00, 300.038
9.980000e+00, 300.01
9.990000e+00, 300.037
