nev,x_meret,y_meret,x_pozicio,y_pozicio
l_io,1212.1980239902,10523.0676374942,125.25,155.8495557927
r_io,1212.1980239902,10523.0676374942,12441.6016293088,155.8495557927
t_io,11104.7473792129,951.6580285079,1335.1052268066,149.4938300826
ddr3,13461.014774562,1434.8722170024,151.0250753038,10678.8004924716
core4,4674.009638933,3399.5971167946,1338.596400084,7280.371865156
core1,4674.009638933,3399.5971167946,1338.596400084,1103.37323004
core3,4674.009638933,3399.5971167946,7771.7545431297,7280.371865156
core2,4674.009638933,3399.5971167946,7771.7545431297,1103.37323004
L2_4,4674.009638933,1385,1338.596400084,5895.371865156
L2_1,4674.009638933,1385,1338.596400084,4502.9703468346
L2_3,4674.009638933,1385,7771.7545431297,5895.371865156
L2_2,4674.009638933,1385,7771.7545431297,4502.9703468346
