"V1","V2","V3","V4"
0.0720000000000027,9000,8999,9001
0.0319999999999823,46000,45999,46001
0.0219999999999914,104000,103999,104001
0.0149999999999864,199000,198999,199001
0.007000000000005,391000,390999,391001
0.161999999999978,2000001,1999999,2000039
0.0670000000000073,2001001,2001000,2001002
0.0149999999999864,2085001,2085000,2085002
0.819999999999993,4000001,3999999,4000091
0.382000000000005,4001001,4001000,4001002
0.367999999999995,4002001,4002000,4002002
0.322999999999979,4004001,4004000,4004002
0.254000000000019,4007001,4007000,4007002
0.173000000000002,4013001,4013000,4013002
0.158000000000015,4015001,4015000,4015002
0.151999999999987,4016001,4016000,4016002
0.129999999999995,4021001,4021000,4021002
0.116000000000042,4026001,4026000,4026002
0.113,4029001,4029000,4029002
0.105000000000018,4034001,4034000,4034002
0.0950000000000273,4043001,4043000,4043002
0.0930000000000177,4045001,4045000,4045002
0.0919999999999845,4046001,4046000,4046002
0.0799999999999841,4060001,4060000,4060002
0.0740000000000123,4067001,4067000,4067002
0.0720000000000027,4070001,4070000,4070002
0.0640000000000214,4080001,4080000,4080002
0.0430000000000064,4117001,4117000,4117002
0.0389999999999873,4127001,4127000,4127002
0.0380000000000109,4130001,4130000,4130002
0.0330000000000155,4141001,4141000,4141002
0.0330000000000155,4143001,4143000,4143002
0.0300000000000296,4148000,4147999,4148001
0.0289999999999964,4158000,4157999,4158001
0.0289999999999964,4164000,4163999,4164001
0.0269999999999868,4182000,4181999,4182001
0.0269999999999868,4195000,4194999,4195001
0.0240000000000009,4227000,4226999,4227001
0.0219999999999914,4258000,4257999,4258001
0.0160000000000196,4372000,4371999,4372001
0.01400000000001,4416000,4415999,4416001
0.0120000000000005,4467000,4466999,4467001
0.809000000000026,7000001,6999999,7000091
0.288000000000011,7002001,7002000,7002002
0.178999999999974,7005001,7005000,7005002
0.154000000000053,7006001,7006000,7006002
0.156999999999982,7015001,7015000,7015002
0.158000000000015,7016001,7016000,7016002
0.158000000000015,7022001,7022000,7022002
0.153999999999996,7026001,7026000,7026002
0.152000000000044,7028001,7028000,7028002
0.141999999999996,7034001,7034000,7034002
0.139999999999986,7035001,7035000,7035002
0.132000000000005,7040001,7040000,7040002
0.125999999999976,7043001,7043000,7043002
0.115999999999985,7049001,7049000,7049002
0.11099999999999,7052001,7052000,7052002
0.108000000000004,7054001,7054000,7054002
0.105000000000018,7056001,7056000,7056002
0.0939999999999941,7064001,7064000,7064002
0.0869999999999891,7069001,7069000,7069002
0.0830000000000268,7073001,7073000,7073002
0.0659999999999741,7090001,7090000,7090002
0.0519999999999641,7108001,7108000,7108002
0.0500000000000114,7112001,7112000,7112002
0.0430000000000064,7124001,7124000,7124002
0.0409999999999968,7127001,7127000,7127002
0.0400000000000205,7130001,7130000,7130002
0.0349999999999682,7141001,7141000,7141002
0.0339999999999918,7154000,7153999,7154001
0.0339999999999918,7156000,7155999,7156001
0.0330000000000155,7160000,7159999,7160001
0.0330000000000155,7162000,7161999,7162001
0.0319999999999823,7178000,7177999,7178001
0.0310000000000059,7183000,7182999,7183001
0.0310000000000059,7185000,7184999,7185001
0.0299999999999727,7193000,7192999,7193001
0.0300000000000296,7194000,7193999,7194001
0.0299999999999727,7196000,7195999,7196001
0.0289999999999964,7209000,7208999,7209001
0.0249999999999773,7253000,7252999,7253001
0.0240000000000009,7264000,7263999,7264001
0.0240000000000009,7268000,7267999,7268001
0.0189999999999486,7330000,7329999,7330001
0.00900000000001455,7574000,7573999,7574001
0.00799999999998136,7625000,7624999,7625001
0.007000000000005,7663000,7662999,7663001
