timestamp, processor_dynamic_dissipation
1.000000e-04,6.47943
2.000000e-04,24.748
3.000000e-04,29.4742
4.000000e-04,29.4258
5.000000e-04,29.4733
6.000000e-04,29.4382
7.000000e-04,29.4641
8.000000e-04,29.4742
9.000000e-04,29.4273
1.000000e-03,29.4747
1.100000e-03,29.4378
1.200000e-03,29.4641
1.300000e-03,29.4746
1.400000e-03,29.4272
1.500000e-03,29.4745
1.600000e-03,29.438
1.700000e-03,29.4647
1.800000e-03,29.4732
1.900000e-03,29.4281
2.000000e-03,29.474
2.100000e-03,29.4386
2.200000e-03,29.4632
2.300000e-03,29.4747
2.400000e-03,29.4251
2.500000e-03,29.4737
2.600000e-03,29.4374
2.700000e-03,29.4643
2.800000e-03,29.4742
2.900000e-03,29.4285
3.000000e-03,29.4738
3.100000e-03,29.4383
3.200000e-03,29.4636
3.300000e-03,29.4957
3.400000e-03,29.4057
3.500000e-03,29.4747
3.600000e-03,29.4342
3.700000e-03,29.4681
3.800000e-03,29.499
3.900000e-03,29.4019
4.000000e-03,29.4748
4.100000e-03,29.4281
4.200000e-03,13.8753
4.300000e-03,15.3356
4.400000e-03,15.6622
4.500000e-03,15.5168
4.600000e-03,15.233
4.700000e-03,14.497
4.800000e-03,15.0672
4.900000e-03,14.8538
5.000000e-03,15.0332
5.100000e-03,14.8798
5.200000e-03,14.8894
5.300000e-03,14.2772
5.400000e-03,14.862
5.500000e-03,14.3265
5.600000e-03,14.898
5.700000e-03,14.6841
5.800000e-03,14.0286
5.900000e-03,13.849
6.000000e-03,13.5929
6.100000e-03,13.7848
6.200000e-03,13.4867
6.300000e-03,13.4684
6.400000e-03,13.207
6.500000e-03,13.4371
6.600000e-03,12.6623
6.700000e-03,13.0147
6.800000e-03,13.0693
6.900000e-03,12.393
7.000000e-03,12.672
7.100000e-03,12.857
7.200000e-03,12.2463
7.300000e-03,12.5261
7.400000e-03,12.6596
7.500000e-03,12.6385
7.600000e-03,12.5161
7.700000e-03,12.5264
7.800000e-03,12.2817
7.900000e-03,12.1037
8.000000e-03,11.9222
8.100000e-03,12.1621
8.200000e-03,12.3557
8.300000e-03,12.0961
8.400000e-03,12.0413
8.500000e-03,12.4033
8.600000e-03,11.9497
8.700000e-03,12.123
8.800000e-03,12.3622
8.900000e-03,12.1671
9.000000e-03,12.0427
9.100000e-03,12.0974
9.200000e-03,12.0061
9.300000e-03,12.116
9.400000e-03,11.9388
9.500000e-03,11.9004
9.600000e-03,12.0223
9.700000e-03,11.9155
9.800000e-03,11.8594
9.900000e-03,11.6903
1.000000e-02,11.5674
1.010000e-02,11.5831
1.020000e-02,11.5903
1.030000e-02,11.7948
1.040000e-02,11.7802
1.050000e-02,11.6528
1.060000e-02,11.2749
1.070000e-02,11.5644
1.080000e-02,11.3718
1.090000e-02,11.2656
1.100000e-02,11.6065
1.110000e-02,11.3135
1.120000e-02,11.3759
1.130000e-02,10.9503
1.140000e-02,11.0556
1.150000e-02,10.9989
1.160000e-02,11.0764
1.170000e-02,10.9578
1.180000e-02,10.7185
1.190000e-02,11.1939
1.200000e-02,10.9409
1.210000e-02,10.8375
1.220000e-02,10.9803
1.230000e-02,10.9386
1.240000e-02,10.7582
1.250000e-02,10.9164
1.260000e-02,10.7455
1.270000e-02,10.8937
1.280000e-02,10.6807
1.290000e-02,11.0562
1.300000e-02,10.3913
1.310000e-02,10.865
1.320000e-02,10.8698
1.330000e-02,10.7634
1.340000e-02,10.6861
1.350000e-02,10.767
1.360000e-02,10.5436
1.370000e-02,10.6953
1.380000e-02,10.6536
1.390000e-02,10.5213
1.400000e-02,10.4402
1.410000e-02,10.7195
1.420000e-02,10.2102
1.430000e-02,10.6937
1.440000e-02,10.3402
1.450000e-02,10.6157
1.460000e-02,10.6372
1.470000e-02,10.5102
1.480000e-02,10.8375
1.490000e-02,10.3629
1.500000e-02,10.67
1.510000e-02,10.2388
1.520000e-02,10.282
1.530000e-02,10.6694
1.540000e-02,10.2456
1.550000e-02,10.7305
1.560000e-02,10.2483
1.570000e-02,10.3588
1.580000e-02,10.4853
1.590000e-02,10.2862
1.600000e-02,10.5236
1.610000e-02,10.5491
1.620000e-02,10.218
1.630000e-02,10.4562
1.640000e-02,10.2715
1.650000e-02,10.1353
1.660000e-02,10.4232
1.670000e-02,10.2685
1.680000e-02,10.2133
1.690000e-02,10.223
1.700000e-02,10.1888
1.710000e-02,10.0756
1.720000e-02,10.3348
1.730000e-02,10.4078
1.740000e-02,10.0773
1.750000e-02,9.90459
1.760000e-02,10.461
1.770000e-02,10.1707
1.780000e-02,9.95583
1.790000e-02,10.4715
1.800000e-02,10.05
1.810000e-02,9.872
1.820000e-02,9.88178
1.830000e-02,10.4245
1.840000e-02,10.0871
1.850000e-02,9.89644
1.860000e-02,10.2203
1.870000e-02,10.1682
1.880000e-02,10.0398
1.890000e-02,9.83258
1.900000e-02,10.2498
1.910000e-02,9.91813
1.920000e-02,10.0863
1.930000e-02,10.0119
1.940000e-02,10.3188
1.950000e-02,10.1424
1.960000e-02,9.98022
1.970000e-02,9.82053
1.980000e-02,9.92874
1.990000e-02,10.0186
2.000000e-02,10.0058
2.010000e-02,10.0814
2.020000e-02,9.86835
2.030000e-02,9.84785
2.040000e-02,10.0644
2.050000e-02,9.93655
2.060000e-02,9.85533
2.070000e-02,9.74971
2.080000e-02,9.91085
2.090000e-02,10.1261
2.100000e-02,9.93722
2.110000e-02,9.84599
2.120000e-02,9.926
2.130000e-02,10.1898
2.140000e-02,10.0396
2.150000e-02,9.86248
2.160000e-02,9.91872
2.170000e-02,9.86189
2.180000e-02,10.1572
2.190000e-02,10.023
2.200000e-02,9.77366
2.210000e-02,9.9466
2.220000e-02,9.90169
2.230000e-02,9.99838
2.240000e-02,9.70257
2.250000e-02,37.8949
2.260000e-02,2.51504
2.270000e-02,5.59922
2.280000e-02,15.6171
2.290000e-02,17.1609
2.300000e-02,14.5755
2.310000e-02,15.0692
2.320000e-02,14.7816
2.330000e-02,14.9671
2.340000e-02,14.6969
2.350000e-02,14.9552
2.360000e-02,14.8174
2.370000e-02,14.8153
2.380000e-02,14.9685
2.390000e-02,14.8651
2.400000e-02,15.1719
2.410000e-02,21.0143
2.420000e-02,21.2767
2.430000e-02,27.2973
2.440000e-02,30.7798
2.450000e-02,42.7112
2.460000e-02,47.3502
2.470000e-02,63.2571
2.480000e-02,70.2281
2.490000e-02,70.1804
2.500000e-02,70.171
2.510000e-02,69.0208
2.520000e-02,70.3885
2.530000e-02,69.9207
2.540000e-02,68.9236
2.550000e-02,70.7422
2.560000e-02,64.7494
2.570000e-02,67.6983
2.580000e-02,65.5298
2.590000e-02,63.6447
2.600000e-02,64.2488
2.610000e-02,65.6207
2.620000e-02,66.8619
2.630000e-02,63.9948
2.640000e-02,66.2481
2.650000e-02,65.8515
2.660000e-02,64.7792
2.670000e-02,67.0286
2.680000e-02,63.3703
2.690000e-02,65.2014
2.700000e-02,66.2674
2.710000e-02,49.3238
2.720000e-02,31.6508
2.730000e-02,20.3528
2.740000e-02,23.447
2.750000e-02,12.6439
2.760000e-02,18.4069
2.770000e-02,16.4446
2.780000e-02,18.7378
2.790000e-02,17.9732
2.800000e-02,18.7063
2.810000e-02,22.588
2.820000e-02,47.2138
2.830000e-02,58.9872
2.840000e-02,74.5324
2.850000e-02,86.965
2.860000e-02,85.0664
2.870000e-02,85.4133
2.880000e-02,85.3036
2.890000e-02,84.6388
2.900000e-02,84.6189
2.910000e-02,83.5622
2.920000e-02,85.3851
2.930000e-02,84.746
2.940000e-02,85.607
2.950000e-02,85.3561
2.960000e-02,85.3479
2.970000e-02,85.0942
2.980000e-02,83.2601
2.990000e-02,76.2258
3.000000e-02,58.9862
3.010000e-02,44.0921
3.020000e-02,34.5915
3.030000e-02,56.0602
3.040000e-02,8.86581
