<?xml version="1.0" encoding="UTF-8" standalone="no"?>
<!-- Created with Inkscape (http://www.inkscape.org/) -->

<svg
   xmlns:dc="http://purl.org/dc/elements/1.1/"
   xmlns:cc="http://creativecommons.org/ns#"
   xmlns:rdf="http://www.w3.org/1999/02/22-rdf-syntax-ns#"
   xmlns:svg="http://www.w3.org/2000/svg"
   xmlns="http://www.w3.org/2000/svg"
   xmlns:sodipodi="http://sodipodi.sourceforge.net/DTD/sodipodi-0.dtd"
   xmlns:inkscape="http://www.inkscape.org/namespaces/inkscape"
   width="63.46809mm"
   height="29.912817mm"
   viewBox="0 0 224.88688 105.99029"
   id="svg2"
   version="1.1"
   inkscape:version="0.92.4 (5da689c313, 2019-01-14)"
   sodipodi:docname="tomb_hoellenallas_hokapacitas.svg">
  <defs
     id="defs4">
    <marker
       inkscape:stockid="Arrow2Mstart"
       orient="auto"
       refY="0"
       refX="0"
       id="marker4545"
       style="overflow:visible"
       inkscape:isstock="true">
      <path
         id="path4547"
         style="fill:#000000;fill-opacity:1;fill-rule:evenodd;stroke:#000000;stroke-width:0.625;stroke-linejoin:round;stroke-opacity:1"
         d="M 8.7185878,4.0337352 -2.2072895,0.01601326 8.7185884,-4.0017078 c -1.7454984,2.3720609 -1.7354408,5.6174519 -6e-7,8.035443 z"
         transform="scale(0.6,0.6)"
         inkscape:connector-curvature="0" />
    </marker>
    <marker
       inkscape:stockid="Arrow2Mstart"
       orient="auto"
       refY="0"
       refX="0"
       id="marker4487"
       style="overflow:visible"
       inkscape:isstock="true">
      <path
         id="path4489"
         style="fill:#000000;fill-opacity:1;fill-rule:evenodd;stroke:#000000;stroke-width:0.625;stroke-linejoin:round;stroke-opacity:1"
         d="M 8.7185878,4.0337352 -2.2072895,0.01601326 8.7185884,-4.0017078 c -1.7454984,2.3720609 -1.7354408,5.6174519 -6e-7,8.035443 z"
         transform="scale(0.6,0.6)"
         inkscape:connector-curvature="0" />
    </marker>
    <marker
       inkscape:isstock="true"
       style="overflow:visible"
       id="marker5434"
       refX="0"
       refY="0"
       orient="auto"
       inkscape:stockid="Arrow2Mend">
      <path
         transform="scale(-0.6,-0.6)"
         d="M 8.7185878,4.0337352 -2.2072895,0.01601326 8.7185884,-4.0017078 c -1.7454984,2.3720609 -1.7354408,5.6174519 -6e-7,8.035443 z"
         style="fill:#000000;fill-opacity:1;fill-rule:evenodd;stroke:#000000;stroke-width:0.625;stroke-linejoin:round;stroke-opacity:1"
         id="path5436"
         inkscape:connector-curvature="0" />
    </marker>
    <marker
       inkscape:isstock="true"
       style="overflow:visible"
       id="marker5376"
       refX="0"
       refY="0"
       orient="auto"
       inkscape:stockid="Arrow2Mstart">
      <path
         transform="scale(0.6,0.6)"
         d="M 8.7185878,4.0337352 -2.2072895,0.01601326 8.7185884,-4.0017078 c -1.7454984,2.3720609 -1.7354408,5.6174519 -6e-7,8.035443 z"
         style="fill:#000000;fill-opacity:1;fill-rule:evenodd;stroke:#000000;stroke-width:0.625;stroke-linejoin:round;stroke-opacity:1"
         id="path5378"
         inkscape:connector-curvature="0" />
    </marker>
    <marker
       inkscape:stockid="Arrow2Mend"
       orient="auto"
       refY="0"
       refX="0"
       id="Arrow2Mend"
       style="overflow:visible"
       inkscape:isstock="true"
       inkscape:collect="always">
      <path
         id="path4239"
         style="fill:#000000;fill-opacity:1;fill-rule:evenodd;stroke:#000000;stroke-width:0.625;stroke-linejoin:round;stroke-opacity:1"
         d="M 8.7185878,4.0337352 -2.2072895,0.01601326 8.7185884,-4.0017078 c -1.7454984,2.3720609 -1.7354408,5.6174519 -6e-7,8.035443 z"
         transform="scale(-0.6,-0.6)"
         inkscape:connector-curvature="0" />
    </marker>
    <inkscape:perspective
       sodipodi:type="inkscape:persp3d"
       inkscape:vp_x="-6.2149847 : 0 : 0"
       inkscape:vp_y="0 : 8.910063 : 0"
       inkscape:vp_z="-7.8033475 : 7.7708897 : 0"
       inkscape:persp3d-origin="91.908531 : 87.643716 : 1"
       id="perspective4136" />
    <marker
       inkscape:stockid="Arrow2Mstart"
       orient="auto"
       refY="0"
       refX="0"
       id="Arrow2Mstart-0"
       style="overflow:visible"
       inkscape:isstock="true">
      <path
         inkscape:connector-curvature="0"
         id="path4236-2"
         style="fill:#000000;fill-opacity:1;fill-rule:evenodd;stroke:#000000;stroke-width:0.625;stroke-linejoin:round;stroke-opacity:1"
         d="M 8.7185878,4.0337352 -2.2072895,0.01601326 8.7185884,-4.0017078 c -1.7454984,2.3720609 -1.7354408,5.6174519 -6e-7,8.035443 z"
         transform="scale(0.6,0.6)" />
    </marker>
    <marker
       inkscape:stockid="Arrow2Mend"
       orient="auto"
       refY="0"
       refX="0"
       id="Arrow2Mend-8"
       style="overflow:visible"
       inkscape:isstock="true">
      <path
         inkscape:connector-curvature="0"
         id="path4239-3"
         style="fill:#000000;fill-opacity:1;fill-rule:evenodd;stroke:#000000;stroke-width:0.625;stroke-linejoin:round;stroke-opacity:1"
         d="M 8.7185878,4.0337352 -2.2072895,0.01601326 8.7185884,-4.0017078 c -1.7454984,2.3720609 -1.7354408,5.6174519 -6e-7,8.035443 z"
         transform="scale(-0.6,-0.6)" />
    </marker>
    <marker
       inkscape:isstock="true"
       style="overflow:visible"
       id="marker5376-0"
       refX="0"
       refY="0"
       orient="auto"
       inkscape:stockid="Arrow2Mstart"
       inkscape:collect="always">
      <path
         inkscape:connector-curvature="0"
         transform="scale(0.6,0.6)"
         d="M 8.7185878,4.0337352 -2.2072895,0.01601326 8.7185884,-4.0017078 c -1.7454984,2.3720609 -1.7354408,5.6174519 -6e-7,8.035443 z"
         style="fill:#000000;fill-opacity:1;fill-rule:evenodd;stroke:#000000;stroke-width:0.625;stroke-linejoin:round;stroke-opacity:1"
         id="path5378-5" />
    </marker>
    <marker
       inkscape:isstock="true"
       style="overflow:visible"
       id="marker5434-0"
       refX="0"
       refY="0"
       orient="auto"
       inkscape:stockid="Arrow2Mend">
      <path
         inkscape:connector-curvature="0"
         transform="scale(-0.6,-0.6)"
         d="M 8.7185878,4.0337352 -2.2072895,0.01601326 8.7185884,-4.0017078 c -1.7454984,2.3720609 -1.7354408,5.6174519 -6e-7,8.035443 z"
         style="fill:#000000;fill-opacity:1;fill-rule:evenodd;stroke:#000000;stroke-width:0.625;stroke-linejoin:round;stroke-opacity:1"
         id="path5436-2" />
    </marker>
  </defs>
  <sodipodi:namedview
     id="base"
     pagecolor="#ffffff"
     bordercolor="#666666"
     borderopacity="1.0"
     inkscape:pageopacity="0.0"
     inkscape:pageshadow="2"
     inkscape:zoom="15.020947"
     inkscape:cx="174.31441"
     inkscape:cy="64.206129"
     inkscape:document-units="px"
     inkscape:current-layer="g6349"
     showgrid="false"
     showborder="false"
     fit-margin-top="0"
     fit-margin-left="0"
     fit-margin-right="0"
     fit-margin-bottom="0"
     inkscape:window-width="1879"
     inkscape:window-height="1056"
     inkscape:window-x="41"
     inkscape:window-y="0"
     inkscape:window-maximized="1"
     units="mm"
     inkscape:object-nodes="true">
    <inkscape:grid
       type="xygrid"
       id="grid4271"
       originx="-219.86623"
       originy="-101.86082" />
  </sodipodi:namedview>
  <metadata
     id="metadata7">
    <rdf:RDF>
      <cc:Work
         rdf:about="">
        <dc:format>image/svg+xml</dc:format>
        <dc:type
           rdf:resource="http://purl.org/dc/dcmitype/StillImage" />
        <dc:title></dc:title>
      </cc:Work>
    </rdf:RDF>
  </metadata>
  <g
     inkscape:label="Layer 1"
     inkscape:groupmode="layer"
     id="layer1"
     transform="translate(25821.959,-14795.215)">
    <g
       id="g6349">
      <path
         style="fill:none;fill-rule:evenodd;stroke:#000000;stroke-width:0.46874994;stroke-linecap:butt;stroke-linejoin:miter;stroke-miterlimit:4;stroke-dasharray:none;stroke-opacity:1"
         d="m -25658.595,14813.353 48.266,48.265"
         id="path6411"
         inkscape:connector-curvature="0" />
      <g
         inkscape:corner7="7.265062 : -3.1109323 : 5.9279195 : 1"
         inkscape:corner0="-3.9131977 : -7.3060359 : 0 : 1"
         inkscape:perspectiveID="#perspective4136"
         style="opacity:0.98999999;fill:#000000;fill-opacity:1;fill-rule:evenodd;stroke:none;stroke-width:0.5;stroke-linecap:round;stroke-miterlimit:4;stroke-dasharray:none;stroke-dashoffset:0;stroke-opacity:1"
         id="g4180"
         sodipodi:type="inkscape:box3d">
        <path
           points="-25821.46,14832.594 -25821.46,14795.215 -25751.988,14795.215 -25751.988,14832.594 "
           d="m -25751.988,14832.594 -69.472,0 0,-37.379 69.472,0 z"
           inkscape:box3dsidetype="11"
           style="fill:#e9e9ff;fill-rule:evenodd;stroke:none;stroke-width:1px;stroke-linecap:butt;stroke-linejoin:round;stroke-opacity:1"
           id="path4192"
           sodipodi:type="inkscape:box3dside" />
        <path
           points="-25705.73,14841.28 -25751.988,14795.215 -25751.988,14832.594 -25705.73,14878.659 "
           d="m -25705.73,14878.659 0,-37.379 -46.258,-46.065 0,37.379 z"
           inkscape:box3dsidetype="6"
           style="fill:#353564;fill-rule:evenodd;stroke:none;stroke-width:1px;stroke-linecap:butt;stroke-linejoin:round;stroke-opacity:1"
           id="path4182"
           sodipodi:type="inkscape:box3dside" />
        <path
           points="-25775.203,14878.659 -25821.46,14832.594 -25751.988,14832.594 -25705.73,14878.659 "
           d="m -25705.73,14878.659 -69.473,0 -46.257,-46.065 69.472,0 z"
           inkscape:box3dsidetype="5"
           style="fill:#4d4d9f;fill-rule:evenodd;stroke:none;stroke-width:1px;stroke-linecap:butt;stroke-linejoin:round;stroke-opacity:1"
           id="path4184"
           sodipodi:type="inkscape:box3dside" />
        <path
           points="-25775.203,14841.28 -25821.46,14795.215 -25751.988,14795.215 -25705.73,14841.28 "
           d="m -25705.73,14841.28 -69.473,0 -46.257,-46.065 69.472,0 z"
           inkscape:box3dsidetype="13"
           style="fill:#969696;fill-opacity:1;fill-rule:evenodd;stroke:none;stroke-width:1px;stroke-linecap:butt;stroke-linejoin:round;stroke-opacity:1"
           id="path4190"
           sodipodi:type="inkscape:box3dside" />
        <path
           points="-25775.203,14841.28 -25821.46,14795.215 -25821.46,14832.594 -25775.203,14878.659 "
           d="m -25775.203,14878.659 0,-37.379 -46.257,-46.065 0,37.379 z"
           inkscape:box3dsidetype="14"
           style="fill:#c8c8c8;fill-opacity:1;fill-rule:evenodd;stroke:none;stroke-width:1px;stroke-linecap:butt;stroke-linejoin:round;stroke-opacity:1"
           id="path4188"
           sodipodi:type="inkscape:box3dside" />
        <path
           points="-25775.203,14878.659 -25775.203,14841.28 -25705.73,14841.28 -25705.73,14878.659 "
           d="m -25705.73,14878.659 -69.473,0 0,-37.379 69.473,0 z"
           inkscape:box3dsidetype="3"
           style="fill:#646464;fill-opacity:1;fill-rule:evenodd;stroke:none;stroke-width:1px;stroke-linecap:butt;stroke-linejoin:round;stroke-opacity:1"
           id="path4186"
           sodipodi:type="inkscape:box3dside" />
      </g>
      <flowRoot
         style="font-style:normal;font-variant:normal;font-weight:normal;font-stretch:normal;line-height:0.01%;font-family:'Latin Modern Sans';-inkscape-font-specification:'Latin Modern Sans, Normal';text-align:center;letter-spacing:0px;word-spacing:0px;writing-mode:lr-tb;text-anchor:middle;fill:#000000;fill-opacity:1;stroke:none;stroke-width:1px;stroke-linecap:butt;stroke-linejoin:miter;stroke-opacity:1"
         id="flowRoot4198"
         xml:space="preserve"><flowRegion
           id="flowRegion4200"><rect
             y="5053.0576"
             x="-23084.473"
             height="9656.8516"
             width="10898.446"
             id="rect4202"
             style="font-style:normal;font-variant:normal;font-weight:normal;font-stretch:normal;font-size:12.49999809px;line-height:100%;font-family:'Latin Modern Sans';-inkscape-font-specification:'Latin Modern Sans, Normal';text-align:center;writing-mode:lr-tb;text-anchor:middle" /></flowRegion><flowPara
           id="flowPara4204"
           style="font-size:12.49999809px;line-height:1"> </flowPara></flowRoot>      <path
         inkscape:connector-curvature="0"
         id="path4206"
         d="m -25819.804,14845.232 42.881,42.746"
         style="fill:none;fill-rule:evenodd;stroke:#000000;stroke-width:0.93749988;stroke-linecap:butt;stroke-linejoin:miter;stroke-opacity:1;marker-start:url(#marker5376-0);marker-end:url(#Arrow2Mend);stroke-miterlimit:4;stroke-dasharray:none" />
      <text
         id="text4488"
         y="14876.505"
         x="-25804.59"
         style="font-style:normal;font-variant:normal;font-weight:normal;font-stretch:normal;line-height:0%;font-family:'Latin Modern Sans';-inkscape-font-specification:'Latin Modern Sans, Normal';text-align:center;letter-spacing:0px;word-spacing:0px;writing-mode:lr-tb;text-anchor:middle;fill:#000000;fill-opacity:1;stroke:none;stroke-width:1px;stroke-linecap:butt;stroke-linejoin:miter;stroke-opacity:1"
         xml:space="preserve"><tspan
           y="14876.505"
           x="-25804.59"
           id="tspan4490"
           sodipodi:role="line"
           style="font-size:12.49999809px;line-height:1">L</tspan></text>
      <path
         inkscape:connector-curvature="0"
         id="path5208"
         d="m -25821.459,14832.592 0,12.703"
         style="fill:none;fill-rule:evenodd;stroke:#000000;stroke-width:0.93749988;stroke-linecap:butt;stroke-linejoin:miter;stroke-miterlimit:4;stroke-dasharray:1.87499975,0.93749988;stroke-dashoffset:0;stroke-opacity:1" />
      <path
         inkscape:connector-curvature="0"
         id="path5208-0"
         d="m -25775.202,14878.659 0,10.842"
         style="fill:none;fill-rule:evenodd;stroke:#000000;stroke-width:0.93749988;stroke-linecap:butt;stroke-linejoin:miter;stroke-miterlimit:4;stroke-dasharray:1.87499975,0.93749988;stroke-dashoffset:0;stroke-opacity:1" />
      <path
         inkscape:connector-curvature="0"
         id="path5208-0-52"
         d="m -25705.731,14878.658 10.972,0"
         style="fill:none;fill-rule:evenodd;stroke:#000000;stroke-width:0.93749988;stroke-linecap:butt;stroke-linejoin:miter;stroke-miterlimit:4;stroke-dasharray:1.87499975,0.93749988;stroke-dashoffset:0;stroke-opacity:1" />
      <path
         inkscape:connector-curvature="0"
         id="path5208-0-5"
         d="m -25705.731,14878.658 0,10.875"
         style="fill:none;fill-rule:evenodd;stroke:#000000;stroke-width:0.93749988;stroke-linecap:butt;stroke-linejoin:miter;stroke-miterlimit:4;stroke-dasharray:1.87499975,0.93749988;stroke-dashoffset:0;stroke-opacity:1" />
      <path
         inkscape:connector-curvature="0"
         id="path5208-0-52-9"
         d="m -25705.73,14841.28 10.943,0"
         style="fill:none;fill-rule:evenodd;stroke:#000000;stroke-width:0.93749988;stroke-linecap:butt;stroke-linejoin:miter;stroke-miterlimit:4;stroke-dasharray:1.87499975,0.93749988;stroke-dashoffset:0;stroke-opacity:1" />
      <path
         inkscape:connector-curvature="0"
         id="path5368"
         d="m -25773.114,14889.264 65.365,0"
         style="fill:none;fill-rule:evenodd;stroke:#000000;stroke-width:0.93749988;stroke-linecap:butt;stroke-linejoin:miter;stroke-opacity:1;marker-start:url(#marker4487);marker-end:url(#marker5434);stroke-miterlimit:4;stroke-dasharray:none" />
      <text
         id="text6416"
         y="14901.205"
         x="-25737.904"
         style="font-style:normal;font-variant:normal;font-weight:normal;font-stretch:normal;line-height:0%;font-family:'Latin Modern Sans';-inkscape-font-specification:'Latin Modern Sans, Normal';text-align:center;letter-spacing:0px;word-spacing:0px;writing-mode:lr-tb;text-anchor:middle;fill:#000000;fill-opacity:1;stroke:none;stroke-width:1px;stroke-linecap:butt;stroke-linejoin:miter;stroke-opacity:1"
         xml:space="preserve"><tspan
           y="14901.205"
           x="-25737.904"
           id="tspan6418"
           sodipodi:role="line"
           style="font-size:12.49999809px;line-height:1">W</tspan></text>
      <path
         inkscape:connector-curvature="0"
         id="path5368-9"
         d="m -25695.116,14876.605 0,-33.27"
         style="fill:none;fill-rule:evenodd;stroke:#000000;stroke-width:0.93749988;stroke-linecap:butt;stroke-linejoin:miter;stroke-opacity:1;marker-start:url(#marker4545);marker-end:url(#marker5434-0);stroke-miterlimit:4;stroke-dasharray:none" />
      <text
         id="text4240"
         y="14863.619"
         x="-25688.289"
         style="font-style:normal;font-variant:normal;font-weight:normal;font-stretch:normal;line-height:0%;font-family:'Latin Modern Sans';-inkscape-font-specification:'Latin Modern Sans, Normal';text-align:center;letter-spacing:0px;word-spacing:0px;writing-mode:lr-tb;text-anchor:middle;fill:#000000;fill-opacity:1;stroke:none;stroke-width:1px;stroke-linecap:butt;stroke-linejoin:miter;stroke-opacity:1"
         xml:space="preserve"><tspan
           y="14863.619"
           x="-25688.289"
           id="tspan4242"
           sodipodi:role="line"
           style="font-size:12.49999809px;line-height:1">H</tspan></text>
      <rect
         transform="matrix(-0.70710678,0.70710678,-0.70710678,-0.70710678,0,0)"
         style="fill:#ffffff;fill-opacity:1;fill-rule:evenodd;stroke:#000000;stroke-width:0.93749988;stroke-linecap:round;stroke-miterlimit:4;stroke-dasharray:none;stroke-dashoffset:0;stroke-opacity:1"
         id="rect4575-4-8"
         width="9.5652142"
         height="34.985981"
         x="28612.85"
         y="7614.313" />
      <text
         xml:space="preserve"
         style="font-style:normal;font-variant:normal;font-weight:normal;font-stretch:normal;line-height:0%;font-family:'Latin Modern Sans';-inkscape-font-specification:'Latin Modern Sans, Normal';text-align:center;letter-spacing:0px;word-spacing:0px;writing-mode:lr-tb;text-anchor:middle;fill:#000000;fill-opacity:1;stroke:none;stroke-width:1px;stroke-linecap:butt;stroke-linejoin:miter;stroke-opacity:1"
         x="-25620.736"
         y="14831.271"
         id="text4288"><tspan
           sodipodi:role="line"
           id="tspan4290"
           x="-25620.736"
           y="14831.271"
           style="font-size:12.49999809px;line-height:1">R<tspan
   style="font-size:64.99999166%;baseline-shift:sub"
   id="tspan4292">th</tspan></tspan></text>
      <text
         xml:space="preserve"
         style="font-style:normal;font-variant:normal;font-weight:normal;font-stretch:normal;line-height:0%;font-family:'Latin Modern Sans';-inkscape-font-specification:'Latin Modern Sans, Normal';text-align:center;letter-spacing:0px;word-spacing:0px;writing-mode:lr-tb;text-anchor:middle;fill:#000000;fill-opacity:1;stroke:none;stroke-width:1px;stroke-linecap:butt;stroke-linejoin:miter;stroke-opacity:1"
         x="-25662.52"
         y="14839.997"
         id="text4294"><tspan
           sodipodi:role="line"
           id="tspan4296"
           x="-25662.52"
           y="14839.997"
           style="font-size:12.49999809px;line-height:1">C<tspan
   style="font-size:64.99999166%;baseline-shift:sub"
   id="tspan4298">th</tspan></tspan></text>
      <circle
         style="opacity:0.98999999;fill:#000000;fill-opacity:1;fill-rule:evenodd;stroke:none;stroke-width:1;stroke-linecap:round;stroke-miterlimit:4;stroke-dasharray:none;stroke-dashoffset:0;stroke-opacity:1"
         id="path4286-5"
         cx="-25659.039"
         cy="14813.253"
         r="1.549049" />
      <text
         xml:space="preserve"
         style="font-style:normal;font-variant:normal;font-weight:normal;font-stretch:normal;line-height:0%;font-family:'Latin Modern Sans';-inkscape-font-specification:'Latin Modern Sans, Normal';text-align:center;letter-spacing:0px;word-spacing:0px;writing-mode:lr-tb;text-anchor:middle;fill:#000000;fill-opacity:1;stroke:none;stroke-width:1px;stroke-linecap:butt;stroke-linejoin:miter;stroke-opacity:1"
         x="-25602.949"
         y="14864.925"
         id="text4317"><tspan
           sodipodi:role="line"
           id="tspan4319"
           x="-25602.949"
           y="14864.925"
           style="font-size:12.49999809px;line-height:1">T<tspan
   style="font-size:64.99999166%;baseline-shift:sub"
   id="tspan4259">2</tspan></tspan></text>
      <text
         xml:space="preserve"
         style="font-style:normal;font-variant:normal;font-weight:normal;font-stretch:normal;line-height:0%;font-family:'Latin Modern Sans';-inkscape-font-specification:'Latin Modern Sans, Normal';text-align:center;letter-spacing:0px;word-spacing:0px;writing-mode:lr-tb;text-anchor:middle;fill:#000000;fill-opacity:1;stroke:none;stroke-width:1px;stroke-linecap:butt;stroke-linejoin:miter;stroke-opacity:1"
         x="-25659.688"
         y="14808.044"
         id="text4323"><tspan
           sodipodi:role="line"
           id="tspan4325"
           x="-25659.688"
           y="14808.044"
           style="font-size:12.49999809px;line-height:1">T<tspan
   style="font-size:64.99999166%;baseline-shift:sub"
   id="tspan4255">1</tspan></tspan></text>
      <circle
         style="opacity:0.98999999;fill:#000000;fill-opacity:1;fill-rule:evenodd;stroke:none;stroke-width:1;stroke-linecap:round;stroke-miterlimit:4;stroke-dasharray:none;stroke-dashoffset:0;stroke-opacity:1"
         id="path4286-5-9"
         cx="-25611.225"
         cy="14860.734"
         r="1.5490488" />
      <path
         style="fill:none;fill-rule:evenodd;stroke:#000000;stroke-width:0.48502794;stroke-linecap:butt;stroke-linejoin:miter;stroke-miterlimit:4;stroke-dasharray:none;stroke-opacity:1"
         d="m -25652.257,14819.583 0,47.75"
         id="path6411-3"
         inkscape:connector-curvature="0" />
      <g
         id="g4507-8"
         transform="matrix(-1.4778095,0,0,-0.96295617,-25727.211,15837.894)"
         style="stroke-width:1.49373603">
        <rect
           y="1027.6021"
           x="-56.703041"
           height="3.1352911"
           width="12"
           id="rect4208-4-5-5"
           style="fill:#ffffff;fill-opacity:1;fill-rule:evenodd;stroke:none;stroke-width:1.12030196;stroke-linecap:round;stroke-miterlimit:4;stroke-dasharray:none;stroke-dashoffset:0;stroke-opacity:1" />
        <g
           transform="translate(193.27094,3.557337)"
           id="g4683-28-9-8-2"
           style="stroke-width:1.49373603">
          <path
             style="fill:none;fill-rule:evenodd;stroke:#000000;stroke-width:0.7858845;stroke-linecap:butt;stroke-linejoin:miter;stroke-miterlimit:4;stroke-dasharray:none;stroke-opacity:1"
             d="m -250,1024.3622 h 12"
             id="path4666-9-1-7-2"
             inkscape:connector-curvature="0" />
          <path
             style="fill:none;fill-rule:evenodd;stroke:#000000;stroke-width:0.7858845;stroke-linecap:butt;stroke-linejoin:miter;stroke-miterlimit:4;stroke-dasharray:none;stroke-opacity:1"
             d="m -250,1026.8622 h 12"
             id="path4666-5-60-0-0-2"
             inkscape:connector-curvature="0" />
        </g>
      </g>
      <g
         id="g4340"
         transform="matrix(1.0925106,0,0,1.141713,-25608.569,13609.784)">
        <path
           inkscape:connector-curvature="0"
           id="path4299"
           d="m -50,1101.8622 20,0"
           style="fill:none;fill-rule:evenodd;stroke:#000000;stroke-width:0.83942117;stroke-linecap:butt;stroke-linejoin:miter;stroke-opacity:1;stroke-miterlimit:4;stroke-dasharray:none" />
        <path
           inkscape:connector-curvature="0"
           id="path4299-9"
           d="m -47.5,1104.3622 15,0"
           style="fill:none;fill-rule:evenodd;stroke:#000000;stroke-width:0.83942117;stroke-linecap:butt;stroke-linejoin:miter;stroke-opacity:1;stroke-miterlimit:4;stroke-dasharray:none" />
        <path
           inkscape:connector-curvature="0"
           id="path4299-9-6"
           d="m -45,1106.8622 10,0"
           style="fill:none;fill-rule:evenodd;stroke:#000000;stroke-width:0.83942117;stroke-linecap:butt;stroke-linejoin:miter;stroke-opacity:1;stroke-miterlimit:4;stroke-dasharray:none" />
      </g>
    </g>
  </g>
</svg>
