<?xml version="1.0" encoding="UTF-8" standalone="no"?>
<!-- Created with Inkscape (http://www.inkscape.org/) -->

<svg
   xmlns:dc="http://purl.org/dc/elements/1.1/"
   xmlns:cc="http://creativecommons.org/ns#"
   xmlns:rdf="http://www.w3.org/1999/02/22-rdf-syntax-ns#"
   xmlns:svg="http://www.w3.org/2000/svg"
   xmlns="http://www.w3.org/2000/svg"
   xmlns:sodipodi="http://sodipodi.sourceforge.net/DTD/sodipodi-0.dtd"
   xmlns:inkscape="http://www.inkscape.org/namespaces/inkscape"
   width="147.48514mm"
   height="76.653244mm"
   viewBox="0 0 522.58514 271.60598"
   id="svg2"
   version="1.1"
   inkscape:version="0.92.4 (5da689c313, 2019-01-14)"
   sodipodi:docname="koordinata_transzformacio.svg">
  <sodipodi:namedview
     id="base"
     pagecolor="#ffffff"
     bordercolor="#666666"
     borderopacity="1.0"
     inkscape:pageopacity="0.0"
     inkscape:pageshadow="2"
     inkscape:zoom="1.6410655"
     inkscape:cx="512.22088"
     inkscape:cy="-1.7713634"
     inkscape:document-units="px"
     inkscape:current-layer="layer1"
     showgrid="false"
     showborder="false"
     inkscape:window-width="1879"
     inkscape:window-height="1056"
     inkscape:window-x="41"
     inkscape:window-y="0"
     inkscape:window-maximized="1"
     units="mm"
     fit-margin-top="0"
     fit-margin-left="0"
     fit-margin-right="0"
     fit-margin-bottom="0"
     inkscape:object-nodes="true" />
  <defs
     id="defs4">
    <marker
       inkscape:stockid="Arrow2Mend"
       orient="auto"
       refY="0"
       refX="0"
       id="marker7036"
       style="overflow:visible"
       inkscape:isstock="true">
      <path
         id="path7038"
         style="fill:#005000;fill-opacity:1;fill-rule:evenodd;stroke:#005000;stroke-width:0.625;stroke-linejoin:round;stroke-opacity:1"
         d="M 8.7185878,4.0337352 -2.2072895,0.01601326 8.7185884,-4.0017078 c -1.7454984,2.3720609 -1.7354408,5.6174519 -6e-7,8.035443 z"
         transform="scale(-0.6,-0.6)"
         inkscape:connector-curvature="0" />
    </marker>
    <marker
       inkscape:isstock="true"
       style="overflow:visible"
       id="marker6801"
       refX="0"
       refY="0"
       orient="auto"
       inkscape:stockid="Arrow2Mend"
       inkscape:collect="always">
      <path
         inkscape:connector-curvature="0"
         transform="scale(-0.6,-0.6)"
         d="M 8.7185878,4.0337352 -2.2072895,0.01601326 8.7185884,-4.0017078 c -1.7454984,2.3720609 -1.7354408,5.6174519 -6e-7,8.035443 z"
         style="fill:#005000;fill-opacity:1;fill-rule:evenodd;stroke:#005000;stroke-width:0.625;stroke-linejoin:round;stroke-opacity:1"
         id="path6803" />
    </marker>
    <marker
       inkscape:isstock="true"
       style="overflow:visible"
       id="marker6584"
       refX="0"
       refY="0"
       orient="auto"
       inkscape:stockid="Arrow2Mend">
      <path
         inkscape:connector-curvature="0"
         transform="scale(-0.6,-0.6)"
         d="M 8.7185878,4.0337352 -2.2072895,0.01601326 8.7185884,-4.0017078 c -1.7454984,2.3720609 -1.7354408,5.6174519 -6e-7,8.035443 z"
         style="fill:#005000;fill-opacity:1;fill-rule:evenodd;stroke:#005000;stroke-width:0.625;stroke-linejoin:round;stroke-opacity:1"
         id="path6586" />
    </marker>
    <marker
       inkscape:isstock="true"
       style="overflow:visible"
       id="marker6373"
       refX="0"
       refY="0"
       orient="auto"
       inkscape:stockid="Arrow2Mend">
      <path
         inkscape:connector-curvature="0"
         transform="scale(-0.6,-0.6)"
         d="M 8.7185878,4.0337352 -2.2072895,0.01601326 8.7185884,-4.0017078 c -1.7454984,2.3720609 -1.7354408,5.6174519 -6e-7,8.035443 z"
         style="fill:#005000;fill-opacity:1;fill-rule:evenodd;stroke:#005000;stroke-width:0.625;stroke-linejoin:round;stroke-opacity:1"
         id="path6375" />
    </marker>
    <marker
       inkscape:isstock="true"
       style="overflow:visible"
       id="marker5961"
       refX="0"
       refY="0"
       orient="auto"
       inkscape:stockid="Arrow2Lend">
      <path
         inkscape:connector-curvature="0"
         transform="matrix(-1.1,0,0,-1.1,-1.1,0)"
         d="M 8.7185878,4.0337352 -2.2072895,0.01601326 8.7185884,-4.0017078 c -1.7454984,2.3720609 -1.7354408,5.6174519 -6e-7,8.035443 z"
         style="fill:#005000;fill-opacity:1;fill-rule:evenodd;stroke:#005000;stroke-width:0.625;stroke-linejoin:round;stroke-opacity:1"
         id="path5963" />
    </marker>
    <marker
       inkscape:isstock="true"
       style="overflow:visible"
       id="marker5756"
       refX="0"
       refY="0"
       orient="auto"
       inkscape:stockid="Arrow2Lend">
      <path
         inkscape:connector-curvature="0"
         transform="matrix(-1.1,0,0,-1.1,-1.1,0)"
         d="M 8.7185878,4.0337352 -2.2072895,0.01601326 8.7185884,-4.0017078 c -1.7454984,2.3720609 -1.7354408,5.6174519 -6e-7,8.035443 z"
         style="fill:#005000;fill-opacity:1;fill-rule:evenodd;stroke:#005000;stroke-width:0.625;stroke-linejoin:round;stroke-opacity:1"
         id="path5758" />
    </marker>
    <marker
       inkscape:stockid="Arrow2Mend"
       orient="auto"
       refY="0"
       refX="0"
       id="marker5903"
       style="overflow:visible"
       inkscape:isstock="true"
       inkscape:collect="always">
      <path
         id="path5905"
         style="fill:#005000;fill-opacity:1;fill-rule:evenodd;stroke:#005000;stroke-width:0.625;stroke-linejoin:round;stroke-opacity:1"
         d="M 8.7185878,4.0337352 -2.2072895,0.01601326 8.7185884,-4.0017078 c -1.7454984,2.3720609 -1.7354408,5.6174519 -6e-7,8.035443 z"
         transform="scale(-0.6,-0.6)"
         inkscape:connector-curvature="0" />
    </marker>
    <marker
       inkscape:stockid="Arrow2Mend"
       orient="auto"
       refY="0"
       refX="0"
       id="marker4484"
       style="overflow:visible"
       inkscape:isstock="true"
       inkscape:collect="always">
      <path
         id="path4486"
         style="fill:#005000;fill-opacity:1;fill-rule:evenodd;stroke:#005000;stroke-width:0.625;stroke-linejoin:round;stroke-opacity:1"
         d="M 8.7185878,4.0337352 -2.2072895,0.01601326 8.7185884,-4.0017078 c -1.7454984,2.3720609 -1.7354408,5.6174519 -6e-7,8.035443 z"
         transform="scale(-0.6,-0.6)"
         inkscape:connector-curvature="0" />
    </marker>
    <marker
       inkscape:isstock="true"
       style="overflow:visible"
       id="marker5829"
       refX="0"
       refY="0"
       orient="auto"
       inkscape:stockid="Arrow2Mend"
       inkscape:collect="always">
      <path
         inkscape:connector-curvature="0"
         transform="scale(-0.6,-0.6)"
         d="M 8.7185878,4.0337352 -2.2072895,0.01601326 8.7185884,-4.0017078 c -1.7454984,2.3720609 -1.7354408,5.6174519 -6e-7,8.035443 z"
         style="fill:#005000;fill-opacity:1;fill-rule:evenodd;stroke:#005000;stroke-width:0.625;stroke-linejoin:round;stroke-opacity:1"
         id="path5831" />
    </marker>
    <marker
       inkscape:stockid="Arrow2Lstart"
       orient="auto"
       refY="0"
       refX="0"
       id="marker13755"
       style="overflow:visible"
       inkscape:isstock="true">
      <path
         id="path13757"
         style="fill:#005000;fill-opacity:0.50196078;fill-rule:evenodd;stroke:#005000;stroke-width:0.625;stroke-linejoin:round;stroke-opacity:0.50196078"
         d="M 8.7185878,4.0337352 -2.2072895,0.01601326 8.7185884,-4.0017078 c -1.7454984,2.3720609 -1.7354408,5.6174519 -6e-7,8.035443 z"
         transform="matrix(1.1,0,0,1.1,1.1,0)"
         inkscape:connector-curvature="0" />
    </marker>
    <marker
       inkscape:stockid="Arrow2Lstart"
       orient="auto"
       refY="0"
       refX="0"
       id="Arrow2Lstart"
       style="overflow:visible"
       inkscape:isstock="true">
      <path
         id="path4744"
         style="fill:#005000;fill-opacity:0.50196078;fill-rule:evenodd;stroke:#005000;stroke-width:0.625;stroke-linejoin:round;stroke-opacity:0.50196078"
         d="M 8.7185878,4.0337352 -2.2072895,0.01601326 8.7185884,-4.0017078 c -1.7454984,2.3720609 -1.7354408,5.6174519 -6e-7,8.035443 z"
         transform="matrix(1.1,0,0,1.1,1.1,0)"
         inkscape:connector-curvature="0" />
    </marker>
    <marker
       inkscape:stockid="Arrow2Mend"
       orient="auto"
       refY="0"
       refX="0"
       id="marker12752"
       style="overflow:visible"
       inkscape:isstock="true">
      <path
         id="path12754"
         style="fill:#005000;fill-opacity:0.50196078;fill-rule:evenodd;stroke:#005000;stroke-width:0.625;stroke-linejoin:round;stroke-opacity:0.50196078"
         d="M 8.7185878,4.0337352 -2.2072895,0.01601326 8.7185884,-4.0017078 c -1.7454984,2.3720609 -1.7354408,5.6174519 -6e-7,8.035443 z"
         transform="scale(-0.6,-0.6)"
         inkscape:connector-curvature="0" />
    </marker>
    <marker
       inkscape:stockid="Arrow2Mend"
       orient="auto"
       refY="0"
       refX="0"
       id="marker12667"
       style="overflow:visible"
       inkscape:isstock="true">
      <path
         id="path12669"
         style="fill:#005000;fill-opacity:0.50196078;fill-rule:evenodd;stroke:#005000;stroke-width:0.625;stroke-linejoin:round;stroke-opacity:0.50196078"
         d="M 8.7185878,4.0337352 -2.2072895,0.01601326 8.7185884,-4.0017078 c -1.7454984,2.3720609 -1.7354408,5.6174519 -6e-7,8.035443 z"
         transform="scale(-0.6,-0.6)"
         inkscape:connector-curvature="0" />
    </marker>
    <marker
       inkscape:isstock="true"
       style="overflow:visible"
       id="marker6037"
       refX="0"
       refY="0"
       orient="auto"
       inkscape:stockid="DotM">
      <path
         transform="matrix(0.4,0,0,0.4,2.96,0.4)"
         style="fill:#005000;fill-opacity:1;fill-rule:evenodd;stroke:#005000;stroke-width:1pt;stroke-opacity:1"
         d="m -2.5,-1 c 0,2.76 -2.24,5 -5,5 -2.76,0 -5,-2.24 -5,-5 0,-2.76 2.24,-5 5,-5 2.76,0 5,2.24 5,5 z"
         id="path6039"
         inkscape:connector-curvature="0" />
    </marker>
    <marker
       inkscape:isstock="true"
       style="overflow:visible"
       id="marker5757"
       refX="0"
       refY="0"
       orient="auto"
       inkscape:stockid="DotM">
      <path
         transform="matrix(0.4,0,0,0.4,2.96,0.4)"
         style="fill:#005000;fill-opacity:0.50196078;fill-rule:evenodd;stroke:#005000;stroke-width:1pt;stroke-opacity:0.50196078"
         d="m -2.5,-1 c 0,2.76 -2.24,5 -5,5 -2.76,0 -5,-2.24 -5,-5 0,-2.76 2.24,-5 5,-5 2.76,0 5,2.24 5,5 z"
         id="path5759"
         inkscape:connector-curvature="0" />
    </marker>
    <marker
       style="overflow:visible"
       inkscape:stockid="InfiniteLineStart"
       id="InfiniteLineStart"
       refX="0"
       refY="0"
       orient="auto"
       inkscape:isstock="true">
      <g
         id="g4970"
         style="fill:#005000;fill-opacity:1;stroke:#005000;stroke-opacity:1"
         transform="translate(-13,0)">
        <circle
           id="circle4972"
           r="0.80000001"
           cy="0"
           cx="3"
           style="fill:#005000;fill-opacity:1;stroke:#005000;stroke-opacity:1" />
        <circle
           id="circle4974"
           r="0.80000001"
           cy="0"
           cx="6.5"
           style="fill:#005000;fill-opacity:1;stroke:#005000;stroke-opacity:1" />
        <circle
           id="circle4976"
           r="0.80000001"
           cy="0"
           cx="10"
           style="fill:#005000;fill-opacity:1;stroke:#005000;stroke-opacity:1" />
      </g>
    </marker>
    <marker
       inkscape:isstock="true"
       style="overflow:visible"
       id="marker5086"
       refX="0"
       refY="0"
       orient="auto"
       inkscape:stockid="DotL">
      <path
         transform="matrix(0.8,0,0,0.8,5.92,0.8)"
         style="fill:#005000;fill-opacity:1;fill-rule:evenodd;stroke:#005000;stroke-width:1pt;stroke-opacity:1"
         d="m -2.5,-1 c 0,2.76 -2.24,5 -5,5 -2.76,0 -5,-2.24 -5,-5 0,-2.76 2.24,-5 5,-5 2.76,0 5,2.24 5,5 z"
         id="path5088"
         inkscape:connector-curvature="0" />
    </marker>
    <marker
       inkscape:stockid="Arrow2Mend"
       orient="auto"
       refY="0"
       refX="0"
       id="marker5514"
       style="overflow:visible"
       inkscape:isstock="true">
      <path
         id="path5516"
         style="fill:#800000;fill-opacity:1;fill-rule:evenodd;stroke:#800000;stroke-width:0.625;stroke-linejoin:round;stroke-opacity:1"
         d="M 8.7185878,4.0337352 -2.2072895,0.01601326 8.7185884,-4.0017078 c -1.7454984,2.3720609 -1.7354408,5.6174519 -6e-7,8.035443 z"
         transform="scale(-0.6,-0.6)"
         inkscape:connector-curvature="0" />
    </marker>
    <marker
       inkscape:stockid="Arrow2Mend"
       orient="auto"
       refY="0"
       refX="0"
       id="marker5416"
       style="overflow:visible"
       inkscape:isstock="true">
      <path
         id="path5418"
         style="fill:#800000;fill-opacity:1;fill-rule:evenodd;stroke:#800000;stroke-width:0.625;stroke-linejoin:round;stroke-opacity:1"
         d="M 8.7185878,4.0337352 -2.2072895,0.01601326 8.7185884,-4.0017078 c -1.7454984,2.3720609 -1.7354408,5.6174519 -6e-7,8.035443 z"
         transform="scale(-0.6,-0.6)"
         inkscape:connector-curvature="0" />
    </marker>
    <marker
       inkscape:stockid="Arrow2Mend"
       orient="auto"
       refY="0"
       refX="0"
       id="marker5356"
       style="overflow:visible"
       inkscape:isstock="true">
      <path
         id="path5358"
         style="fill:#800000;fill-opacity:1;fill-rule:evenodd;stroke:#800000;stroke-width:0.625;stroke-linejoin:round;stroke-opacity:1"
         d="M 8.7185878,4.0337352 -2.2072895,0.01601326 8.7185884,-4.0017078 c -1.7454984,2.3720609 -1.7354408,5.6174519 -6e-7,8.035443 z"
         transform="scale(-0.6,-0.6)"
         inkscape:connector-curvature="0" />
    </marker>
    <marker
       inkscape:stockid="Arrow2Mstart"
       orient="auto"
       refY="0"
       refX="0"
       id="marker5175"
       style="overflow:visible"
       inkscape:isstock="true">
      <path
         id="path5177"
         style="fill:#005000;fill-opacity:0.50196078;fill-rule:evenodd;stroke:#005000;stroke-width:0.625;stroke-linejoin:round;stroke-opacity:0.50196078"
         d="M 8.7185878,4.0337352 -2.2072895,0.01601326 8.7185884,-4.0017078 c -1.7454984,2.3720609 -1.7354408,5.6174519 -6e-7,8.035443 z"
         transform="scale(0.6,0.6)"
         inkscape:connector-curvature="0" />
    </marker>
    <marker
       inkscape:stockid="Arrow2Mstart"
       orient="auto"
       refY="0"
       refX="0"
       id="marker4930"
       style="overflow:visible"
       inkscape:isstock="true">
      <path
         id="path4932"
         style="fill:#005000;fill-opacity:0.50196078;fill-rule:evenodd;stroke:#005000;stroke-width:0.625;stroke-linejoin:round;stroke-opacity:0.50196078"
         d="M 8.7185878,4.0337352 -2.2072895,0.01601326 8.7185884,-4.0017078 c -1.7454984,2.3720609 -1.7354408,5.6174519 -6e-7,8.035443 z"
         transform="scale(0.6,0.6)"
         inkscape:connector-curvature="0" />
    </marker>
    <marker
       inkscape:isstock="true"
       style="overflow:visible"
       id="Arrow1Sstart"
       refX="0"
       refY="0"
       orient="auto"
       inkscape:stockid="Arrow1Sstart">
      <path
         transform="matrix(0.2,0,0,0.2,1.2,0)"
         style="fill:#005000;fill-opacity:1;fill-rule:evenodd;stroke:#005000;stroke-width:1pt;stroke-opacity:1"
         d="M 0,0 5,-5 -12.5,0 5,5 0,0 Z"
         id="path4367"
         inkscape:connector-curvature="0" />
    </marker>
    <inkscape:perspective
       id="perspective4136"
       inkscape:persp3d-origin="-1104.5499 : 232.55863 : 1"
       inkscape:vp_z="654.54796 : 376.8819 : 0"
       inkscape:vp_y="0 : 1867.7878 : 0"
       inkscape:vp_x="-750.90128 : 9.4083957e-14 : 0"
       sodipodi:type="inkscape:persp3d" />
    <inkscape:perspective
       id="perspective4255"
       inkscape:persp3d-origin="77.75218 : -694.36986 : 1"
       inkscape:vp_z="125.08529 : 72.219564 : 0"
       inkscape:vp_y="0 : 1098.1355 : 0"
       inkscape:vp_x="-144.436 : 1.7688692e-14 : 0"
       sodipodi:type="inkscape:persp3d" />
    <inkscape:perspective
       id="perspective4136-3"
       inkscape:persp3d-origin="-2230.9704 : -129.51258 : 1"
       inkscape:vp_z="654.54796 : 376.88192 : 0"
       inkscape:vp_y="0 : 1867.7879 : 0"
       inkscape:vp_x="-750.90128 : 9.4083963e-14 : 0"
       sodipodi:type="inkscape:persp3d" />
    <inkscape:perspective
       id="perspective4255-2"
       inkscape:persp3d-origin="618.71454 : -1123.7602 : 1"
       inkscape:vp_z="125.0853 : 72.219573 : 0"
       inkscape:vp_y="0 : 1098.1356 : 0"
       inkscape:vp_x="-144.43601 : 1.7688694e-14 : 0"
       sodipodi:type="inkscape:persp3d" />
    <marker
       inkscape:isstock="true"
       style="overflow:visible"
       id="marker5245-3"
       refX="0"
       refY="0"
       orient="auto"
       inkscape:stockid="Arrow2Mend">
      <path
         inkscape:connector-curvature="0"
         transform="scale(-0.6,-0.6)"
         d="M 8.7185878,4.0337352 -2.2072895,0.01601326 8.7185884,-4.0017078 c -1.7454984,2.3720609 -1.7354408,5.6174519 -6e-7,8.035443 z"
         style="fill:#800000;fill-opacity:1;fill-rule:evenodd;stroke:#800000;stroke-width:0.625;stroke-linejoin:round;stroke-opacity:1"
         id="path5247-5" />
    </marker>
    <marker
       inkscape:stockid="Arrow2Mend"
       orient="auto"
       refY="0"
       refX="0"
       id="marker5416-9"
       style="overflow:visible"
       inkscape:isstock="true">
      <path
         id="path5418-1"
         style="fill:#800000;fill-opacity:1;fill-rule:evenodd;stroke:#800000;stroke-width:0.625;stroke-linejoin:round;stroke-opacity:1"
         d="M 8.7185878,4.0337352 -2.2072895,0.01601326 8.7185884,-4.0017078 c -1.7454984,2.3720609 -1.7354408,5.6174519 -6e-7,8.035443 z"
         transform="scale(-0.6,-0.6)"
         inkscape:connector-curvature="0" />
    </marker>
    <marker
       inkscape:stockid="Arrow2Mend"
       orient="auto"
       refY="0"
       refX="0"
       id="marker5514-2"
       style="overflow:visible"
       inkscape:isstock="true">
      <path
         id="path5516-7"
         style="fill:#800000;fill-opacity:1;fill-rule:evenodd;stroke:#800000;stroke-width:0.625;stroke-linejoin:round;stroke-opacity:1"
         d="M 8.7185878,4.0337352 -2.2072895,0.01601326 8.7185884,-4.0017078 c -1.7454984,2.3720609 -1.7354408,5.6174519 -6e-7,8.035443 z"
         transform="scale(-0.6,-0.6)"
         inkscape:connector-curvature="0" />
    </marker>
    <marker
       inkscape:stockid="Arrow2Mend"
       orient="auto"
       refY="0"
       refX="0"
       id="marker5356-6"
       style="overflow:visible"
       inkscape:isstock="true">
      <path
         id="path5358-1"
         style="fill:#800000;fill-opacity:1;fill-rule:evenodd;stroke:#800000;stroke-width:0.625;stroke-linejoin:round;stroke-opacity:1"
         d="M 8.7185878,4.0337352 -2.2072895,0.01601326 8.7185884,-4.0017078 c -1.7454984,2.3720609 -1.7354408,5.6174519 -6e-7,8.035443 z"
         transform="scale(-0.6,-0.6)"
         inkscape:connector-curvature="0" />
    </marker>
    <marker
       inkscape:stockid="Arrow2Mend"
       orient="auto"
       refY="0"
       refX="0"
       id="marker5514-8"
       style="overflow:visible"
       inkscape:isstock="true">
      <path
         id="path5516-79"
         style="fill:#800000;fill-opacity:1;fill-rule:evenodd;stroke:#800000;stroke-width:0.625;stroke-linejoin:round;stroke-opacity:1"
         d="M 8.7185878,4.0337352 -2.2072895,0.01601326 8.7185884,-4.0017078 c -1.7454984,2.3720609 -1.7354408,5.6174519 -6e-7,8.035443 z"
         transform="scale(-0.6,-0.6)"
         inkscape:connector-curvature="0" />
    </marker>
    <marker
       inkscape:stockid="Arrow2Mend"
       orient="auto"
       refY="0"
       refX="0"
       id="marker8055"
       style="overflow:visible"
       inkscape:isstock="true">
      <path
         id="path8057"
         style="fill:#800000;fill-opacity:1;fill-rule:evenodd;stroke:#800000;stroke-width:0.625;stroke-linejoin:round;stroke-opacity:1"
         d="M 8.7185878,4.0337352 -2.2072895,0.01601326 8.7185884,-4.0017078 c -1.7454984,2.3720609 -1.7354408,5.6174519 -6e-7,8.035443 z"
         transform="scale(-0.6,-0.6)"
         inkscape:connector-curvature="0" />
    </marker>
    <marker
       inkscape:isstock="true"
       style="overflow:visible"
       id="marker6037-3"
       refX="0"
       refY="0"
       orient="auto"
       inkscape:stockid="DotM">
      <path
         inkscape:connector-curvature="0"
         transform="matrix(0.4,0,0,0.4,2.96,0.4)"
         style="fill:#005000;fill-opacity:0.50196078;fill-rule:evenodd;stroke:#005000;stroke-width:1pt;stroke-opacity:0.50196078"
         d="m -2.5,-1 c 0,2.76 -2.24,5 -5,5 -2.76,0 -5,-2.24 -5,-5 0,-2.76 2.24,-5 5,-5 2.76,0 5,2.24 5,5 z"
         id="path6039-6" />
    </marker>
    <marker
       inkscape:isstock="true"
       style="overflow:visible"
       id="marker10145"
       refX="0"
       refY="0"
       orient="auto"
       inkscape:stockid="DotM">
      <path
         inkscape:connector-curvature="0"
         transform="matrix(0.4,0,0,0.4,2.96,0.4)"
         style="fill:#005000;fill-opacity:0.50196078;fill-rule:evenodd;stroke:#005000;stroke-width:1pt;stroke-opacity:0.50196078"
         d="m -2.5,-1 c 0,2.76 -2.24,5 -5,5 -2.76,0 -5,-2.24 -5,-5 0,-2.76 2.24,-5 5,-5 2.76,0 5,2.24 5,5 z"
         id="path10147" />
    </marker>
    <marker
       inkscape:isstock="true"
       style="overflow:visible"
       id="marker6037-8"
       refX="0"
       refY="0"
       orient="auto"
       inkscape:stockid="DotM">
      <path
         inkscape:connector-curvature="0"
         transform="matrix(0.4,0,0,0.4,2.96,0.4)"
         style="fill:#005000;fill-opacity:1;fill-rule:evenodd;stroke:#005000;stroke-width:1pt;stroke-opacity:1"
         d="m -2.5,-1 c 0,2.76 -2.24,5 -5,5 -2.76,0 -5,-2.24 -5,-5 0,-2.76 2.24,-5 5,-5 2.76,0 5,2.24 5,5 z"
         id="path6039-8" />
    </marker>
    <marker
       inkscape:isstock="true"
       style="overflow:visible"
       id="marker11154"
       refX="0"
       refY="0"
       orient="auto"
       inkscape:stockid="DotM">
      <path
         inkscape:connector-curvature="0"
         transform="matrix(0.4,0,0,0.4,2.96,0.4)"
         style="fill:#005000;fill-opacity:0.50196078;fill-rule:evenodd;stroke:#005000;stroke-width:1pt;stroke-opacity:0.50196078"
         d="m -2.5,-1 c 0,2.76 -2.24,5 -5,5 -2.76,0 -5,-2.24 -5,-5 0,-2.76 2.24,-5 5,-5 2.76,0 5,2.24 5,5 z"
         id="path11156" />
    </marker>
    <marker
       inkscape:isstock="true"
       style="overflow:visible"
       id="marker6037-8-9"
       refX="0"
       refY="0"
       orient="auto"
       inkscape:stockid="DotM">
      <path
         inkscape:connector-curvature="0"
         transform="matrix(0.4,0,0,0.4,2.96,0.4)"
         style="fill:#005000;fill-opacity:1;fill-rule:evenodd;stroke:#005000;stroke-width:1pt;stroke-opacity:1"
         d="m -2.5,-1 c 0,2.76 -2.24,5 -5,5 -2.76,0 -5,-2.24 -5,-5 0,-2.76 2.24,-5 5,-5 2.76,0 5,2.24 5,5 z"
         id="path6039-8-2" />
    </marker>
    <marker
       inkscape:isstock="true"
       style="overflow:visible"
       id="marker6037-8-92"
       refX="0"
       refY="0"
       orient="auto"
       inkscape:stockid="DotM">
      <path
         inkscape:connector-curvature="0"
         transform="matrix(0.4,0,0,0.4,2.96,0.4)"
         style="fill:#005000;fill-opacity:1;fill-rule:evenodd;stroke:#005000;stroke-width:1pt;stroke-opacity:1"
         d="m -2.5,-1 c 0,2.76 -2.24,5 -5,5 -2.76,0 -5,-2.24 -5,-5 0,-2.76 2.24,-5 5,-5 2.76,0 5,2.24 5,5 z"
         id="path6039-8-6" />
    </marker>
  </defs>
  <metadata
     id="metadata7">
    <rdf:RDF>
      <cc:Work
         rdf:about="">
        <dc:format>image/svg+xml</dc:format>
        <dc:type
           rdf:resource="http://purl.org/dc/dcmitype/StillImage" />
        <dc:title></dc:title>
      </cc:Work>
    </rdf:RDF>
  </metadata>
  <g
     transform="translate(304.28663,-686.18909)"
     id="layer1"
     inkscape:groupmode="layer"
     inkscape:label="Layer 1">
    <path
       sodipodi:nodetypes="cccc"
       id="path4142-9-6-9"
       d="m 25.382109,927.02311 -285.111769,0 147.2001,-149.75026 301.54869,-16.54814"
       style="opacity:0.98999999;fill:#a0a0a0;fill-opacity:1;fill-rule:evenodd;stroke:none;stroke-width:1.25;stroke-linecap:butt;stroke-linejoin:round;stroke-miterlimit:0;stroke-dasharray:2.4999999, 1.24999995;stroke-dashoffset:0.625;stroke-opacity:0.19607843"
       inkscape:connector-curvature="0" />
    <path
       sodipodi:nodetypes="cccc"
       id="path4144-0-0-7"
       d="m 41.745852,880.40388 -285.111812,0 0,30.15751 285.111812,0"
       style="opacity:0.98999999;fill:#f0f0f0;fill-opacity:1;fill-rule:evenodd;stroke:none;stroke-width:1.25;stroke-linecap:butt;stroke-linejoin:round;stroke-miterlimit:0;stroke-dasharray:2.4999999, 1.24999995;stroke-dashoffset:0.625;stroke-opacity:1"
       inkscape:connector-curvature="0" />
    <path
       d="m -207.77314,910.76052 -16.31755,16.34643 m 51.95652,-16.34643 -16.31755,16.34643 m 51.95655,-16.34643 -16.31757,16.34643 m 51.95655,-16.34643 -16.31758,16.34643 m 51.95655,-16.34643 -16.317565,16.34643 m 51.956525,-16.34643 -16.317555,16.34643 m 51.956527,-16.34643 -16.317557,16.34643"
       style="fill:none;fill-opacity:0.75;fill-rule:evenodd;stroke:#800000;stroke-width:0.93750002;stroke-linecap:butt;stroke-linejoin:miter;stroke-miterlimit:4;stroke-dasharray:1.87500003,0.93750002;stroke-dashoffset:0;stroke-opacity:0.19607843"
       id="path4682-3-5"
       inkscape:connector-curvature="0"
       sodipodi:nodetypes="cccccccccccccc" />
    <g
       id="g4348"
       transform="translate(1253.6551,645.36462)" />
    <g
       transform="matrix(0.31834097,0,0,0.31748045,-1754.7872,216.34681)"
       id="g4144-6" />
    <path
       sodipodi:nodetypes="cccc"
       id="path4144-0"
       d="m 25.382109,927.02311 -285.111769,0 0,30.17796 285.111769,0"
       style="opacity:0.98999999;fill:#f0f0f0;fill-opacity:1;fill-rule:evenodd;stroke:none;stroke-width:1.25;stroke-linecap:butt;stroke-linejoin:round;stroke-miterlimit:0;stroke-dasharray:2.49999989, 1.24999994;stroke-dashoffset:0.625;stroke-opacity:1"
       inkscape:connector-curvature="0" />
    <path
       sodipodi:nodetypes="cccc"
       style="opacity:0.98999999;fill:#505050;fill-opacity:1;fill-rule:evenodd;stroke:none;stroke-width:1.25;stroke-linecap:butt;stroke-linejoin:round;stroke-miterlimit:0;stroke-dasharray:2.4999999, 1.24999995;stroke-dashoffset:0.75;stroke-opacity:1"
       d="m 25.382109,927.02311 -3.4e-5,29.92923 163.637015,-166.40159 4e-5,-29.82604"
       id="path4140-3-36"
       inkscape:connector-curvature="0" />
    <path
       sodipodi:nodetypes="cccc"
       style="opacity:0.98999999;fill:#505050;fill-opacity:1;fill-rule:evenodd;stroke:none;stroke-width:1.25;stroke-linecap:butt;stroke-linejoin:miter;stroke-miterlimit:0;stroke-dasharray:2.4999999, 1.24999995;stroke-dashoffset:0.75;stroke-opacity:1"
       d="m 41.745815,880.23798 0,60.14945 147.273305,-149.58798 0,-60.14945"
       id="path4140-3"
       inkscape:connector-curvature="0" />
    <path
       sodipodi:nodetypes="cccc"
       id="path4144-0-3"
       d="m -577.24677,1178.09 0,800 300.00001,0 0,-800"
       style="opacity:0.98999999;fill:#a4a399;fill-opacity:0.98431373;fill-rule:evenodd;stroke:none;stroke-width:1.25;stroke-linecap:butt;stroke-linejoin:round;stroke-miterlimit:0;stroke-dasharray:2.4999999, 1.24999996;stroke-dashoffset:0.625;stroke-opacity:1"
       inkscape:connector-curvature="0" />
    <path
       sodipodi:nodetypes="cccc"
       id="path4144-0-3-6"
       d="m 279.14998,1043.1744 0,300 1000.00012,0 0,-300"
       style="opacity:0.98999999;fill:#a4a399;fill-opacity:0.98431373;fill-rule:evenodd;stroke:none;stroke-width:1.25;stroke-linecap:butt;stroke-linejoin:round;stroke-miterlimit:0;stroke-dasharray:2.4999999, 1.24999996;stroke-dashoffset:0.625;stroke-opacity:1"
       inkscape:connector-curvature="0" />
    <path
       sodipodi:nodetypes="cccc"
       id="path4144-0-3-7"
       d="m -913.8973,125.93189 0,-799.99996 -1000,0 0,799.99996"
       style="opacity:0.98999999;fill:#a4a399;fill-opacity:0.98431373;fill-rule:evenodd;stroke:none;stroke-width:1.25;stroke-linecap:butt;stroke-linejoin:round;stroke-miterlimit:0;stroke-dasharray:2.4999999, 1.24999996;stroke-dashoffset:0.625;stroke-opacity:1"
       inkscape:connector-curvature="0" />
    <path
       sodipodi:nodetypes="cccc"
       id="path4142-9-6"
       d="m 41.819045,880.40026 -285.111785,0 147.20009,-149.75026 285.11179,0"
       style="opacity:0.98999999;fill:#a0a0a0;fill-opacity:1;fill-rule:evenodd;stroke:none;stroke-width:1.25;stroke-linecap:butt;stroke-linejoin:round;stroke-miterlimit:0;stroke-dasharray:2.4999999, 1.24999995;stroke-dashoffset:0.625;stroke-opacity:0.19607843"
       inkscape:connector-curvature="0" />
    <path
       d="M -60.380441,730.63879 -224.01747,897.04043 M -24.741471,730.63879 -188.3785,897.04043 M 10.897509,730.63879 -152.73952,897.04043 M 46.536485,730.63879 -117.10055,897.04043 M 82.175455,730.63879 -81.461571,897.04043 M 117.81442,730.63879 -45.822601,897.04043 M 153.4534,730.63879 -10.183631,897.04043 m -102.199489,-149.76147 285.11178,0 m -301.47549,16.64016 285.11179,0 m -301.47549,16.64016 285.11178,0 m -301.47548,16.64017 285.11178,0 m -301.47549,16.64016 285.11179,0 m -301.47549,16.64016 285.111785,0 m -301.475485,16.64017 285.111785,0 m -317.839185,33.28032 285.111785,0"
       style="fill:none;fill-opacity:0.75;fill-rule:evenodd;stroke:#800000;stroke-width:0.93750002;stroke-linecap:butt;stroke-linejoin:miter;stroke-miterlimit:4;stroke-dasharray:1.87500003,0.93750002;stroke-dashoffset:0;stroke-opacity:0.19607843"
       id="path4682-3"
       inkscape:connector-curvature="0"
       sodipodi:nodetypes="cccccccccccccccccccccccccccccc" />
    <path
       sodipodi:nodetypes="cccc"
       id="path4144-0-0"
       d="m 58.18275,833.60259 -285.11179,0 0,30.15751 285.11179,0"
       style="opacity:0.98999999;fill:#f0f0f0;fill-opacity:1;fill-rule:evenodd;stroke:none;stroke-width:1.25;stroke-linecap:butt;stroke-linejoin:round;stroke-miterlimit:0;stroke-dasharray:2.4999999, 1.24999995;stroke-dashoffset:0.625;stroke-opacity:1"
       inkscape:connector-curvature="0" />
    <path
       sodipodi:nodetypes="cc"
       inkscape:connector-curvature="0"
       id="path4796-7-3-7-9"
       style="fill:none;fill-opacity:0.75;fill-rule:evenodd;stroke:#800000;stroke-width:0.93750002;stroke-linecap:butt;stroke-linejoin:miter;stroke-miterlimit:4;stroke-dasharray:1.87500003,0.93750002;stroke-dashoffset:0;stroke-opacity:0.19607843"
       d="m -112.45635,717.21546 0,30.06712" />
    <path
       sodipodi:nodetypes="cccccccccccccc"
       inkscape:connector-curvature="0"
       id="path4796-7"
       style="fill:none;fill-opacity:0.75;fill-rule:evenodd;stroke:#000000;stroke-width:0.93750002;stroke-linecap:butt;stroke-linejoin:miter;stroke-miterlimit:4;stroke-dasharray:1.87500003,0.93750002;stroke-dashoffset:0;stroke-opacity:1"
       d="m -10.25686,927.10695 0,30.06716 m -35.63897,-30.06716 0,30.06716 m -35.63896,-30.06716 0,30.06716 m -35.63897,-30.06716 0,30.06716 m -35.63897,-30.06716 0,30.06716 m -35.63899,-30.06716 0,30.06716 m -35.63897,-30.06716 0,30.06716" />
    <path
       sodipodi:nodetypes="cc"
       inkscape:connector-curvature="0"
       id="path4796-7-3"
       style="fill:none;fill-opacity:0.75;fill-rule:evenodd;stroke:#800000;stroke-width:0.93750002;stroke-linecap:butt;stroke-linejoin:miter;stroke-miterlimit:4;stroke-dasharray:1.87500003,0.93750002;stroke-dashoffset:0;stroke-opacity:1"
       d="m -259.72966,866.9845 0,60.0386" />
    <path
       sodipodi:nodetypes="cc"
       inkscape:connector-curvature="0"
       id="path4796-7-3-0"
       style="fill:none;fill-opacity:0.75;fill-rule:evenodd;stroke:#800000;stroke-width:0.93750002;stroke-linecap:butt;stroke-linejoin:miter;stroke-miterlimit:4;stroke-dasharray:1.87500003,0.93750002;stroke-dashoffset:0;stroke-opacity:1"
       d="m 25.382091,866.94936 1.8e-5,60.07375" />
    <path
       sodipodi:nodetypes="cc"
       inkscape:connector-curvature="0"
       id="path4796-7-3-6"
       style="fill:none;fill-opacity:0.75;fill-rule:evenodd;stroke:#800000;stroke-width:0.93750002;stroke-linecap:butt;stroke-linejoin:miter;stroke-miterlimit:4;stroke-dasharray:1.87500003,0.93750002;stroke-dashoffset:0;stroke-opacity:1"
       d="m 189.01912,700.57528 0,30.06712" />
    <path
       sodipodi:nodetypes="cccccccccccccc"
       inkscape:connector-curvature="0"
       id="path4796-7-5"
       style="fill:none;fill-opacity:0.75;fill-rule:evenodd;stroke:#800000;stroke-width:0.93750002;stroke-linecap:butt;stroke-linejoin:miter;stroke-miterlimit:4;stroke-dasharray:1.87500003,0.93750002;stroke-dashoffset:0;stroke-opacity:0.19607843"
       d="m 6.0606998,850.62628 0,30.06712 m -35.6389668,-30.06712 0,30.06712 m -35.63896,-30.06712 0,30.06712 m -35.638973,-30.06712 0,30.06712 m -35.63898,-30.06712 0,30.06712 m -35.63899,-30.06712 0,30.06712 m -35.63897,-30.06712 0,30.06712" />
    <path
       sodipodi:nodetypes="cc"
       inkscape:connector-curvature="0"
       id="path4796-7-3-2"
       style="fill:none;fill-opacity:0.75;fill-rule:evenodd;stroke:#800000;stroke-width:1;stroke-linecap:butt;stroke-linejoin:miter;stroke-miterlimit:4;stroke-dasharray:2.00000006, 1.00000003;stroke-dashoffset:0;stroke-opacity:0.19607843"
       d="m -96.092651,700.57528 0,30.06712" />
    <path
       sodipodi:nodetypes="cccccccccccccc"
       inkscape:connector-curvature="0"
       id="path4796-7-6"
       style="fill:none;fill-opacity:0.75;fill-rule:evenodd;stroke:#800000;stroke-width:0.93750002;stroke-linecap:butt;stroke-linejoin:miter;stroke-miterlimit:4;stroke-dasharray:1.87500003,0.93750002;stroke-dashoffset:0;stroke-opacity:0.19607843"
       d="m 153.38016,700.57529 0,30.06712 m -35.63897,-30.06712 0,30.06712 m -35.638955,-30.06712 0,30.06712 m -35.63897,-30.06712 0,30.06712 m -35.638976,-30.06712 0,30.06712 m -35.638992,-30.06712 0,30.06712 m -35.638972,-30.06712 0,30.06712" />
    <path
       sodipodi:nodetypes="cccccccccccccc"
       inkscape:connector-curvature="0"
       id="path4796-7-5-2"
       style="fill:none;fill-opacity:0.75;fill-rule:evenodd;stroke:#800000;stroke-width:0.93750002;stroke-linecap:butt;stroke-linejoin:miter;stroke-miterlimit:4;stroke-dasharray:1.87500003,0.93750002;stroke-dashoffset:0;stroke-opacity:0.19607843"
       d="m 22.165306,833.88223 0,30.06712 m -35.638973,-30.06712 0,30.06712 m -35.63896,-30.06712 0,30.06712 m -35.63897,-30.06712 0,30.06712 m -35.638983,-30.06712 0,30.06712 m -35.63899,-30.06712 0,30.06712 m -35.63898,-30.06712 0,30.06712" />
    <path
       d="M -60.453701,700.57529 -224.09069,866.97693 M -24.814701,700.57529 -188.45179,866.97693 M 10.824299,700.57529 -152.81279,866.97693 M 46.463199,700.57529 -117.17379,866.97693 M 82.102209,700.57529 -81.534891,866.97693 M 117.74118,700.57529 -45.895891,866.97693 M 153.38016,700.57529 -10.256891,866.97693 M -112.4564,717.21546 l 285.11182,0 m -317.83922,33.28032 285.11181,0 m -301.47551,16.64017 285.11181,0 m -301.47551,16.64016 285.11181,0 m -301.47551,16.64016 285.111809,0 m -301.475509,16.64017 285.111809,0 m -317.839209,33.28032 285.111799,0"
       style="fill:none;fill-opacity:0.75;fill-rule:evenodd;stroke:#800000;stroke-width:0.93750002;stroke-linecap:butt;stroke-linejoin:miter;stroke-miterlimit:4;stroke-dasharray:1.87500003,0.93750002;stroke-dashoffset:0;stroke-opacity:1"
       id="path4682-4"
       inkscape:connector-curvature="0"
       sodipodi:nodetypes="cccccccccccccccccccccccccccc" />
    <path
       d="m 165.54901,722.10455 -135.577548,0 -118.36384,0"
       style="fill:none;fill-opacity:0.75;fill-rule:evenodd;stroke:#005000;stroke-width:1.40625003;stroke-linecap:butt;stroke-linejoin:miter;stroke-miterlimit:4;stroke-dasharray:33.75000061,1.40625003;stroke-dashoffset:0;stroke-opacity:1;marker-mid:url(#marker7036)"
       id="path4682-7-94"
       inkscape:connector-curvature="0"
       sodipodi:nodetypes="ccc" />
    <path
       d="m -96.090832,730.64421 -7.668148,7.78539"
       style="fill:none;fill-opacity:0.75;fill-rule:evenodd;stroke:#800000;stroke-width:0.93749994;stroke-linecap:butt;stroke-linejoin:miter;stroke-miterlimit:4;stroke-dasharray:1.87499996, 0.93749998;stroke-dashoffset:0;stroke-opacity:0.19607843"
       id="path4682-3-2-4"
       inkscape:connector-curvature="0"
       sodipodi:nodetypes="cc" />
    <path
       style="fill:none;fill-rule:evenodd;stroke:#005000;stroke-width:0.93750002;stroke-linecap:round;stroke-linejoin:miter;stroke-miterlimit:4;stroke-dasharray:0.93750002,2.81250005;stroke-dashoffset:0;stroke-opacity:1"
       d="M -98.066023,738.74471 C -112.45635,717.21546 191.86869,746.13405 165.54901,722.10455"
       id="path11049"
       inkscape:connector-curvature="0"
       sodipodi:nodetypes="cc" />
    <path
       sodipodi:nodetypes="cccc"
       id="path4142-9-6-2"
       d="m 58.109491,833.6966 -285.111791,0 98.18224,-99.84098 285.11181,0"
       style="opacity:0.98999999;fill:#a0a0a0;fill-opacity:1;fill-rule:evenodd;stroke:none;stroke-width:1.25;stroke-linecap:butt;stroke-linejoin:round;stroke-miterlimit:0;stroke-dasharray:2.4999999, 1.24999995;stroke-dashoffset:0.625;stroke-opacity:0.19607843"
       inkscape:connector-curvature="0" />
    <path
       d="m -93.283973,733.93778 -98.384547,99.94445 m 134.023519,-99.94445 -98.384549,99.94445 m 134.023522,-99.94445 -98.384552,99.94445 M 13.632944,733.93778 -84.751609,833.88223 M 49.271916,733.93778 -49.112635,833.88223 M 84.910882,733.93778 -13.473666,833.88223 M 120.54986,733.93778 22.259918,833.94136 m -167.443678,-83.44558 285.11177,0 m -301.47547,16.64017 285.11177,0 m -301.47547,16.64016 285.11177,0 m -301.47547,16.64016 285.111769,0 m -301.475469,16.64017 285.111768,0"
       style="fill:none;fill-opacity:0.75;fill-rule:evenodd;stroke:#000000;stroke-width:0.93750002;stroke-linecap:butt;stroke-linejoin:miter;stroke-miterlimit:4;stroke-dasharray:1.87500003,0.93750002;stroke-dashoffset:0;stroke-opacity:1"
       id="path4682"
       inkscape:connector-curvature="0"
       sodipodi:nodetypes="cccccccccccccccccccccccc" />
    <path
       sodipodi:nodetypes="cccc"
       style="opacity:0.98999999;fill:#505050;fill-opacity:1;fill-rule:evenodd;stroke:none;stroke-width:1.25;stroke-linecap:butt;stroke-linejoin:round;stroke-miterlimit:0;stroke-dasharray:2.4999999, 1.24999995;stroke-dashoffset:0.75;stroke-opacity:1"
       d="m 58.18275,833.60259 0,30.15751 98.18221,-99.84098 0,-30.15746"
       id="path4140-3-3"
       inkscape:connector-curvature="0" />
    <path
       d="m 58.18275,833.60259 98.03575,-99.65297 m -98.109005,99.74698 0,30.17724 m 16.36371,-46.86471 0,30.22454 m 16.3637,-46.8174 0,30.17724 m 16.363705,-46.8174 0,30.17723 m 16.3637,-46.81739 0,30.17723 m 16.3637,-46.8174 0,30.17724"
       style="fill:none;fill-opacity:0.75;fill-rule:evenodd;stroke:#000000;stroke-width:0.93750002;stroke-linecap:butt;stroke-linejoin:miter;stroke-miterlimit:4;stroke-dasharray:1.87500003,0.93750002;stroke-dashoffset:0;stroke-opacity:1"
       id="path4914-9"
       inkscape:connector-curvature="0"
       sodipodi:nodetypes="cccccccccccccc" />
    <path
       d="M 58.109518,863.79887 156.29171,764.03285 M 41.819045,910.47498 189.01913,760.72471 m -130.909612,103.07416 0,60.12188 m 16.363701,-76.76204 0,60.12187 m 16.363703,-76.76204 0,60.12188 m 16.363708,-76.76204 0,60.12187 m 16.3637,-76.76203 0,60.12187 m 16.3637,-76.76204 0,60.12188 m 16.3637,-76.76204 0,60.12187 m 16.3637,-76.76204 0,60.12188"
       style="fill:none;fill-opacity:0.75;fill-rule:evenodd;stroke:#000000;stroke-width:0.93750002;stroke-linecap:butt;stroke-linejoin:miter;stroke-miterlimit:4;stroke-dasharray:1.87500003,0.93750002;stroke-dashoffset:0;stroke-opacity:1"
       id="path4914"
       inkscape:connector-curvature="0"
       sodipodi:nodetypes="cccccccccccccccccccc" />
    <path
       sodipodi:nodetypes="cc"
       inkscape:connector-curvature="0"
       id="path4796-7-3-7"
       style="fill:none;fill-opacity:0.75;fill-rule:evenodd;stroke:#800000;stroke-width:0.93750002;stroke-linecap:butt;stroke-linejoin:miter;stroke-miterlimit:4;stroke-dasharray:1.87500003,0.93750002;stroke-dashoffset:0;stroke-opacity:0.19607843"
       d="m -243.36596,850.33676 -1e-5,60.13002" />
    <path
       sodipodi:nodetypes="cc"
       inkscape:connector-curvature="0"
       id="path4796-7-3-7-5"
       style="fill:none;fill-opacity:0.75;fill-rule:evenodd;stroke:#800000;stroke-width:0.93750002;stroke-linecap:butt;stroke-linejoin:miter;stroke-miterlimit:4;stroke-dasharray:1.87500003,0.93750002;stroke-dashoffset:0;stroke-opacity:0.19607843"
       d="m -227.00226,833.6966 0,30.06712" />
    <path
       d="m -226.92904,863.7601 -32.80062,33.27212"
       style="fill:none;fill-opacity:0.75;fill-rule:evenodd;stroke:#800000;stroke-width:0.93750002;stroke-linecap:butt;stroke-linejoin:miter;stroke-miterlimit:4;stroke-dasharray:1.87500003,0.93750002;stroke-dashoffset:0;stroke-opacity:0.19607843"
       id="path4682-3-2"
       inkscape:connector-curvature="0"
       sodipodi:nodetypes="cc" />
    <path
       sodipodi:nodetypes="cccccccccccccc"
       inkscape:connector-curvature="0"
       id="path4796-7-5-8"
       style="fill:none;fill-opacity:0.75;fill-rule:evenodd;stroke:#800000;stroke-width:0.93750002;stroke-linecap:butt;stroke-linejoin:miter;stroke-miterlimit:4;stroke-dasharray:1.87500003,0.93750002;stroke-dashoffset:0;stroke-opacity:0.19607843"
       d="m 6.060712,880.6934 0,30.06712 m -35.638972,-30.06712 0,30.06712 m -35.63896,-30.06712 0,30.06712 m -35.63897,-30.06712 0,30.06712 m -35.63898,-30.06712 0,30.06712 m -35.639,-30.06712 0,30.06712 m -35.63897,-30.06712 0,30.06712" />
    <path
       sodipodi:nodetypes="cccccccccccccccc"
       inkscape:connector-curvature="0"
       id="path4796"
       style="fill:none;fill-opacity:0.75;fill-rule:evenodd;stroke:#800000;stroke-width:0.93750002;stroke-linecap:butt;stroke-linejoin:miter;stroke-miterlimit:4;stroke-dasharray:1.87500003,0.93750002;stroke-dashoffset:0;stroke-opacity:1"
       d="m -10.256865,866.97693 0,60.13002 m -35.638973,-60.13002 0,60.13002 m -35.638966,-60.13002 0,60.13002 m -35.638966,-60.13002 0,60.13002 m -35.63897,-60.13002 0,60.13002 m -35.63898,-60.13002 0,60.13002 m -35.63897,-60.13002 0,60.13002 m 249.472799,-30.07473 -285.111769,0" />
    <path
       d="m 25.382109,927.02383 16.3637,-16.66773"
       style="fill:none;fill-opacity:0.75;fill-rule:evenodd;stroke:#800000;stroke-width:0.93750002;stroke-linecap:butt;stroke-linejoin:miter;stroke-miterlimit:4;stroke-dasharray:1.87500003,0.93750002;stroke-dashoffset:0;stroke-opacity:1"
       id="path4914-9-1"
       inkscape:connector-curvature="0"
       sodipodi:nodetypes="cc" />
    <path
       d="M 25.382109,897.03222 58.182745,863.7601"
       style="fill:none;fill-opacity:0.75;fill-rule:evenodd;stroke:#800000;stroke-width:0.93750002;stroke-linecap:butt;stroke-linejoin:miter;stroke-miterlimit:4;stroke-dasharray:1.87500003,0.93750002;stroke-dashoffset:0;stroke-opacity:1"
       id="path4914-9-1-8"
       inkscape:connector-curvature="0"
       sodipodi:nodetypes="cc" />
    <path
       d="M 25.382109,957.20107 189.01912,790.79945"
       style="fill:none;fill-opacity:0.75;fill-rule:evenodd;stroke:#000000;stroke-width:0.93750002;stroke-linecap:butt;stroke-linejoin:miter;stroke-miterlimit:4;stroke-dasharray:1.87500003,0.93750002;stroke-dashoffset:0;stroke-opacity:1"
       id="path4914-9-1-0"
       inkscape:connector-curvature="0"
       sodipodi:nodetypes="cc" />
    <path
       sodipodi:nodetypes="cc"
       inkscape:connector-curvature="0"
       id="path4796-7-3-6-3"
       style="fill:none;fill-opacity:0.75;fill-rule:evenodd;stroke:#000000;stroke-width:0.93750002;stroke-linecap:butt;stroke-linejoin:miter;stroke-miterlimit:4;stroke-dasharray:1.87500003,0.93750002;stroke-dashoffset:0;stroke-opacity:1"
       d="m 189.01912,730.64238 0,60.15704" />
    <path
       sodipodi:nodetypes="cc"
       inkscape:connector-curvature="0"
       id="path4796-7-3-6-2"
       style="fill:none;fill-opacity:0.75;fill-rule:evenodd;stroke:#800000;stroke-width:0.93750002;stroke-linecap:butt;stroke-linejoin:miter;stroke-miterlimit:4;stroke-dasharray:1.87500003,0.93750002;stroke-dashoffset:0;stroke-opacity:1"
       d="m 189.01912,730.64238 -32.72739,33.31551" />
    <path
       sodipodi:nodetypes="cc"
       inkscape:connector-curvature="0"
       id="path4796-7-3-6-0"
       style="fill:none;fill-opacity:0.75;fill-rule:evenodd;stroke:#800000;stroke-width:0.93750002;stroke-linecap:butt;stroke-linejoin:miter;stroke-miterlimit:4;stroke-dasharray:1.87500003,0.93750002;stroke-dashoffset:0;stroke-opacity:0.19607843"
       d="m -243.36596,910.56139 -16.3637,16.46171" />
    <path
       sodipodi:nodetypes="cccc"
       id="path4142-9"
       d="m 25.382109,866.97691 -285.111769,0 163.637009,-166.40163 285.111771,0"
       style="opacity:0.98999999;fill:none;fill-opacity:0;fill-rule:evenodd;stroke:none;stroke-width:1.25;stroke-linecap:butt;stroke-linejoin:miter;stroke-miterlimit:0;stroke-dasharray:2.4999999, 1.24999995;stroke-dashoffset:0.625;stroke-opacity:1"
       inkscape:connector-curvature="0" />
    <path
       d="m -226.92904,833.60259 98.10898,-99.74697"
       style="fill:none;fill-opacity:0.75;fill-rule:evenodd;stroke:#000000;stroke-width:0.93750002;stroke-linecap:butt;stroke-linejoin:miter;stroke-miterlimit:4;stroke-dasharray:1.87500003,0.93750002;stroke-dashoffset:0;stroke-opacity:1"
       id="path4914-9-1-0-6"
       inkscape:connector-curvature="0"
       sodipodi:nodetypes="cc" />
    <path
       d="m -128.82006,733.85562 32.727409,-33.28034"
       style="fill:none;fill-opacity:0.75;fill-rule:evenodd;stroke:#800000;stroke-width:0.93750002;stroke-linecap:butt;stroke-linejoin:miter;stroke-miterlimit:4;stroke-dasharray:1.87500003,0.93750002;stroke-dashoffset:0;stroke-opacity:1"
       id="path4914-9-1-0-6-1"
       inkscape:connector-curvature="0"
       sodipodi:nodetypes="cc" />
    <path
       d="m -96.092651,700.57528 285.111761,-0.0276"
       style="fill:none;fill-opacity:0.75;fill-rule:evenodd;stroke:#800000;stroke-width:0.93750002;stroke-linecap:butt;stroke-linejoin:miter;stroke-miterlimit:4;stroke-dasharray:1.87500003,0.93750002;stroke-dashoffset:0;stroke-opacity:1"
       id="path4914-9-1-0-6-5"
       inkscape:connector-curvature="0"
       sodipodi:nodetypes="cc" />
    <path
       d="m -259.72966,866.9845 32.80062,-33.38191"
       style="fill:none;fill-opacity:0.75;fill-rule:evenodd;stroke:#800000;stroke-width:0.93750002;stroke-linecap:butt;stroke-linejoin:miter;stroke-miterlimit:4;stroke-dasharray:1.87500003,0.93750002;stroke-dashoffset:0;stroke-opacity:1"
       id="path4914-9-1-0-6-54"
       inkscape:connector-curvature="0"
       sodipodi:nodetypes="cc" />
    <path
       d="m -226.92904,833.60259 285.038531,0.094"
       style="fill:none;fill-opacity:0.75;fill-rule:evenodd;stroke:#800000;stroke-width:0.93750002;stroke-linecap:butt;stroke-linejoin:miter;stroke-miterlimit:4;stroke-dasharray:1.87500003,0.93750002;stroke-dashoffset:0;stroke-opacity:1"
       id="path4914-9-1-0-6-7"
       inkscape:connector-curvature="0"
       sodipodi:nodetypes="cc" />
    <path
       d="m -128.82006,733.85562 285.03856,0.094"
       style="fill:none;fill-opacity:0.75;fill-rule:evenodd;stroke:#800000;stroke-width:0.93750002;stroke-linecap:butt;stroke-linejoin:miter;stroke-miterlimit:4;stroke-dasharray:1.87500003,0.93750002;stroke-dashoffset:0;stroke-opacity:1"
       id="path4914-9-1-0-6-7-6"
       inkscape:connector-curvature="0"
       sodipodi:nodetypes="cc" />
    <path
       d="M -243.36596,910.56139 41.745809,910.3561"
       style="fill:none;fill-opacity:0.75;fill-rule:evenodd;stroke:#800000;stroke-width:0.93750002;stroke-linecap:butt;stroke-linejoin:miter;stroke-miterlimit:4;stroke-dasharray:1.87500003,0.93750002;stroke-dashoffset:0;stroke-opacity:0.19607843"
       id="path4914-9-1-0-6-7-69"
       inkscape:connector-curvature="0"
       sodipodi:nodetypes="cc" />
    <path
       d="m 41.819049,910.47498 -0.07323,29.91245"
       style="fill:none;fill-opacity:0.75;fill-rule:evenodd;stroke:#000000;stroke-width:0.99999994;stroke-linecap:butt;stroke-linejoin:miter;stroke-miterlimit:4;stroke-dasharray:1.99999994, 0.99999997;stroke-dashoffset:0;stroke-opacity:1"
       id="path4914-9-1-0-6-7-3"
       inkscape:connector-curvature="0"
       sodipodi:nodetypes="cc" />
    <path
       d="m 25.382109,927.02311 -0.07323,29.91245"
       style="fill:none;fill-opacity:0.75;fill-rule:evenodd;stroke:#000000;stroke-width:0.93750002;stroke-linecap:butt;stroke-linejoin:miter;stroke-miterlimit:4;stroke-dasharray:1.87500003,0.93750002;stroke-dashoffset:0;stroke-opacity:1"
       id="path4914-9-1-0-6-7-3-7"
       inkscape:connector-curvature="0"
       sodipodi:nodetypes="cc" />
    <path
       d="m -259.72966,957.20107 285.038563,0.094"
       style="fill:none;fill-opacity:0.75;fill-rule:evenodd;stroke:#000000;stroke-width:0.93750002;stroke-linecap:butt;stroke-linejoin:miter;stroke-miterlimit:4;stroke-dasharray:1.87500003,0.93750002;stroke-dashoffset:0;stroke-opacity:1"
       id="path4914-9-1-0-6-7-69-5"
       inkscape:connector-curvature="0"
       sodipodi:nodetypes="cc" />
    <path
       d="m -259.72966,957.20107 0,-30.17796"
       style="fill:none;fill-opacity:0.75;fill-rule:evenodd;stroke:#000000;stroke-width:0.93750002;stroke-linecap:butt;stroke-linejoin:miter;stroke-miterlimit:4;stroke-dasharray:1.87500003,0.93750002;stroke-dashoffset:0;stroke-opacity:1"
       id="path4914-9-1-0-6-7-69-2"
       inkscape:connector-curvature="0"
       sodipodi:nodetypes="cc" />
    <path
       d="m -259.72966,927.0231 285.03857,0.094"
       style="fill:none;fill-opacity:0.75;fill-rule:evenodd;stroke:#800000;stroke-width:0.93750002;stroke-linecap:butt;stroke-linejoin:miter;stroke-miterlimit:4;stroke-dasharray:1.87500003,0.93750002;stroke-dashoffset:0;stroke-opacity:1"
       id="path4914-9-1-0-6-7-69-54"
       inkscape:connector-curvature="0"
       sodipodi:nodetypes="cc" />
    <path
       sodipodi:nodetypes="cc"
       inkscape:connector-curvature="0"
       id="path4796-7-3-0-7"
       style="fill:none;fill-opacity:0.75;fill-rule:evenodd;stroke:#800000;stroke-width:1;stroke-linecap:butt;stroke-linejoin:miter;stroke-miterlimit:4;stroke-dasharray:2.00000006, 1.00000003;stroke-dashoffset:0;stroke-opacity:1"
       d="m 41.745799,850.33676 1.8e-5,60.07375" />
    <path
       sodipodi:nodetypes="cc"
       inkscape:connector-curvature="0"
       id="path4796-7-3-0-4"
       style="fill:none;fill-opacity:0.75;fill-rule:evenodd;stroke:#800000;stroke-width:0.93750002;stroke-linecap:butt;stroke-linejoin:miter;stroke-miterlimit:4;stroke-dasharray:1.87500003,0.93750002;stroke-dashoffset:0;stroke-opacity:1"
       d="M 58.109491,833.6966 25.382109,866.97691" />
    <path
       d="m -259.65648,866.88291 285.038589,0.094"
       style="fill:none;fill-opacity:0.75;fill-rule:evenodd;stroke:#800000;stroke-width:0.93750002;stroke-linecap:butt;stroke-linejoin:miter;stroke-miterlimit:4;stroke-dasharray:1.87500003,0.93750002;stroke-dashoffset:0;stroke-opacity:1"
       id="path4914-9-1-0-6-7-69-54-4"
       inkscape:connector-curvature="0"
       sodipodi:nodetypes="cc" />
    <path
       d="m -96.092651,730.6424 285.038591,0.094"
       style="fill:none;fill-opacity:0.75;fill-rule:evenodd;stroke:#800000;stroke-width:0.93750002;stroke-linecap:butt;stroke-linejoin:miter;stroke-miterlimit:4;stroke-dasharray:1.87500003,0.93750002;stroke-dashoffset:0;stroke-opacity:0.19607843"
       id="path4914-9-1-0-6-7-69-54-3"
       inkscape:connector-curvature="0"
       sodipodi:nodetypes="cc" />
    <path
       d="m -226.92911,863.77984 285.038605,0.094"
       style="fill:none;fill-opacity:0.75;fill-rule:evenodd;stroke:#800000;stroke-width:0.93750002;stroke-linecap:butt;stroke-linejoin:miter;stroke-miterlimit:4;stroke-dasharray:1.87500003,0.93750002;stroke-dashoffset:0;stroke-opacity:0.19607843"
       id="path4914-9-1-0-6-7-69-54-4-0"
       inkscape:connector-curvature="0"
       sodipodi:nodetypes="cc" />
    <path
       style="fill:none;fill-rule:evenodd;stroke:#005000;stroke-width:0.93750002;stroke-linecap:round;stroke-linejoin:miter;stroke-miterlimit:4;stroke-dasharray:0.93750002,2.81250005;stroke-dashoffset:0;stroke-opacity:1"
       d="m -237.05764,875.71909 c -14.39033,-21.52925 285.096542,8.73292 263.34743,-16.64016"
       id="path11049-7"
       inkscape:connector-curvature="0"
       sodipodi:nodetypes="cc" />
    <path
       style="fill:none;fill-rule:evenodd;stroke:#005000;stroke-width:1.00000012;stroke-linecap:round;stroke-linejoin:miter;stroke-miterlimit:4;stroke-dasharray:1.00000012, 3.00000036;stroke-dashoffset:0;stroke-opacity:1;marker-end:url(#marker5829)"
       d="m -220.69393,859.07893 c -4.55653,-6.81698 28.56661,-9.31968 72.35504,-10.22563"
       id="path11049-8"
       inkscape:connector-curvature="0"
       sodipodi:nodetypes="cc" />
    <path
       style="fill:none;fill-rule:evenodd;stroke:#005000;stroke-width:0.93750002;stroke-linecap:round;stroke-linejoin:miter;stroke-miterlimit:4;stroke-dasharray:0.93750002,2.81250005;stroke-dashoffset:0;stroke-opacity:1;marker-mid:url(#marker5903);marker-end:url(#marker5903)"
       d="M -88.392378,722.10455 C -153.17639,691.31592 184.60887,665.31851 212.671,712.77681 230.02832,742.13127 201.1486,803.61848 157.44941,857.37197 117.68148,906.2897 26.720637,905.30666 10.176739,905.17462"
       id="path11049-6"
       inkscape:connector-curvature="0"
       sodipodi:nodetypes="cssc" />
    <path
       d="m 10.176739,905.17462 -138.626019,0 -108.35769,0"
       style="fill:none;fill-opacity:0.75;fill-rule:evenodd;stroke:#005000;stroke-width:1.40625003;stroke-linecap:butt;stroke-linejoin:miter;stroke-miterlimit:4;stroke-dasharray:33.75000061,1.40625003;stroke-dashoffset:0;stroke-opacity:1;marker-mid:url(#marker6373)"
       id="path4682-7-4"
       inkscape:connector-curvature="0"
       sodipodi:nodetypes="ccc" />
    <path
       style="fill:none;fill-rule:evenodd;stroke:#005000;stroke-width:0.93750002;stroke-linecap:round;stroke-linejoin:miter;stroke-miterlimit:4;stroke-dasharray:0.93750002,2.81250005;stroke-dashoffset:0;stroke-opacity:1;marker-end:url(#marker4484)"
       d="m -236.80697,905.17462 c -4.55653,-6.81698 28.56661,-9.31968 72.35504,-10.22563"
       id="path11049-8-3"
       inkscape:connector-curvature="0"
       sodipodi:nodetypes="cc" />
    <path
       d="m 9.926078,875.71909 -138.626018,0 -108.3577,0"
       style="fill:none;fill-opacity:0.75;fill-rule:evenodd;stroke:#005000;stroke-width:1.40625003;stroke-linecap:butt;stroke-linejoin:miter;stroke-miterlimit:4;stroke-dasharray:33.75000061,1.40625003;stroke-dashoffset:0;stroke-opacity:1;marker-mid:url(#marker6584)"
       id="path4682-7-4-0"
       inkscape:connector-curvature="0"
       sodipodi:nodetypes="ccc" />
    <path
       d="m 26.28979,859.07893 -138.62602,0 -108.3577,0"
       style="fill:none;fill-opacity:0.75;fill-rule:evenodd;stroke:#005000;stroke-width:1.40625003;stroke-linecap:butt;stroke-linejoin:miter;stroke-miterlimit:4;stroke-dasharray:33.75000061,1.40625003;stroke-dashoffset:0;stroke-opacity:1;marker-mid:url(#marker6801)"
       id="path4682-7-4-6"
       inkscape:connector-curvature="0"
       sodipodi:nodetypes="ccc" />
    <path
       d="m 156.29171,733.85562 32.72741,-33.28034"
       style="fill:none;fill-opacity:0.75;fill-rule:evenodd;stroke:#800000;stroke-width:0.93750002;stroke-linecap:butt;stroke-linejoin:miter;stroke-miterlimit:4;stroke-dasharray:1.87500003,0.93750002;stroke-dashoffset:0;stroke-opacity:1"
       id="path4914-9-1-0-6-1-3"
       inkscape:connector-curvature="0"
       sodipodi:nodetypes="cc" />
    <path
       sodipodi:nodetypes="cc"
       inkscape:connector-curvature="0"
       id="path4796-7-3-0-7-6"
       style="fill:none;fill-opacity:0.75;fill-rule:evenodd;stroke:#800000;stroke-width:0.93750002;stroke-linecap:butt;stroke-linejoin:miter;stroke-miterlimit:4;stroke-dasharray:1.87500003,0.93750002;stroke-dashoffset:0;stroke-opacity:1"
       d="m 172.65542,717.21546 1e-5,30.10226" />
    <path
       sodipodi:nodetypes="cc"
       inkscape:connector-curvature="0"
       id="path4796-7-3-0-7-6-7"
       style="fill:none;fill-opacity:0.75;fill-rule:evenodd;stroke:#800000;stroke-width:0.93750002;stroke-linecap:butt;stroke-linejoin:miter;stroke-miterlimit:4;stroke-dasharray:1.87500003,0.93750002;stroke-dashoffset:0;stroke-opacity:1"
       d="m 156.36496,733.76166 1e-5,30.10226" />
    <text
       xml:space="preserve"
       style="font-style:normal;font-variant:normal;font-weight:normal;font-stretch:normal;line-height:0%;font-family:'Latin Modern Sans';-inkscape-font-specification:'Latin Modern Sans, Normal';text-align:center;letter-spacing:0px;word-spacing:0px;writing-mode:lr-tb;text-anchor:middle;fill:#005000;fill-opacity:1;stroke:none;stroke-width:1px;stroke-linecap:butt;stroke-linejoin:miter;stroke-opacity:1"
       x="6.8932018"
       y="883.98578"
       id="text6368"><tspan
         sodipodi:role="line"
         id="tspan6370"
         x="6.8932023"
         y="883.98578"
         style="font-style:normal;font-variant:normal;font-weight:normal;font-stretch:normal;font-size:10.00000095px;line-height:100%;font-family:'Latin Modern Sans';-inkscape-font-specification:'Latin Modern Sans, Normal';text-align:center;writing-mode:lr-tb;text-anchor:middle;fill:#005000;fill-opacity:1">(0,0,0)</tspan></text>
    <text
       xml:space="preserve"
       style="font-style:normal;font-variant:normal;font-weight:normal;font-stretch:normal;line-height:0%;font-family:'Latin Modern Sans';-inkscape-font-specification:'Latin Modern Sans, Normal';text-align:center;letter-spacing:0px;word-spacing:0px;writing-mode:lr-tb;text-anchor:middle;fill:#005000;fill-opacity:1;stroke:none;stroke-width:1px;stroke-linecap:butt;stroke-linejoin:miter;stroke-opacity:1"
       x="-279.03708"
       y="865.01141"
       id="text6368-5"><tspan
         sodipodi:role="line"
         id="tspan6370-3"
         x="-279.03708"
         y="865.01141"
         style="font-style:normal;font-variant:normal;font-weight:normal;font-stretch:normal;font-size:10.00000095px;line-height:100%;font-family:'Latin Modern Sans';-inkscape-font-specification:'Latin Modern Sans, Normal';text-align:center;writing-mode:lr-tb;text-anchor:middle;fill:#005000;fill-opacity:1">(n<tspan
   style="font-style:normal;font-variant:normal;font-weight:normal;font-stretch:normal;font-size:10.00000095px;line-height:100%;font-family:'Latin Modern Sans';-inkscape-font-specification:'Latin Modern Sans, Normal';text-align:center;writing-mode:lr-tb;baseline-shift:sub;text-anchor:middle"
   id="tspan4520">x</tspan>−1,0,0)</tspan></text>
    <text
       xml:space="preserve"
       style="font-style:normal;font-variant:normal;font-weight:normal;font-stretch:normal;line-height:0%;font-family:'Latin Modern Sans';-inkscape-font-specification:'Latin Modern Sans, Normal';text-align:center;letter-spacing:0px;word-spacing:0px;writing-mode:lr-tb;text-anchor:middle;fill:#005000;fill-opacity:1;stroke:none;stroke-width:1px;stroke-linecap:butt;stroke-linejoin:miter;stroke-opacity:1"
       x="8.6582069"
       y="914.80267"
       id="text6368-5-5"><tspan
         sodipodi:role="line"
         id="tspan6370-3-6"
         x="8.6582079"
         y="914.80267"
         style="font-style:normal;font-variant:normal;font-weight:normal;font-stretch:normal;font-size:10.00000095px;line-height:100%;font-family:'Latin Modern Sans';-inkscape-font-specification:'Latin Modern Sans, Normal';text-align:center;writing-mode:lr-tb;text-anchor:middle;fill:#005000;fill-opacity:1">(0,0,1)</tspan></text>
    <text
       xml:space="preserve"
       style="font-style:normal;font-variant:normal;font-weight:normal;font-stretch:normal;line-height:0%;font-family:'Latin Modern Sans';-inkscape-font-specification:'Latin Modern Sans, Normal';text-align:center;letter-spacing:0px;word-spacing:0px;writing-mode:lr-tb;text-anchor:middle;fill:#005000;fill-opacity:1;stroke:none;stroke-width:1px;stroke-linecap:butt;stroke-linejoin:miter;stroke-opacity:1"
       x="33.121914"
       y="844.58478"
       id="text6368-5-5-9"><tspan
         sodipodi:role="line"
         id="tspan6370-3-6-1"
         x="33.121914"
         y="844.58478"
         style="font-style:normal;font-variant:normal;font-weight:normal;font-stretch:normal;font-size:10.00000095px;line-height:100%;font-family:'Latin Modern Sans';-inkscape-font-specification:'Latin Modern Sans, Normal';text-align:center;writing-mode:lr-tb;text-anchor:middle;fill:#005000;fill-opacity:1">(0,1,0)</tspan></text>
    <text
       xml:space="preserve"
       style="font-style:normal;font-variant:normal;font-weight:normal;font-stretch:normal;line-height:0%;font-family:'Latin Modern Sans';-inkscape-font-specification:'Latin Modern Sans, Normal';text-align:center;letter-spacing:0px;word-spacing:0px;writing-mode:lr-tb;text-anchor:middle;fill:#005000;fill-opacity:1;stroke:none;stroke-width:1px;stroke-linecap:butt;stroke-linejoin:miter;stroke-opacity:1"
       x="-261.25842"
       y="845.41174"
       id="text6368-5-2"><tspan
         sodipodi:role="line"
         id="tspan6370-3-7"
         x="-261.25842"
         y="845.41174"
         style="font-style:normal;font-variant:normal;font-weight:normal;font-stretch:normal;font-size:10.00000095px;line-height:100%;font-family:'Latin Modern Sans';-inkscape-font-specification:'Latin Modern Sans, Normal';text-align:center;writing-mode:lr-tb;text-anchor:middle;fill:#005000;fill-opacity:1">(n<tspan
   style="font-style:normal;font-variant:normal;font-weight:normal;font-stretch:normal;font-size:10.00000095px;line-height:100%;font-family:'Latin Modern Sans';-inkscape-font-specification:'Latin Modern Sans, Normal';text-align:center;writing-mode:lr-tb;baseline-shift:sub;text-anchor:middle"
   id="tspan4524">x</tspan>−1,1,0)</tspan></text>
    <text
       xml:space="preserve"
       style="font-style:normal;font-variant:normal;font-weight:normal;font-stretch:normal;line-height:0%;font-family:'Latin Modern Sans';-inkscape-font-specification:'Latin Modern Sans, Normal';text-align:center;letter-spacing:0px;word-spacing:0px;writing-mode:lr-tb;text-anchor:middle;fill:#005000;fill-opacity:1;stroke:none;stroke-width:1px;stroke-linecap:butt;stroke-linejoin:miter;stroke-opacity:1"
       x="162.90762"
       y="711.04028"
       id="text6368-5-5-9-9"><tspan
         sodipodi:role="line"
         id="tspan6370-3-6-1-3"
         x="162.90762"
         y="711.04028"
         style="font-style:normal;font-variant:normal;font-weight:normal;font-stretch:normal;font-size:10.00000095px;line-height:100%;font-family:'Latin Modern Sans';-inkscape-font-specification:'Latin Modern Sans, Normal';text-align:center;writing-mode:lr-tb;text-anchor:middle;fill:#005000;fill-opacity:1">(0,n<tspan
   style="font-style:normal;font-variant:normal;font-weight:normal;font-stretch:normal;font-size:10.00000095px;line-height:100%;font-family:'Latin Modern Sans';-inkscape-font-specification:'Latin Modern Sans, Normal';text-align:center;writing-mode:lr-tb;baseline-shift:sub;text-anchor:middle"
   id="tspan4536">y</tspan>−1,0)</tspan></text>
    <text
       xml:space="preserve"
       style="font-style:normal;font-variant:normal;font-weight:normal;font-stretch:normal;line-height:0%;font-family:'Latin Modern Sans';-inkscape-font-specification:'Latin Modern Sans, Normal';text-align:center;letter-spacing:0px;word-spacing:0px;writing-mode:lr-tb;text-anchor:middle;fill:#005000;fill-opacity:1;stroke:none;stroke-width:1px;stroke-linecap:butt;stroke-linejoin:miter;stroke-opacity:1"
       x="-137.82256"
       y="708.25732"
       id="text6368-5-5-9-9-6"><tspan
         sodipodi:role="line"
         id="tspan6370-3-6-1-3-0"
         x="-137.82256"
         y="708.25732"
         style="font-style:normal;font-variant:normal;font-weight:normal;font-stretch:normal;font-size:10.00000095px;line-height:100%;font-family:'Latin Modern Sans';-inkscape-font-specification:'Latin Modern Sans, Normal';text-align:center;writing-mode:lr-tb;text-anchor:middle;fill:#005000;fill-opacity:1">(n<tspan
   style="font-style:normal;font-variant:normal;font-weight:normal;font-stretch:normal;font-size:10.00000095px;line-height:100%;font-family:'Latin Modern Sans';-inkscape-font-specification:'Latin Modern Sans, Normal';text-align:center;writing-mode:lr-tb;baseline-shift:sub;text-anchor:middle"
   id="tspan4528">x</tspan>−1,n<tspan
   style="font-style:normal;font-variant:normal;font-weight:normal;font-stretch:normal;font-size:10.00000095px;line-height:100%;font-family:'Latin Modern Sans';-inkscape-font-specification:'Latin Modern Sans, Normal';text-align:center;writing-mode:lr-tb;baseline-shift:sub;text-anchor:middle"
   id="tspan4532">y</tspan>−1,0)</tspan></text>
    <text
       xml:space="preserve"
       style="font-style:normal;font-variant:normal;font-weight:normal;font-stretch:normal;line-height:0%;font-family:'Latin Modern Sans';-inkscape-font-specification:'Latin Modern Sans, Normal';text-align:center;letter-spacing:0px;word-spacing:0px;writing-mode:lr-tb;text-anchor:middle;fill:#005000;fill-opacity:1;stroke:none;stroke-width:1px;stroke-linecap:butt;stroke-linejoin:miter;stroke-opacity:1"
       x="-282.13718"
       y="905.0351"
       id="text6368-5-26"><tspan
         sodipodi:role="line"
         id="tspan6370-3-1"
         x="-282.13718"
         y="905.0351"
         style="font-style:normal;font-variant:normal;font-weight:normal;font-stretch:normal;font-size:10.00000095px;line-height:100%;font-family:'Latin Modern Sans';-inkscape-font-specification:'Latin Modern Sans, Normal';text-align:center;writing-mode:lr-tb;text-anchor:middle;fill:#005000;fill-opacity:1">(n<tspan
   style="font-style:normal;font-variant:normal;font-weight:normal;font-stretch:normal;font-size:10.00000095px;line-height:100%;font-family:'Latin Modern Sans';-inkscape-font-specification:'Latin Modern Sans, Normal';text-align:center;writing-mode:lr-tb;baseline-shift:sub;text-anchor:middle"
   id="tspan4516">x</tspan>−1,0,1)</tspan></text>
  </g>
</svg>
