<?xml version="1.0" encoding="UTF-8" standalone="no"?>
<!-- Created with Inkscape (http://www.inkscape.org/) -->

<svg
   xmlns:dc="http://purl.org/dc/elements/1.1/"
   xmlns:cc="http://creativecommons.org/ns#"
   xmlns:rdf="http://www.w3.org/1999/02/22-rdf-syntax-ns#"
   xmlns:svg="http://www.w3.org/2000/svg"
   xmlns="http://www.w3.org/2000/svg"
   xmlns:sodipodi="http://sodipodi.sourceforge.net/DTD/sodipodi-0.dtd"
   xmlns:inkscape="http://www.inkscape.org/namespaces/inkscape"
   width="1.9294118in"
   height="1.6666675in"
   viewBox="0 0 173.64705 150.00007"
   id="svg2"
   version="1.1"
   inkscape:version="0.92.4 (5da689c313, 2019-01-14)"
   sodipodi:docname="peremfeltetel_robin.svg">
  <defs
     id="defs4">
    <marker
       inkscape:stockid="Arrow2Mend"
       orient="auto"
       refY="0"
       refX="0"
       id="Arrow2Mend"
       style="overflow:visible"
       inkscape:isstock="true">
      <path
         id="path4811"
         style="fill:#000000;fill-opacity:1;fill-rule:evenodd;stroke:#000000;stroke-width:0.625;stroke-linejoin:round;stroke-opacity:1"
         d="M 8.7185878,4.0337352 -2.2072895,0.01601326 8.7185884,-4.0017078 c -1.7454984,2.3720609 -1.7354408,5.6174519 -6e-7,8.035443 z"
         transform="scale(-0.6,-0.6)"
         inkscape:connector-curvature="0" />
    </marker>
  </defs>
  <sodipodi:namedview
     id="base"
     pagecolor="#ffffff"
     bordercolor="#666666"
     borderopacity="1.0"
     inkscape:pageopacity="0.0"
     inkscape:pageshadow="2"
     inkscape:zoom="11.679995"
     inkscape:cx="111.13273"
     inkscape:cy="144.15954"
     inkscape:document-units="px"
     inkscape:current-layer="g4607-2-7"
     showgrid="false"
     inkscape:object-nodes="true"
     inkscape:window-width="1879"
     inkscape:window-height="1056"
     inkscape:window-x="41"
     inkscape:window-y="0"
     inkscape:window-maximized="1"
     showborder="false"
     fit-margin-top="0"
     fit-margin-left="0"
     fit-margin-right="0"
     fit-margin-bottom="0"
     units="in" />
  <metadata
     id="metadata7">
    <rdf:RDF>
      <cc:Work
         rdf:about="">
        <dc:format>image/svg+xml</dc:format>
        <dc:type
           rdf:resource="http://purl.org/dc/dcmitype/StillImage" />
        <dc:title />
      </cc:Work>
    </rdf:RDF>
  </metadata>
  <g
     inkscape:label="Layer 1"
     inkscape:groupmode="layer"
     id="layer1"
     transform="translate(49.87629,-932.36215)">
    <g
       id="g5660"
       transform="translate(0,4.9999977)">
      <g
         transform="translate(-1.2233939,0.08812101)"
         id="g4276">
        <path
           style="fill:none;fill-rule:evenodd;stroke:#000000;stroke-width:0.46874999;stroke-linecap:butt;stroke-linejoin:miter;stroke-miterlimit:4;stroke-dasharray:none;stroke-opacity:1"
           d="m -13.697302,1037.8081 0,-35.7095 13.69145581,0"
           id="path4324-5-9-1-5"
           inkscape:connector-curvature="0"
           sodipodi:nodetypes="ccc" />
        <g
           id="g4340-3"
           transform="matrix(-0.58223339,0,0,0.60845487,-41.294508,367.83927)"
           style="stroke-width:1.68010819;stroke-miterlimit:4;stroke-dasharray:none">
          <path
             inkscape:connector-curvature="0"
             id="path4299-6"
             d="m -57.386805,1101.8622 h 20"
             style="fill:none;fill-rule:evenodd;stroke:#000000;stroke-width:1.57510144;stroke-linecap:butt;stroke-linejoin:miter;stroke-miterlimit:4;stroke-dasharray:none;stroke-opacity:1" />
          <path
             inkscape:connector-curvature="0"
             id="path4299-9-2"
             d="m -54.886805,1104.3622 h 15"
             style="fill:none;fill-rule:evenodd;stroke:#000000;stroke-width:1.57510144;stroke-linecap:butt;stroke-linejoin:miter;stroke-miterlimit:4;stroke-dasharray:none;stroke-opacity:1" />
          <path
             inkscape:connector-curvature="0"
             id="path4299-9-6-9"
             d="m -52.386805,1106.8622 h 10"
             style="fill:none;fill-rule:evenodd;stroke:#000000;stroke-width:1.57510144;stroke-linecap:butt;stroke-linejoin:miter;stroke-miterlimit:4;stroke-dasharray:none;stroke-opacity:1" />
        </g>
      </g>
      <rect
         style="fill:#ffffff;fill-opacity:1;fill-rule:evenodd;stroke:#000000;stroke-width:0.93749998;stroke-linecap:round;stroke-miterlimit:4;stroke-dasharray:none;stroke-dashoffset:0;stroke-opacity:1"
         id="rect4575-4-8-0-3-6-6"
         width="6.5"
         height="24"
         x="-18.169708"
         y="1008.1348" />
      <text
         id="text4181"
         y="1023.1841"
         x="-36.092533"
         style="font-style:normal;font-variant:normal;font-weight:normal;font-stretch:normal;line-height:0%;font-family:'Latin Modern Sans';-inkscape-font-specification:'Latin Modern Sans, Normal';text-align:center;letter-spacing:0px;word-spacing:0px;writing-mode:lr-tb;text-anchor:middle;fill:#000000;fill-opacity:1;stroke:none;stroke-width:1px;stroke-linecap:butt;stroke-linejoin:miter;stroke-opacity:1"
         xml:space="preserve"><tspan
           y="1023.1841"
           x="-36.092533"
           id="tspan4183"
           sodipodi:role="line"
           style="font-size:12.5px;line-height:1">G<tspan
   id="tspan4185"
   style="font-size:64.99999762%;baseline-shift:sub">perem</tspan></tspan></text>
      <path
         style="fill:none;fill-rule:evenodd;stroke:#000000;stroke-width:0.46874999;stroke-linecap:butt;stroke-linejoin:miter;stroke-miterlimit:4;stroke-dasharray:none;stroke-opacity:1"
         d="m 49.02076,1052.3622 0,-99.99998"
         id="path4832-5-91"
         inkscape:connector-curvature="0" />
      <path
         style="fill:none;fill-rule:evenodd;stroke:#000000;stroke-width:0.46874999;stroke-linecap:butt;stroke-linejoin:miter;stroke-miterlimit:4;stroke-dasharray:none;stroke-opacity:1"
         d="m -1.2292401,1002.1867 100.0000001,0"
         id="path4832-2"
         inkscape:connector-curvature="0" />
      <rect
         transform="matrix(0,1,-1,0,0,0)"
         style="fill:#ffffff;fill-opacity:1;fill-rule:evenodd;stroke:#000000;stroke-width:0.93749998;stroke-linecap:round;stroke-miterlimit:4;stroke-dasharray:none;stroke-dashoffset:0;stroke-opacity:1"
         id="rect4575-4-8-0-3-7"
         width="6.5"
         height="24"
         x="999.11224"
         y="-35.77076" />
      <rect
         transform="matrix(0,1,-1,0,0,0)"
         style="fill:#ffffff;fill-opacity:1;fill-rule:evenodd;stroke:#000000;stroke-width:0.93749998;stroke-linecap:round;stroke-miterlimit:4;stroke-dasharray:none;stroke-dashoffset:0;stroke-opacity:1"
         id="rect4575-4-8-0-0"
         width="6.5"
         height="24"
         x="999.11224"
         y="-86.27076" />
      <rect
         style="fill:#ffffff;fill-opacity:1;fill-rule:evenodd;stroke:#000000;stroke-width:0.93749998;stroke-linecap:round;stroke-miterlimit:4;stroke-dasharray:none;stroke-dashoffset:0;stroke-opacity:1"
         id="rect4575-4-8-0-3-6-9"
         width="6.5"
         height="24"
         x="45.52076"
         y="1015.3622" />
      <rect
         style="fill:#ffffff;fill-opacity:1;fill-rule:evenodd;stroke:#000000;stroke-width:0.93749998;stroke-linecap:round;stroke-miterlimit:4;stroke-dasharray:none;stroke-dashoffset:0;stroke-opacity:1"
         id="rect4575-4-8-0-7-3"
         width="6.5"
         height="24"
         x="45.52076"
         y="965.36224" />
      <path
         style="fill:none;fill-rule:evenodd;stroke:#000000;stroke-width:0.46874999;stroke-linecap:butt;stroke-linejoin:miter;stroke-miterlimit:4;stroke-dasharray:none;stroke-opacity:1"
         d="m 48.951629,1002.1039 14.136127,14.1308 0,21.8445"
         id="path4324-5-9-1-6"
         inkscape:connector-curvature="0"
         sodipodi:nodetypes="ccc" />
      <g
         id="g4340-0"
         transform="matrix(0.58223339,0,0,0.60845487,90.684958,367.92691)"
         style="stroke-width:1.68010819;stroke-miterlimit:4;stroke-dasharray:none">
        <g
           id="g4596-6"
           transform="translate(-7.3868053,0)"
           style="stroke-width:1.68010819;stroke-miterlimit:4;stroke-dasharray:none">
          <path
             style="fill:none;fill-rule:evenodd;stroke:#000000;stroke-width:1.57510144;stroke-linecap:butt;stroke-linejoin:miter;stroke-miterlimit:4;stroke-dasharray:none;stroke-opacity:1"
             d="m -50,1101.8622 20,0"
             id="path4299-2"
             inkscape:connector-curvature="0" />
          <path
             style="fill:none;fill-rule:evenodd;stroke:#000000;stroke-width:1.57510144;stroke-linecap:butt;stroke-linejoin:miter;stroke-miterlimit:4;stroke-dasharray:none;stroke-opacity:1"
             d="m -47.5,1104.3622 15,0"
             id="path4299-9-61"
             inkscape:connector-curvature="0" />
          <path
             style="fill:none;fill-rule:evenodd;stroke:#000000;stroke-width:1.57510144;stroke-linecap:butt;stroke-linejoin:miter;stroke-miterlimit:4;stroke-dasharray:none;stroke-opacity:1"
             d="m -45,1106.8622 10,0"
             id="path4299-9-6-8"
             inkscape:connector-curvature="0" />
        </g>
      </g>
      <path
         style="opacity:0.98999999;fill:none;fill-opacity:1;fill-rule:evenodd;stroke:#000000;stroke-width:0.46874999;stroke-linecap:round;stroke-miterlimit:4;stroke-dasharray:none;stroke-dashoffset:0;stroke-opacity:1"
         d="m 63.087343,1016.3301 15.194619,0 0.0119,15.532 -15.194618,0 z"
         id="rect4771-7"
         inkscape:connector-curvature="0"
         sodipodi:nodetypes="ccccc" />
      <g
         id="g4507-8-9"
         transform="matrix(-0.92894957,0,0,-0.9707859,15.977356,2021.992)"
         style="stroke-width:0.98721892;stroke-miterlimit:4;stroke-dasharray:none">
        <g
           transform="translate(193.27094,3.557337)"
           id="g4683-28-9-8-2-2"
           style="stroke-width:0.98721892;stroke-miterlimit:4;stroke-dasharray:none">
          <g
             id="g4342-0"
             style="stroke-width:0.98721892;stroke-miterlimit:4;stroke-dasharray:none">
            <rect
               style="fill:#ffffff;fill-opacity:1;fill-rule:evenodd;stroke:none;stroke-width:0.98721892;stroke-linecap:round;stroke-miterlimit:4;stroke-dasharray:none;stroke-dashoffset:0;stroke-opacity:1"
               id="rect4208-4-5-5-2"
               width="12"
               height="3.1352911"
               x="-56.703041"
               y="1027.6021"
               transform="translate(-193.27094,-3.557337)" />
            <path
               inkscape:connector-curvature="0"
               id="path4666-9-1-7-2-3"
               d="m -250,1024.3622 12,0"
               style="fill:none;fill-rule:evenodd;stroke:#000000;stroke-width:0.98721892;stroke-linecap:butt;stroke-linejoin:miter;stroke-miterlimit:4;stroke-dasharray:none;stroke-opacity:1" />
            <path
               inkscape:connector-curvature="0"
               id="path4666-5-60-0-0-2-7"
               d="m -250,1026.8622 12,0"
               style="fill:none;fill-rule:evenodd;stroke:#000000;stroke-width:0.98721892;stroke-linecap:butt;stroke-linejoin:miter;stroke-miterlimit:4;stroke-dasharray:none;stroke-opacity:1" />
          </g>
        </g>
      </g>
      <g
         id="g4731-0-5"
         transform="matrix(0.34648986,0,0,0.34648986,83.001588,711.53093)"
         style="stroke-width:2.88608742;stroke-miterlimit:4;stroke-dasharray:none">
        <circle
           cx="-13.573376"
           cy="898.4585"
           r="11.5"
           id="path4687-7-9"
           style="opacity:0.98999999;fill:#ffffff;fill-opacity:1;fill-rule:evenodd;stroke:#000000;stroke-width:2.70570683;stroke-linecap:round;stroke-miterlimit:4;stroke-dasharray:none;stroke-dashoffset:0;stroke-opacity:1" />
        <path
           inkscape:connector-curvature="0"
           id="path4689-8-2"
           d="m -24.674521,898.39798 22.0318724,0"
           style="fill:none;fill-rule:evenodd;stroke:#000000;stroke-width:2.70570683;stroke-linecap:butt;stroke-linejoin:miter;stroke-miterlimit:4;stroke-dasharray:none;stroke-opacity:1" />
      </g>
      <circle
         style="opacity:0.98999999;fill:#000000;fill-opacity:1;fill-rule:evenodd;stroke:none;stroke-width:1;stroke-linecap:round;stroke-miterlimit:4;stroke-dasharray:none;stroke-dashoffset:0;stroke-opacity:1"
         id="path4286-5-9-2-2"
         cx="48.770832"
         cy="1002.3622"
         r="2.3825717" />
      <rect
         style="opacity:0.98999999;fill:none;fill-opacity:1;fill-rule:evenodd;stroke:#000000;stroke-width:0.93749998;stroke-linecap:butt;stroke-linejoin:miter;stroke-miterlimit:4;stroke-dasharray:1.87499996,0.93749998;stroke-dashoffset:0;stroke-opacity:1"
         id="rect4192-8"
         width="100"
         height="100"
         x="-1.2292402"
         y="952.36224" />
      <path
         style="fill:none;fill-rule:evenodd;stroke:#000000;stroke-width:0.93749998;stroke-linecap:butt;stroke-linejoin:miter;stroke-miterlimit:4;stroke-dasharray:1.87499996,0.93749998;stroke-dashoffset:0;stroke-opacity:1"
         d="m -1.2282291,952.36215 0,-25"
         id="path4287-97"
         inkscape:connector-curvature="0" />
      <path
         style="fill:none;fill-rule:evenodd;stroke:#000000;stroke-width:0.93749998;stroke-linecap:butt;stroke-linejoin:miter;stroke-miterlimit:4;stroke-dasharray:1.87499996,0.93749998;stroke-dashoffset:0;stroke-opacity:1"
         d="m 98.77177,952.36215 0,-25"
         id="path4287-1-3"
         inkscape:connector-curvature="0" />
      <path
         style="fill:none;fill-rule:evenodd;stroke:#000000;stroke-width:0.93749998;stroke-linecap:butt;stroke-linejoin:miter;stroke-miterlimit:4;stroke-dasharray:1.87499996,0.93749998;stroke-dashoffset:0;stroke-opacity:1"
         d="m 123.77076,952.2272 -25,0"
         id="path4287-2-6"
         inkscape:connector-curvature="0" />
      <path
         style="fill:none;fill-rule:evenodd;stroke:#000000;stroke-width:0.93749998;stroke-linecap:butt;stroke-linejoin:miter;stroke-miterlimit:4;stroke-dasharray:1.87499996,0.93749998;stroke-dashoffset:0;stroke-opacity:1"
         d="m 123.77076,1052.2272 -25,0"
         id="path4287-7-1"
         inkscape:connector-curvature="0" />
      <path
         style="fill:none;fill-rule:evenodd;stroke:#000000;stroke-width:0.93749998;stroke-linecap:butt;stroke-linejoin:miter;stroke-miterlimit:4;stroke-dasharray:1.87499996,0.93749998;stroke-dashoffset:0;stroke-opacity:1"
         d="m 98.77076,1077.1767 0,-24.9495"
         id="path4287-0-2"
         inkscape:connector-curvature="0" />
      <path
         style="fill:none;fill-rule:evenodd;stroke:#000000;stroke-width:0.93749998;stroke-linecap:butt;stroke-linejoin:miter;stroke-miterlimit:4;stroke-dasharray:1.87499996,0.93749998;stroke-dashoffset:0;stroke-opacity:1"
         d="m -1.2292401,1077.3622 0,-25"
         id="path4287-9-9"
         inkscape:connector-curvature="0" />
      <g
         transform="matrix(1,0,0,-1,-1.2292401,2004.7244)"
         id="g4607-2-7"
         style="stroke-width:0.46874999;stroke-miterlimit:4;stroke-dasharray:none">
        <path
           inkscape:connector-curvature="0"
           id="path4832-5-9-7-8"
           d="m 50.25,1077.3622 0,-25"
           style="fill:none;fill-rule:evenodd;stroke:#000000;stroke-width:0.46874999;stroke-linecap:butt;stroke-linejoin:miter;stroke-miterlimit:4;stroke-dasharray:none;stroke-opacity:1" />
        <path
           style="fill:#ffffff;fill-opacity:1;fill-rule:evenodd;stroke:#000000;stroke-width:0.93749998;stroke-linecap:butt;stroke-miterlimit:4;stroke-dasharray:none;stroke-dashoffset:0;stroke-opacity:1"
           d="m 46.975001,1077.3622 0,-12 6.5,0 0,12"
           id="rect4575-4-8-0-7-5-2-4"
           inkscape:connector-curvature="0"
           sodipodi:nodetypes="cccc" />
      </g>
      <g
         transform="matrix(0,1,1,0,-953.59144,951.93672)"
         id="g4607-2-7-6">
        <path
           inkscape:connector-curvature="0"
           id="path4832-5-9-7-8-1"
           d="m 50.25,1077.3622 0,-25"
           style="fill:none;fill-rule:evenodd;stroke:#000000;stroke-width:0.46874999;stroke-linecap:butt;stroke-linejoin:miter;stroke-miterlimit:4;stroke-dasharray:none;stroke-opacity:1" />
        <path
           style="fill:#ffffff;fill-opacity:1;fill-rule:evenodd;stroke:#000000;stroke-width:0.93749998;stroke-linecap:butt;stroke-miterlimit:4;stroke-dasharray:none;stroke-dashoffset:0;stroke-opacity:1"
           d="m 46.975001,1077.3622 0,-12 6.5,0 0,12"
           id="rect4575-4-8-0-7-5-2-4-0"
           inkscape:connector-curvature="0"
           sodipodi:nodetypes="cccc" />
      </g>
      <g
         transform="matrix(-1,0,0,1,99.27076,1.861e-5)"
         id="g4607-2-7-63"
         style="stroke-width:0.93749998;stroke-miterlimit:4;stroke-dasharray:none">
        <path
           inkscape:connector-curvature="0"
           id="path4832-5-9-7-8-2"
           d="m 50.25,1077.3622 0,-25"
           style="fill:none;fill-rule:evenodd;stroke:#000000;stroke-width:0.46874999;stroke-linecap:butt;stroke-linejoin:miter;stroke-miterlimit:4;stroke-dasharray:none;stroke-opacity:1" />
        <path
           style="fill:#ffffff;fill-opacity:1;fill-rule:evenodd;stroke:#000000;stroke-width:0.93749998;stroke-linecap:butt;stroke-miterlimit:4;stroke-dasharray:none;stroke-dashoffset:0;stroke-opacity:1"
           d="m 46.975001,1077.3622 0,-12 6.5,0 0,12"
           id="rect4575-4-8-0-7-5-2-4-06"
           inkscape:connector-curvature="0"
           sodipodi:nodetypes="cccc" />
      </g>
    </g>
  </g>
</svg>
