timestamp, processor_dynamic_dissipation
1.000000e-03, 29.4129
2.000000e-03, 29.4257
3.000000e-03, 29.4175
4.000000e-03, 29.4167
5.000000e-03, 29.4274
6.000000e-03, 29.4232
7.000000e-03, 29.4766
8.000000e-03, 30.6024
9.000000e-03, 31.0299
1.000000e-02, 31.0306
1.100000e-02, 31.0412
1.200000e-02, 31.0306
1.300000e-02, 31.0323
1.400000e-02, 31.0399
1.500000e-02, 31.0305
1.600000e-02, 31.0289
1.700000e-02, 31.0388
1.800000e-02, 31.0338
1.900000e-02, 31.0313
2.000000e-02, 31.0383
2.100000e-02, 31.0343
2.200000e-02, 31.0342
2.300000e-02, 31.0358
2.400000e-02, 31.0309
2.500000e-02, 31.0327
2.600000e-02, 31.036
2.700000e-02, 31.0383
2.800000e-02, 31.0329
2.900000e-02, 31.0344
3.000000e-02, 31.0386
3.100000e-02, 31.0348
3.200000e-02, 31.0295
3.300000e-02, 31.0417
3.400000e-02, 31.0319
3.500000e-02, 31.0331
3.600000e-02, 31.0425
3.700000e-02, 31.0314
3.800000e-02, 31.0383
3.900000e-02, 31.0458
4.000000e-02, 31.0301
4.100000e-02, 31.0304
4.200000e-02, 31.039
4.300000e-02, 31.027
4.400000e-02, 31.0286
4.500000e-02, 31.0394
4.600000e-02, 3.50772
4.700000e-02, 3.50586
4.800000e-02, 3.51
4.900000e-02, 3.50985
5.000000e-02, 3.50994
5.100000e-02, 3.50977
5.200000e-02, 3.51004
5.300000e-02, 3.50932
5.400000e-02, 3.50654
5.500000e-02, 3.50985
5.600000e-02, 3.50992
5.700000e-02, 3.5098
5.800000e-02, 3.51004
5.900000e-02, 3.50976
6.000000e-02, 3.5059
6.100000e-02, 3.50998
6.200000e-02, 3.50975
6.300000e-02, 3.51003
6.400000e-02, 3.50985
6.500000e-02, 3.5099
6.600000e-02, 3.51003
6.700000e-02, 30.9686
6.800000e-02, 31.0231
6.900000e-02, 31.0399
7.000000e-02, 31.0284
7.100000e-02, 31.029
7.200000e-02, 31.0386
7.300000e-02, 31.0288
7.400000e-02, 31.0317
7.500000e-02, 31.0362
7.600000e-02, 31.0295
7.700000e-02, 3.50543
7.800000e-02, 3.50716
7.900000e-02, 3.50502
8.000000e-02, 3.50982
8.100000e-02, 3.50995
8.200000e-02, 3.50979
8.300000e-02, 3.51
8.400000e-02, 3.50985
8.500000e-02, 3.50992
8.600000e-02, 3.50595
8.700000e-02, 3.50995
8.800000e-02, 3.50979
8.900000e-02, 3.51
9.000000e-02, 3.50978
9.100000e-02, 3.50999
9.200000e-02, 3.50933
9.300000e-02, 3.50633
9.400000e-02, 3.51
9.500000e-02, 3.50978
9.600000e-02, 3.50998
9.700000e-02, 3.5098
9.800000e-02, 3.51004
9.900000e-02, 3.50586
1.000000e-01, 3.51003
1.010000e-01, 3.50976
1.020000e-01, 3.50998
1.030000e-01, 30.982
1.040000e-01, 31.0333
1.050000e-01, 31.0319
1.060000e-01, 31.0329
1.070000e-01, 31.0365
1.080000e-01, 31.0302
1.090000e-01, 30.6661
1.100000e-01, 15.3897
1.110000e-01, 15.8301
1.120000e-01, 15.8061
1.130000e-01, 15.7808
1.140000e-01, 15.833
1.150000e-01, 15.7691
1.160000e-01, 15.8404
1.170000e-01, 15.7243
1.180000e-01, 15.7358
1.190000e-01, 2.93514
1.200000e-01, 2.92707
1.210000e-01, 2.94514
1.220000e-01, 2.93926
1.230000e-01, 2.95275
1.240000e-01, 2.93158
1.250000e-01, 2.94279
1.260000e-01, 2.93145
1.270000e-01, 2.92198
1.280000e-01, 2.9349
1.290000e-01, 2.96142
1.300000e-01, 2.93684
1.310000e-01, 2.94521
1.320000e-01, 2.92871
1.330000e-01, 2.92618
1.340000e-01, 2.92368
1.350000e-01, 2.91229
1.360000e-01, 2.93198
1.370000e-01, 2.93494
1.380000e-01, 2.93864
1.390000e-01, 2.92455
1.400000e-01, 2.91747
1.410000e-01, 2.93883
1.420000e-01, 2.93332
1.430000e-01, 2.92057
1.440000e-01, 2.94829
1.450000e-01, 2.9411
1.460000e-01, 2.92604
1.470000e-01, 15.8076
1.480000e-01, 15.8201
1.490000e-01, 15.9054
1.500000e-01, 15.9256
1.510000e-01, 15.9183
1.520000e-01, 15.9554
1.530000e-01, 15.8971
1.540000e-01, 15.9294
1.550000e-01, 15.9787
1.560000e-01, 15.9898
1.570000e-01, 15.9923
1.580000e-01, 15.9835
1.590000e-01, 16.1007
1.600000e-01, 16.0123
1.610000e-01, 16.0787
1.620000e-01, 16.0914
1.630000e-01, 16.1125
1.640000e-01, 16.0428
1.650000e-01, 15.9906
1.660000e-01, 15.9266
1.670000e-01, 15.7029
1.680000e-01, 15.604
1.690000e-01, 15.5266
1.700000e-01, 15.2396
1.710000e-01, 15.2648
1.720000e-01, 15.2331
1.730000e-01, 2.93409
1.740000e-01, 2.84191
1.750000e-01, 2.92597
1.760000e-01, 2.94233
1.770000e-01, 2.8659
1.780000e-01, 2.9073
1.790000e-01, 2.94406
1.800000e-01, 2.87727
1.810000e-01, 2.90972
1.820000e-01, 2.95
1.830000e-01, 2.88823
1.840000e-01, 2.89859
1.850000e-01, 2.94204
1.860000e-01, 2.89386
1.870000e-01, 2.84965
1.880000e-01, 2.92974
1.890000e-01, 2.94337
1.900000e-01, 2.86236
1.910000e-01, 2.92554
1.920000e-01, 2.93103
1.930000e-01, 2.8359
1.940000e-01, 2.93987
1.950000e-01, 2.96183
1.960000e-01, 2.84632
1.970000e-01, 2.91859
1.980000e-01, 2.94117
1.990000e-01, 2.86868
2.000000e-01, 2.913
2.010000e-01, 2.96236
2.020000e-01, 2.87418
2.030000e-01, 14.9628
2.040000e-01, 15.1116
2.050000e-01, 14.837
2.060000e-01, 14.7229
2.070000e-01, 14.7628
2.080000e-01, 14.797
2.090000e-01, 14.6449
2.100000e-01, 14.6675
2.110000e-01, 14.5161
2.120000e-01, 14.5492
2.130000e-01, 14.4653
2.140000e-01, 14.5032
2.150000e-01, 14.4414
2.160000e-01, 14.4553
2.170000e-01, 14.2978
2.180000e-01, 14.2375
2.190000e-01, 14.2648
2.200000e-01, 14.1384
2.210000e-01, 14.1263
2.220000e-01, 14.1937
2.230000e-01, 13.9834
2.240000e-01, 14.1259
2.250000e-01, 13.9012
2.260000e-01, 13.9746
2.270000e-01, 13.8098
2.280000e-01, 13.9797
2.290000e-01, 13.811
2.300000e-01, 13.959
2.310000e-01, 13.7064
2.320000e-01, 13.9714
2.330000e-01, 13.8918
2.340000e-01, 13.793
2.350000e-01, 2.9216
2.360000e-01, 2.81947
2.370000e-01, 2.79425
2.380000e-01, 2.93106
2.390000e-01, 2.86615
2.400000e-01, 2.82506
2.410000e-01, 2.8655
2.420000e-01, 2.94139
2.430000e-01, 2.82078
2.440000e-01, 2.81736
2.450000e-01, 2.91043
2.460000e-01, 2.86157
2.470000e-01, 2.82106
2.480000e-01, 2.83234
2.490000e-01, 2.94711
2.500000e-01, 2.83731
2.510000e-01, 2.80844
2.520000e-01, 2.89948
2.530000e-01, 2.90313
2.540000e-01, 2.8169
2.550000e-01, 2.8062
2.560000e-01, 2.93089
2.570000e-01, 2.87654
2.580000e-01, 2.81761
2.590000e-01, 2.86789
2.600000e-01, 2.93199
2.610000e-01, 2.81843
2.620000e-01, 2.81863
2.630000e-01, 2.92371
2.640000e-01, 2.8748
2.650000e-01, 2.81109
2.660000e-01, 2.85108
2.670000e-01, 13.7733
2.680000e-01, 13.7456
2.690000e-01, 13.6491
2.700000e-01, 13.764
2.710000e-01, 13.8083
2.720000e-01, 13.7229
2.730000e-01, 13.6523
2.740000e-01, 13.6941
2.750000e-01, 13.8227
2.760000e-01, 13.6461
2.770000e-01, 13.6438
2.780000e-01, 13.5577
2.790000e-01, 13.7378
2.800000e-01, 13.7855
2.810000e-01, 13.6845
2.820000e-01, 13.6538
2.830000e-01, 13.7148
2.840000e-01, 13.6289
2.850000e-01, 13.6122
2.860000e-01, 13.6438
2.870000e-01, 13.626
2.880000e-01, 13.6236
2.890000e-01, 13.6551
2.900000e-01, 13.6205
2.910000e-01, 13.6241
2.920000e-01, 13.6069
2.930000e-01, 13.6101
2.940000e-01, 13.5335
2.950000e-01, 13.4826
2.960000e-01, 13.31
2.970000e-01, 13.5389
2.980000e-01, 13.447
2.990000e-01, 13.3756
3.000000e-01, 13.3607
3.010000e-01, 13.2962
3.020000e-01, 2.9341
3.030000e-01, 2.81602
3.040000e-01, 2.81279
3.050000e-01, 2.79499
3.060000e-01, 2.93629
3.070000e-01, 2.80529
3.080000e-01, 2.8133
3.090000e-01, 2.79953
3.100000e-01, 2.92246
3.110000e-01, 2.81765
3.120000e-01, 2.81266
3.130000e-01, 2.8023
3.140000e-01, 2.91854
3.150000e-01, 2.81583
3.160000e-01, 2.81107
3.170000e-01, 2.80613
3.180000e-01, 2.92989
3.190000e-01, 2.81811
3.200000e-01, 2.82033
3.210000e-01, 2.80181
3.220000e-01, 2.93558
3.230000e-01, 2.82312
3.240000e-01, 2.81512
3.250000e-01, 2.80282
3.260000e-01, 2.94222
3.270000e-01, 2.82063
3.280000e-01, 2.83925
3.290000e-01, 2.81739
3.300000e-01, 2.91178
3.310000e-01, 2.80578
3.320000e-01, 2.82764
3.330000e-01, 2.8079
3.340000e-01, 2.9113
3.350000e-01, 2.81382
3.360000e-01, 13.2963
3.370000e-01, 13.1084
3.380000e-01, 13.2331
3.390000e-01, 13.156
3.400000e-01, 13.1957
3.410000e-01, 13.0608
3.420000e-01, 13.1343
3.430000e-01, 13.0188
3.440000e-01, 13.1026
3.450000e-01, 13.0933
3.460000e-01, 12.9746
3.470000e-01, 13.0778
3.480000e-01, 13.0016
3.490000e-01, 12.9981
3.500000e-01, 12.9889
3.510000e-01, 12.8896
3.520000e-01, 12.9577
3.530000e-01, 12.9839
3.540000e-01, 12.8168
3.550000e-01, 12.7856
3.560000e-01, 12.7058
3.570000e-01, 12.8253
3.580000e-01, 12.7881
3.590000e-01, 12.6851
3.600000e-01, 12.6924
3.610000e-01, 12.6209
3.620000e-01, 12.6778
3.630000e-01, 12.6403
3.640000e-01, 12.6281
3.650000e-01, 12.5841
3.660000e-01, 12.6712
3.670000e-01, 12.5828
3.680000e-01, 12.6023
3.690000e-01, 12.5232
3.700000e-01, 12.5115
3.710000e-01, 12.4977
3.720000e-01, 12.5359
3.730000e-01, 12.5212
3.740000e-01, 12.5306
3.750000e-01, 12.549
3.760000e-01, 2.8115
3.770000e-01, 2.80605
3.780000e-01, 2.75857
3.790000e-01, 2.80997
3.800000e-01, 2.85222
3.810000e-01, 2.81333
3.820000e-01, 2.7805
3.830000e-01, 2.73874
3.840000e-01, 2.89874
3.850000e-01, 2.8037
3.860000e-01, 2.82371
3.870000e-01, 2.75673
3.880000e-01, 2.79892
3.890000e-01, 2.88034
3.900000e-01, 2.81531
3.910000e-01, 2.78988
3.920000e-01, 2.73093
3.930000e-01, 2.90034
3.940000e-01, 2.80639
3.950000e-01, 2.82683
3.960000e-01, 2.76087
3.970000e-01, 2.81273
3.980000e-01, 2.84733
3.990000e-01, 2.80615
4.000000e-01, 2.78829
4.010000e-01, 2.74181
4.020000e-01, 2.88376
4.030000e-01, 2.79644
4.040000e-01, 2.8221
4.050000e-01, 2.76098
4.060000e-01, 2.77283
4.070000e-01, 2.88335
4.080000e-01, 2.81165
4.090000e-01, 2.79629
4.100000e-01, 12.472
4.110000e-01, 12.44
4.120000e-01, 12.4259
4.130000e-01, 12.4782
4.140000e-01, 12.381
4.150000e-01, 12.3699
4.160000e-01, 12.4195
4.170000e-01, 12.3381
4.180000e-01, 12.3144
4.190000e-01, 12.4366
4.200000e-01, 12.3245
4.210000e-01, 12.3513
4.220000e-01, 12.28
4.230000e-01, 12.3995
4.240000e-01, 12.3364
4.250000e-01, 12.2036
4.260000e-01, 12.4448
4.270000e-01, 12.3577
4.280000e-01, 12.1319
4.290000e-01, 12.4013
4.300000e-01, 12.322
4.310000e-01, 12.2346
4.320000e-01, 12.354
4.330000e-01, 12.3166
4.340000e-01, 12.188
4.350000e-01, 12.3751
4.360000e-01, 12.24
4.370000e-01, 12.1872
4.380000e-01, 12.2371
4.390000e-01, 12.1764
4.400000e-01, 12.2175
4.410000e-01, 12.1413
4.420000e-01, 12.2461
4.430000e-01, 12.0834
4.440000e-01, 12.3211
4.450000e-01, 12.051
4.460000e-01, 12.3387
4.470000e-01, 12.1072
4.480000e-01, 12.2326
4.490000e-01, 12.2039
4.500000e-01, 12.1662
4.510000e-01, 12.1282
4.520000e-01, 12.2839
4.530000e-01, 12.193
4.540000e-01, 2.80716
4.550000e-01, 2.81187
4.560000e-01, 2.75672
4.570000e-01, 2.76178
4.580000e-01, 2.8835
4.590000e-01, 2.82818
4.600000e-01, 2.78552
4.610000e-01, 2.74465
4.620000e-01, 2.75245
4.630000e-01, 2.88174
4.640000e-01, 2.82434
4.650000e-01, 2.78102
4.660000e-01, 2.74653
4.670000e-01, 2.78823
4.680000e-01, 2.8702
4.690000e-01, 2.80645
4.700000e-01, 2.75473
4.710000e-01, 2.73838
4.720000e-01, 2.78144
4.730000e-01, 2.86274
4.740000e-01, 2.82203
4.750000e-01, 2.75438
4.760000e-01, 2.74856
4.770000e-01, 2.80916
4.780000e-01, 2.85031
4.790000e-01, 2.80736
4.800000e-01, 2.75138
4.810000e-01, 2.75459
4.820000e-01, 2.85189
4.830000e-01, 2.83053
4.840000e-01, 2.80699
4.850000e-01, 2.75042
4.860000e-01, 2.7604
4.870000e-01, 2.86137
4.880000e-01, 2.81328
4.890000e-01, 12.0272
4.900000e-01, 12.1334
4.910000e-01, 12.1487
4.920000e-01, 12.1131
4.930000e-01, 12.1622
4.940000e-01, 12.0426
4.950000e-01, 12.2204
4.960000e-01, 12.0707
4.970000e-01, 12.2307
4.980000e-01, 12.0547
4.990000e-01, 12.0542
5.000000e-01, 12.1392
5.010000e-01, 12.0062
5.020000e-01, 12.1698
5.030000e-01, 12.0816
5.040000e-01, 12.0391
5.050000e-01, 12.1892
5.060000e-01, 11.9877
5.070000e-01, 12.1244
5.080000e-01, 12.0667
5.090000e-01, 11.9996
5.100000e-01, 12.0882
5.110000e-01, 12.0554
5.120000e-01, 12.0159
5.130000e-01, 12.0861
5.140000e-01, 11.9939
5.150000e-01, 11.9704
5.160000e-01, 11.9701
5.170000e-01, 12.1333
5.180000e-01, 11.9626
5.190000e-01, 11.8745
5.200000e-01, 12.0158
5.210000e-01, 11.9789
5.220000e-01, 11.9298
5.230000e-01, 12.0078
5.240000e-01, 11.9641
5.250000e-01, 11.8265
5.260000e-01, 11.8992
5.270000e-01, 12.0013
5.280000e-01, 11.9187
5.290000e-01, 11.8706
5.300000e-01, 11.9044
5.310000e-01, 11.9441
5.320000e-01, 11.9322
5.330000e-01, 11.8502
5.340000e-01, 11.83
5.350000e-01, 11.936
5.360000e-01, 2.82291
5.370000e-01, 2.78031
5.380000e-01, 2.74761
5.390000e-01, 2.7675
5.400000e-01, 2.83012
5.410000e-01, 2.82295
5.420000e-01, 2.78641
5.430000e-01, 2.74309
5.440000e-01, 2.75963
5.450000e-01, 2.80797
5.460000e-01, 2.82595
5.470000e-01, 2.79804
5.480000e-01, 2.74787
5.490000e-01, 2.75845
5.500000e-01, 2.78903
5.510000e-01, 2.84645
5.520000e-01, 2.79835
5.530000e-01, 2.74729
5.540000e-01, 2.76224
5.550000e-01, 2.78088
5.560000e-01, 2.84297
5.570000e-01, 2.8113
5.580000e-01, 2.75353
5.590000e-01, 2.75779
5.600000e-01, 2.76522
5.610000e-01, 2.85465
5.620000e-01, 2.81099
5.630000e-01, 2.75803
5.640000e-01, 2.77599
5.650000e-01, 2.76618
5.660000e-01, 2.86501
5.670000e-01, 2.81295
5.680000e-01, 2.74341
5.690000e-01, 2.76233
5.700000e-01, 2.76806
5.710000e-01, 11.9226
5.720000e-01, 11.8321
5.730000e-01, 11.8394
5.740000e-01, 11.8356
5.750000e-01, 11.8102
5.760000e-01, 11.8878
5.770000e-01, 11.8408
5.780000e-01, 11.8357
5.790000e-01, 11.8073
5.800000e-01, 11.8574
5.810000e-01, 11.8787
5.820000e-01, 11.9494
5.830000e-01, 11.8368
5.840000e-01, 11.8346
5.850000e-01, 11.7964
5.860000e-01, 11.7476
5.870000e-01, 11.9
5.880000e-01, 11.913
5.890000e-01, 11.8366
5.900000e-01, 11.7797
5.910000e-01, 11.7917
5.920000e-01, 11.7941
5.930000e-01, 11.8442
5.940000e-01, 11.8136
5.950000e-01, 11.7753
5.960000e-01, 11.8372
5.970000e-01, 11.7967
5.980000e-01, 11.7892
5.990000e-01, 11.8231
6.000000e-01, 11.8289
6.010000e-01, 11.7923
6.020000e-01, 11.7407
6.030000e-01, 11.7662
6.040000e-01, 11.7825
6.050000e-01, 11.7192
6.060000e-01, 11.7484
6.070000e-01, 11.7342
6.080000e-01, 11.79
6.090000e-01, 11.7805
6.100000e-01, 11.915
6.110000e-01, 11.7609
6.120000e-01, 11.7172
6.130000e-01, 11.7752
6.140000e-01, 11.7136
6.150000e-01, 11.7542
6.160000e-01, 11.6744
6.170000e-01, 11.7877
6.180000e-01, 11.7194
6.190000e-01, 11.7738
6.200000e-01, 2.74833
6.210000e-01, 2.82211
6.220000e-01, 2.82163
6.230000e-01, 2.77198
6.240000e-01, 2.74346
6.250000e-01, 2.74421
6.260000e-01, 2.77946
6.270000e-01, 2.85545
6.280000e-01, 2.80187
6.290000e-01, 2.75577
6.300000e-01, 2.75261
6.310000e-01, 2.75201
6.320000e-01, 2.85822
6.330000e-01, 2.79538
6.340000e-01, 2.74459
6.350000e-01, 2.76808
6.360000e-01, 2.76216
6.370000e-01, 2.83496
6.380000e-01, 2.80639
6.390000e-01, 2.74664
6.400000e-01, 2.76221
6.410000e-01, 2.74617
6.420000e-01, 2.81373
6.430000e-01, 2.83793
6.440000e-01, 2.77451
6.450000e-01, 2.75253
6.460000e-01, 2.75466
6.470000e-01, 2.78607
6.480000e-01, 2.84738
6.490000e-01, 2.78872
6.500000e-01, 2.74274
6.510000e-01, 2.74804
6.520000e-01, 2.75531
6.530000e-01, 2.87203
6.540000e-01, 2.80914
6.550000e-01, 11.7355
6.560000e-01, 11.7
6.570000e-01, 11.7112
6.580000e-01, 11.7209
6.590000e-01, 11.7624
6.600000e-01, 11.6995
6.610000e-01, 11.7454
6.620000e-01, 11.7186
6.630000e-01, 11.7165
6.640000e-01, 11.7469
6.650000e-01, 11.7259
6.660000e-01, 11.7071
6.670000e-01, 11.6917
6.680000e-01, 11.6662
6.690000e-01, 11.7061
6.700000e-01, 11.695
6.710000e-01, 11.6869
6.720000e-01, 11.6762
6.730000e-01, 11.7364
6.740000e-01, 11.7128
6.750000e-01, 11.7158
6.760000e-01, 11.6802
6.770000e-01, 11.642
6.780000e-01, 11.7102
6.790000e-01, 11.696
6.800000e-01, 11.6383
6.810000e-01, 11.7064
6.820000e-01, 11.6376
6.830000e-01, 11.6527
6.840000e-01, 11.707
6.850000e-01, 12.6872
6.860000e-01, 14.8781
6.870000e-01, 15.7543
6.880000e-01, 15.7647
6.890000e-01, 15.7849
6.900000e-01, 15.7793
6.910000e-01, 15.7705
6.920000e-01, 15.7608
6.930000e-01, 15.7826
6.940000e-01, 15.8956
6.950000e-01, 15.9146
6.960000e-01, 15.9138
6.970000e-01, 15.9208
6.980000e-01, 15.918
6.990000e-01, 15.9094
7.000000e-01, 15.9165
7.010000e-01, 15.9489
7.020000e-01, 15.9175
7.030000e-01, 15.9306
7.040000e-01, 15.9096
7.050000e-01, 15.9072
7.060000e-01, 15.9056
7.070000e-01, 15.8972
7.080000e-01, 15.9313
7.090000e-01, 15.9171
7.100000e-01, 15.9129
7.110000e-01, 15.9143
7.120000e-01, 15.9116
7.130000e-01, 15.9096
7.140000e-01, 15.9181
7.150000e-01, 53.2558
7.160000e-01, 67.2541
7.170000e-01, 66.9187
7.180000e-01, 64.9692
7.190000e-01, 65.6099
7.200000e-01, 65.3998
7.210000e-01, 63.9933
7.220000e-01, 64.1658
7.230000e-01, 64.8012
7.240000e-01, 60.8103
7.250000e-01, 64.6345
7.260000e-01, 63.142
7.270000e-01, 60.546
7.280000e-01, 62.0679
7.290000e-01, 64.5609
7.300000e-01, 36.5257
7.310000e-01, 37.0248
7.320000e-01, 35.7667
7.330000e-01, 35.8817
7.340000e-01, 36.043
7.350000e-01, 31.8951
7.360000e-01, 19.594
7.370000e-01, 20.9492
7.380000e-01, 21.5714
7.390000e-01, 20.7437
7.400000e-01, 21.3474
7.410000e-01, 21.5396
7.420000e-01, 21.185
7.430000e-01, 21.5116
7.440000e-01, 21.1109
7.450000e-01, 21.5736
7.460000e-01, 21.0089
7.470000e-01, 21.2537
7.480000e-01, 21.7692
7.490000e-01, 20.7962
7.500000e-01, 21.6647
7.510000e-01, 21.1757
7.520000e-01, 21.2862
7.530000e-01, 21.665
7.540000e-01, 20.7832
7.550000e-01, 21.4146
7.560000e-01, 21.0979
7.570000e-01, 21.3883
7.580000e-01, 21.7287
7.590000e-01, 21.0189
7.600000e-01, 21.5939
7.610000e-01, 21.1648
7.620000e-01, 21.3897
7.630000e-01, 21.5117
7.640000e-01, 20.7384
7.650000e-01, 21.6061
7.660000e-01, 20.9952
7.670000e-01, 10.7852
7.680000e-01, 5.62944
7.690000e-01, 4.92497
7.700000e-01, 5.611
7.710000e-01, 5.02018
7.720000e-01, 5.36075
7.730000e-01, 5.54215
7.740000e-01, 4.94759
7.750000e-01, 5.68247
7.760000e-01, 4.99675
7.770000e-01, 5.4368
7.780000e-01, 5.49802
7.790000e-01, 4.88823
7.800000e-01, 5.67165
7.810000e-01, 4.87223
7.820000e-01, 5.46631
7.830000e-01, 5.39162
7.840000e-01, 4.98725
7.850000e-01, 5.72157
7.860000e-01, 4.90081
7.870000e-01, 5.51948
7.880000e-01, 5.33972
7.890000e-01, 5.07789
7.900000e-01, 34.9833
7.910000e-01, 35.0641
7.920000e-01, 35.406
7.930000e-01, 35.0914
7.940000e-01, 35.1042
7.950000e-01, 34.9795
7.960000e-01, 33.1414
7.970000e-01, 33.7309
7.980000e-01, 35.1266
7.990000e-01, 33.3108
8.000000e-01, 35.0248
8.010000e-01, 34.0925
8.020000e-01, 33.6584
8.030000e-01, 35.3962
8.040000e-01, 33.8334
8.050000e-01, 20.2134
8.060000e-01, 19.5112
8.070000e-01, 19.8546
8.080000e-01, 19.9378
8.090000e-01, 20.964
8.100000e-01, 19.8232
8.110000e-01, 20.6196
8.120000e-01, 20.655
8.130000e-01, 19.9363
8.140000e-01, 20.7142
8.150000e-01, 20.2216
8.160000e-01, 20.4254
8.170000e-01, 20.1715
8.180000e-01, 20.3278
8.190000e-01, 20.7129
8.200000e-01, 20.0395
8.210000e-01, 20.6103
8.220000e-01, 20.2474
8.230000e-01, 19.9773
8.240000e-01, 4.6765
8.250000e-01, 3.96226
8.260000e-01, 4.66186
8.270000e-01, 4.19124
8.280000e-01, 4.20371
8.290000e-01, 4.64013
8.300000e-01, 3.96459
8.310000e-01, 4.64567
8.320000e-01, 4.15227
8.330000e-01, 4.26505
8.340000e-01, 4.65688
8.350000e-01, 3.97884
8.360000e-01, 4.69925
8.370000e-01, 4.12968
8.380000e-01, 4.24906
8.390000e-01, 4.56197
8.400000e-01, 3.93139
8.410000e-01, 4.73112
8.420000e-01, 4.11942
8.430000e-01, 4.40504
8.440000e-01, 4.59451
8.450000e-01, 4.03169
8.460000e-01, 4.67615
8.470000e-01, 4.07866
8.480000e-01, 4.32834
8.490000e-01, 4.5498
8.500000e-01, 4.0703
8.510000e-01, 4.74993
8.520000e-01, 4.06148
8.530000e-01, 4.43751
8.540000e-01, 19.2871
8.550000e-01, 19.345
8.560000e-01, 19.5645
8.570000e-01, 19.2262
8.580000e-01, 19.6017
8.590000e-01, 19.3709
8.600000e-01, 19.5381
8.610000e-01, 19.1797
8.620000e-01, 19.3605
8.630000e-01, 19.3865
8.640000e-01, 19.6243
8.650000e-01, 19.36
8.660000e-01, 19.504
8.670000e-01, 19.3409
8.680000e-01, 4.81728
8.690000e-01, 4.0206
8.700000e-01, 4.32101
8.710000e-01, 4.51456
8.720000e-01, 3.98524
8.730000e-01, 4.88318
8.740000e-01, 3.97519
8.750000e-01, 4.41188
8.760000e-01, 4.46481
8.770000e-01, 4.01936
8.780000e-01, 4.87445
8.790000e-01, 3.94895
8.800000e-01, 4.39094
8.810000e-01, 4.41456
8.820000e-01, 4.00995
8.830000e-01, 4.86032
8.840000e-01, 3.93062
8.850000e-01, 4.54416
8.860000e-01, 4.36546
8.870000e-01, 4.10914
8.880000e-01, 4.96008
8.890000e-01, 3.92496
8.900000e-01, 4.54403
8.910000e-01, 4.31673
8.920000e-01, 4.07727
8.930000e-01, 4.85687
8.940000e-01, 3.91134
8.950000e-01, 4.55274
8.960000e-01, 4.27121
8.970000e-01, 3.68883
8.980000e-01, 3.63261
8.990000e-01, 3.1797
9.000000e-01, 3.52151
9.010000e-01, 3.3326
9.020000e-01, 3.24928
9.030000e-01, 3.60905
9.040000e-01, 3.15364
9.050000e-01, 3.49442
9.060000e-01, 3.31105
9.070000e-01, 3.26223
9.080000e-01, 3.60925
9.090000e-01, 3.14166
9.100000e-01, 3.54878
9.110000e-01, 3.28903
9.120000e-01, 3.31462
9.130000e-01, 18.6894
9.140000e-01, 18.4085
9.150000e-01, 18.5721
9.160000e-01, 18.644
9.170000e-01, 18.3826
9.180000e-01, 18.2635
9.190000e-01, 18.5724
9.200000e-01, 18.6755
9.210000e-01, 18.3007
9.220000e-01, 18.5826
9.230000e-01, 18.0083
9.240000e-01, 18.4152
9.250000e-01, 18.5563
9.260000e-01, 18.5682
9.270000e-01, 18.5491
9.280000e-01, 18.6069
9.290000e-01, 18.578
9.300000e-01, 18.1313
9.310000e-01, 18.6296
9.320000e-01, 18.5664
9.330000e-01, 16.7871
9.340000e-01, 15.5149
9.350000e-01, 15.4952
9.360000e-01, 15.4742
9.370000e-01, 15.5001
9.380000e-01, 15.6198
9.390000e-01, 15.4877
9.400000e-01, 15.4549
9.410000e-01, 15.4578
9.420000e-01, 15.3968
9.430000e-01, 15.3753
9.440000e-01, 15.3215
9.450000e-01, 15.3445
9.460000e-01, 15.3654
9.470000e-01, 15.4085
9.480000e-01, 15.3988
9.490000e-01, 15.4354
9.500000e-01, 15.4185
9.510000e-01, 15.4601
9.520000e-01, 15.4559
9.530000e-01, 15.4647
9.540000e-01, 23.5552
9.550000e-01, 45.6693
9.560000e-01, 44.7078
9.570000e-01, 42.1198
9.580000e-01, 43.0086
9.590000e-01, 41.4685
9.600000e-01, 40.5279
9.610000e-01, 41.22
9.620000e-01, 39.4161
9.630000e-01, 41.1687
9.640000e-01, 27.1139
9.650000e-01, 26.0151
9.660000e-01, 27.5995
9.670000e-01, 26.8126
9.680000e-01, 27.494
9.690000e-01, 12.2288
9.700000e-01, 6.11799
9.710000e-01, 6.58367
9.720000e-01, 5.97833
9.730000e-01, 5.65491
9.740000e-01, 6.51701
9.750000e-01, 5.74524
9.760000e-01, 5.94849
9.770000e-01, 6.36213
9.780000e-01, 5.56728
9.790000e-01, 6.28826
9.800000e-01, 6.11046
9.810000e-01, 5.56612
9.820000e-01, 6.50695
9.830000e-01, 5.90344
9.840000e-01, 5.73071
9.850000e-01, 6.48675
9.860000e-01, 5.6796
9.870000e-01, 6.03338
9.880000e-01, 6.29695
9.890000e-01, 5.53497
9.900000e-01, 6.38302
9.910000e-01, 6.0463
9.920000e-01, 5.59883
9.930000e-01, 6.54306
9.940000e-01, 5.83252
9.950000e-01, 5.82675
9.960000e-01, 6.43746
9.970000e-01, 5.61623
9.980000e-01, 6.14073
9.990000e-01, 6.20802
1.000000e+00, 5.56131
1.001000e+00, 6.42167
1.002000e+00, 5.99885
1.003000e+00, 5.62692
1.004000e+00, 6.53481
1.005000e+00, 5.7712
1.006000e+00, 5.91016
1.007000e+00, 6.3915
1.008000e+00, 5.58063
1.009000e+00, 6.25314
1.010000e+00, 6.12916
1.011000e+00, 5.56614
1.012000e+00, 6.46112
1.013000e+00, 5.9418
1.014000e+00, 5.69882
1.015000e+00, 6.50351
1.016000e+00, 5.70697
1.017000e+00, 6.00444
1.018000e+00, 6.32464
1.019000e+00, 5.56349
1.020000e+00, 6.32598
1.021000e+00, 6.06675
1.022000e+00, 23.7239
1.023000e+00, 24.6415
1.024000e+00, 23.7316
1.025000e+00, 41.2034
1.026000e+00, 41.5242
1.027000e+00, 41.2253
1.028000e+00, 42.4612
1.029000e+00, 42.5431
1.030000e+00, 41.9945
1.031000e+00, 42.3497
1.032000e+00, 38.1201
1.033000e+00, 37.7322
1.034000e+00, 38.8748
1.035000e+00, 38.277
1.036000e+00, 40.2458
1.037000e+00, 21.616
1.038000e+00, 22.1092
1.039000e+00, 23.4314
1.040000e+00, 24.1948
1.041000e+00, 24.099
1.042000e+00, 24.51
1.043000e+00, 23.7617
1.044000e+00, 24.4588
1.045000e+00, 24.662
1.046000e+00, 24.015
1.047000e+00, 24.4678
1.048000e+00, 24.0829
1.049000e+00, 23.7327
1.050000e+00, 24.6129
1.051000e+00, 24.0712
1.052000e+00, 24.4703
1.053000e+00, 24.647
1.054000e+00, 23.7121
1.055000e+00, 24.4294
1.056000e+00, 24.4387
1.057000e+00, 24.1694
1.058000e+00, 24.6744
1.059000e+00, 7.83297
1.060000e+00, 5.00995
1.061000e+00, 5.59625
1.062000e+00, 4.81878
1.063000e+00, 5.25558
1.064000e+00, 5.459
1.065000e+00, 4.77231
1.066000e+00, 5.48697
1.067000e+00, 5.17411
1.068000e+00, 4.88121
1.069000e+00, 5.59643
1.070000e+00, 4.93635
1.071000e+00, 5.07895
1.072000e+00, 5.57746
1.073000e+00, 4.77438
1.074000e+00, 5.35121
1.075000e+00, 5.37146
1.076000e+00, 4.78834
1.077000e+00, 5.52939
1.078000e+00, 5.10241
1.079000e+00, 4.92332
1.080000e+00, 5.62685
1.081000e+00, 4.87332
1.082000e+00, 5.14551
1.083000e+00, 5.54148
1.084000e+00, 4.7549
1.085000e+00, 23.161
1.086000e+00, 23.5011
1.087000e+00, 22.9385
1.088000e+00, 23.3686
1.089000e+00, 23.3382
1.090000e+00, 22.8789
1.091000e+00, 23.6278
1.092000e+00, 22.9473
1.093000e+00, 23.0149
1.094000e+00, 23.4854
1.095000e+00, 11.1239
1.096000e+00, 4.33813
1.097000e+00, 4.43998
1.098000e+00, 3.94121
1.099000e+00, 4.56308
1.100000e+00, 4.20554
1.101000e+00, 4.01206
1.102000e+00, 4.6769
1.103000e+00, 4.0209
1.104000e+00, 4.17267
1.105000e+00, 4.60222
1.106000e+00, 3.9356
1.107000e+00, 4.4027
1.108000e+00, 4.37464
1.109000e+00, 3.94623
1.110000e+00, 4.62875
1.111000e+00, 4.1323
1.112000e+00, 4.05295
1.113000e+00, 4.67689
1.114000e+00, 3.97613
1.115000e+00, 4.24939
1.116000e+00, 4.52903
1.117000e+00, 3.93449
1.118000e+00, 4.47379
1.119000e+00, 4.29605
1.120000e+00, 3.96978
1.121000e+00, 4.65894
1.122000e+00, 4.07887
1.123000e+00, 4.09352
1.124000e+00, 4.66661
1.125000e+00, 3.94556
1.126000e+00, 4.32959
1.127000e+00, 4.45193
1.128000e+00, 3.94026
1.129000e+00, 4.55258
1.130000e+00, 4.21544
1.131000e+00, 4.00886
1.132000e+00, 4.67154
1.133000e+00, 4.02717
1.134000e+00, 4.16449
1.135000e+00, 4.6072
1.136000e+00, 22.0983
1.137000e+00, 22.2154
1.138000e+00, 22.3373
1.139000e+00, 22.047
1.140000e+00, 22.3181
1.141000e+00, 22.2561
1.142000e+00, 22.1068
1.143000e+00, 22.4511
1.144000e+00, 22.156
1.145000e+00, 22.2505
1.146000e+00, 22.5699
1.147000e+00, 22.1777
1.148000e+00, 22.0318
1.149000e+00, 22.3219
1.150000e+00, 21.6512
1.151000e+00, 22.1625
1.152000e+00, 22.287
1.153000e+00, 22.2108
1.154000e+00, 22.6182
1.155000e+00, 22.1611
1.156000e+00, 22.3178
1.157000e+00, 22.5196
1.158000e+00, 3.92503
1.159000e+00, 4.42279
1.160000e+00, 4.35642
1.161000e+00, 3.94091
1.162000e+00, 4.63927
1.163000e+00, 4.12451
1.164000e+00, 4.02961
1.165000e+00, 4.73371
1.166000e+00, 3.94609
1.167000e+00, 4.25341
1.168000e+00, 4.52648
1.169000e+00, 3.9304
1.170000e+00, 4.49501
1.171000e+00, 4.2767
1.172000e+00, 3.95486
1.173000e+00, 4.70845
1.174000e+00, 4.04284
1.175000e+00, 3.69531
1.176000e+00, 3.55543
1.177000e+00, 3.17298
1.178000e+00, 3.40014
1.179000e+00, 3.44632
1.180000e+00, 3.18227
1.181000e+00, 3.49149
1.182000e+00, 3.32617
1.183000e+00, 3.1975
1.184000e+00, 3.59734
1.185000e+00, 3.2066
1.186000e+00, 3.29894
1.187000e+00, 3.52481
1.188000e+00, 3.18005
1.189000e+00, 3.41688
1.190000e+00, 3.40263
1.191000e+00, 3.187
1.192000e+00, 3.52671
1.193000e+00, 3.28906
1.194000e+00, 3.22209
1.195000e+00, 3.58801
1.196000e+00, 3.19384
1.197000e+00, 3.33257
1.198000e+00, 3.49069
1.199000e+00, 3.17942
1.200000e+00, 3.45206
1.201000e+00, 3.36737
1.202000e+00, 3.16585
1.203000e+00, 3.6023
1.204000e+00, 3.24937
1.205000e+00, 3.2573
1.206000e+00, 3.56588
1.207000e+00, 3.18086
1.208000e+00, 3.36935
1.209000e+00, 3.45171
1.210000e+00, 3.18252
1.211000e+00, 3.48739
1.212000e+00, 3.33328
1.213000e+00, 3.19652
1.214000e+00, 3.59158
1.215000e+00, 3.21455
1.216000e+00, 3.29053
1.217000e+00, 3.53386
1.218000e+00, 3.1779
1.219000e+00, 3.40902
1.220000e+00, 3.41314
1.221000e+00, 3.18654
1.222000e+00, 3.5179
1.223000e+00, 21.3288
1.224000e+00, 21.3605
1.225000e+00, 21.4814
1.226000e+00, 21.5122
1.227000e+00, 21.5341
1.228000e+00, 21.4734
1.229000e+00, 21.3031
1.230000e+00, 21.3242
1.231000e+00, 21.318
1.232000e+00, 21.3554
1.233000e+00, 21.3475
1.234000e+00, 21.4157
1.235000e+00, 21.4663
1.236000e+00, 21.492
1.237000e+00, 21.4876
1.238000e+00, 21.446
1.239000e+00, 20.6497
1.240000e+00, 21.1607
1.241000e+00, 21.1864
1.242000e+00, 21.4674
1.243000e+00, 21.4869
1.244000e+00, 21.4961
1.245000e+00, 21.3707
1.246000e+00, 21.3111
1.247000e+00, 21.3061
1.248000e+00, 21.2909
1.249000e+00, 20.7528
1.250000e+00, 15.1883
1.251000e+00, 15.6643
1.252000e+00, 15.7526
1.253000e+00, 15.7577
1.254000e+00, 15.7668
1.255000e+00, 15.8314
1.256000e+00, 15.8542
1.257000e+00, 15.8214
1.258000e+00, 15.8299
1.259000e+00, 15.903
1.260000e+00, 15.902
1.261000e+00, 15.9026
1.262000e+00, 15.895
1.263000e+00, 15.8892
1.264000e+00, 15.9058
1.265000e+00, 15.9384
1.266000e+00, 15.9242
1.267000e+00, 15.9189
1.268000e+00, 15.9057
1.269000e+00, 15.9128
1.270000e+00, 15.9146
1.271000e+00, 15.9063
1.272000e+00, 15.9223
1.273000e+00, 15.9249
1.274000e+00, 15.9223
1.275000e+00, 15.924
1.276000e+00, 15.9257
1.277000e+00, 15.9195
1.278000e+00, 15.9131
1.279000e+00, 15.3613
