timestamp, processor_static_dissipation
1.000000e-03, 29.4922
2.000000e-03, 29.4922
3.000000e-03, 29.4922
4.000000e-03, 29.4922
5.000000e-03, 29.4922
6.000000e-03, 29.4922
7.000000e-03, 29.4922
8.000000e-03, 29.4922
9.000000e-03, 29.4922
1.000000e-02, 29.4922
1.100000e-02, 29.4922
1.200000e-02, 29.4922
1.300000e-02, 29.4922
1.400000e-02, 29.4922
1.500000e-02, 29.4922
1.600000e-02, 29.4922
1.700000e-02, 29.4922
1.800000e-02, 29.4922
1.900000e-02, 29.4922
2.000000e-02, 29.4922
2.100000e-02, 29.4922
2.200000e-02, 29.4922
2.300000e-02, 29.4922
2.400000e-02, 29.4922
2.500000e-02, 29.4922
2.600000e-02, 29.4922
2.700000e-02, 29.4922
2.800000e-02, 29.4922
2.900000e-02, 29.4922
3.000000e-02, 29.4922
3.100000e-02, 29.4922
3.200000e-02, 29.4922
3.300000e-02, 29.4922
3.400000e-02, 29.4922
3.500000e-02, 29.4922
3.600000e-02, 29.4922
3.700000e-02, 29.4922
3.800000e-02, 29.4922
3.900000e-02, 29.4922
4.000000e-02, 29.4922
4.100000e-02, 29.4922
4.200000e-02, 29.4922
4.300000e-02, 29.4922
4.400000e-02, 29.4922
4.500000e-02, 29.4922
4.600000e-02, 29.4922
4.700000e-02, 29.4922
4.800000e-02, 29.4922
4.900000e-02, 29.4922
5.000000e-02, 29.4922
5.100000e-02, 29.4922
5.200000e-02, 29.4922
5.300000e-02, 29.4922
5.400000e-02, 29.4922
5.500000e-02, 29.4922
5.600000e-02, 29.4922
5.700000e-02, 29.4922
5.800000e-02, 29.4922
5.900000e-02, 29.4922
6.000000e-02, 29.4922
6.100000e-02, 29.4922
6.200000e-02, 29.4922
6.300000e-02, 29.4922
6.400000e-02, 29.4922
6.500000e-02, 29.4922
6.600000e-02, 29.4922
6.700000e-02, 29.4922
6.800000e-02, 29.4922
6.900000e-02, 29.4922
7.000000e-02, 29.4922
7.100000e-02, 29.4922
7.200000e-02, 29.4922
7.300000e-02, 29.4922
7.400000e-02, 29.4922
7.500000e-02, 29.4922
7.600000e-02, 29.4922
7.700000e-02, 29.4922
7.800000e-02, 29.4922
7.900000e-02, 29.4922
8.000000e-02, 29.4922
8.100000e-02, 29.4922
8.200000e-02, 29.4922
8.300000e-02, 29.4922
8.400000e-02, 29.4922
8.500000e-02, 29.4922
8.600000e-02, 29.4922
8.700000e-02, 29.4922
8.800000e-02, 29.4922
8.900000e-02, 29.4922
9.000000e-02, 29.4922
9.100000e-02, 29.4922
9.200000e-02, 29.4922
9.300000e-02, 29.4922
9.400000e-02, 29.4922
9.500000e-02, 29.4922
9.600000e-02, 29.4922
9.700000e-02, 29.4922
9.800000e-02, 29.4922
9.900000e-02, 29.4922
1.000000e-01, 29.4922
1.010000e-01, 29.4922
1.020000e-01, 29.4922
1.030000e-01, 29.4922
1.040000e-01, 29.4922
1.050000e-01, 29.4922
1.060000e-01, 29.4922
1.070000e-01, 29.4922
1.080000e-01, 29.4922
1.090000e-01, 29.4922
1.100000e-01, 29.4922
1.110000e-01, 29.4922
1.120000e-01, 29.4922
1.130000e-01, 29.4922
1.140000e-01, 29.4922
1.150000e-01, 29.4922
1.160000e-01, 29.4922
1.170000e-01, 29.4922
1.180000e-01, 29.4922
1.190000e-01, 29.4922
1.200000e-01, 29.4922
1.210000e-01, 29.4922
1.220000e-01, 29.4922
1.230000e-01, 29.4922
1.240000e-01, 29.4922
1.250000e-01, 29.4922
1.260000e-01, 29.4922
1.270000e-01, 29.4922
1.280000e-01, 29.4922
1.290000e-01, 29.4922
1.300000e-01, 29.4922
1.310000e-01, 29.4922
1.320000e-01, 29.4922
1.330000e-01, 29.4922
1.340000e-01, 29.4922
1.350000e-01, 29.4922
1.360000e-01, 29.4922
1.370000e-01, 29.4922
1.380000e-01, 29.4922
1.390000e-01, 29.4922
1.400000e-01, 29.4922
1.410000e-01, 29.4922
1.420000e-01, 29.4922
1.430000e-01, 29.4922
1.440000e-01, 29.4922
1.450000e-01, 29.4922
1.460000e-01, 29.4922
1.470000e-01, 29.4922
1.480000e-01, 29.4922
1.490000e-01, 29.4922
1.500000e-01, 29.4922
1.510000e-01, 29.4922
1.520000e-01, 29.4922
1.530000e-01, 29.4922
1.540000e-01, 29.4922
1.550000e-01, 29.4922
1.560000e-01, 29.4922
1.570000e-01, 29.4922
1.580000e-01, 29.4922
1.590000e-01, 29.4922
1.600000e-01, 29.4922
1.610000e-01, 29.4922
1.620000e-01, 29.4922
1.630000e-01, 29.4922
1.640000e-01, 29.4922
1.650000e-01, 29.4922
1.660000e-01, 29.4922
1.670000e-01, 29.4922
1.680000e-01, 29.4922
1.690000e-01, 29.4922
1.700000e-01, 29.4922
1.710000e-01, 29.4922
1.720000e-01, 29.4922
1.730000e-01, 29.4922
1.740000e-01, 29.4922
1.750000e-01, 29.4922
1.760000e-01, 29.4922
1.770000e-01, 29.4922
1.780000e-01, 29.4922
1.790000e-01, 29.4922
1.800000e-01, 29.4922
1.810000e-01, 29.4922
1.820000e-01, 29.4922
1.830000e-01, 29.4922
1.840000e-01, 29.4922
1.850000e-01, 29.4922
1.860000e-01, 29.4922
1.870000e-01, 29.4922
1.880000e-01, 29.4922
1.890000e-01, 29.4922
1.900000e-01, 29.4922
1.910000e-01, 29.4922
1.920000e-01, 29.4922
1.930000e-01, 29.4922
1.940000e-01, 29.4922
1.950000e-01, 29.4922
1.960000e-01, 29.4922
1.970000e-01, 29.4922
1.980000e-01, 29.4922
1.990000e-01, 29.4922
2.000000e-01, 29.4922
2.010000e-01, 29.4922
2.020000e-01, 29.4922
2.030000e-01, 29.4922
2.040000e-01, 29.4922
2.050000e-01, 29.4922
2.060000e-01, 29.4922
2.070000e-01, 29.4922
2.080000e-01, 29.4922
2.090000e-01, 29.4922
2.100000e-01, 29.4922
2.110000e-01, 29.4922
2.120000e-01, 29.4922
2.130000e-01, 29.4922
2.140000e-01, 29.4922
2.150000e-01, 29.4922
2.160000e-01, 29.4922
2.170000e-01, 29.4922
2.180000e-01, 29.4922
2.190000e-01, 29.4922
2.200000e-01, 29.4922
2.210000e-01, 29.4922
2.220000e-01, 29.4922
2.230000e-01, 29.4922
2.240000e-01, 29.4922
2.250000e-01, 29.4922
2.260000e-01, 29.4922
2.270000e-01, 29.4922
2.280000e-01, 29.4922
2.290000e-01, 29.4922
2.300000e-01, 29.4922
2.310000e-01, 29.4922
2.320000e-01, 29.4922
2.330000e-01, 29.4922
2.340000e-01, 29.4922
2.350000e-01, 29.4922
2.360000e-01, 29.4922
2.370000e-01, 29.4922
2.380000e-01, 29.4922
2.390000e-01, 29.4922
2.400000e-01, 29.4922
2.410000e-01, 29.4922
2.420000e-01, 29.4922
2.430000e-01, 29.4922
2.440000e-01, 29.4922
2.450000e-01, 29.4922
2.460000e-01, 29.4922
2.470000e-01, 29.4922
2.480000e-01, 29.4922
2.490000e-01, 29.4922
2.500000e-01, 29.4922
2.510000e-01, 29.4922
2.520000e-01, 29.4922
2.530000e-01, 29.4922
2.540000e-01, 29.4922
2.550000e-01, 29.4922
2.560000e-01, 29.4922
2.570000e-01, 29.4922
2.580000e-01, 29.4922
2.590000e-01, 29.4922
2.600000e-01, 29.4922
2.610000e-01, 29.4922
2.620000e-01, 29.4922
2.630000e-01, 29.4922
2.640000e-01, 29.4922
2.650000e-01, 29.4922
2.660000e-01, 29.4922
2.670000e-01, 29.4922
2.680000e-01, 29.4922
2.690000e-01, 29.4922
2.700000e-01, 29.4922
2.710000e-01, 29.4922
2.720000e-01, 29.4922
2.730000e-01, 29.4922
2.740000e-01, 29.4922
2.750000e-01, 29.4922
2.760000e-01, 29.4922
2.770000e-01, 29.4922
2.780000e-01, 29.4922
2.790000e-01, 29.4922
2.800000e-01, 29.4922
2.810000e-01, 29.4922
2.820000e-01, 29.4922
2.830000e-01, 29.4922
2.840000e-01, 29.4922
2.850000e-01, 29.4922
2.860000e-01, 29.4922
2.870000e-01, 29.4922
2.880000e-01, 29.4922
2.890000e-01, 29.4922
2.900000e-01, 29.4922
2.910000e-01, 29.4922
2.920000e-01, 29.4922
2.930000e-01, 29.4922
2.940000e-01, 29.4922
2.950000e-01, 29.4922
2.960000e-01, 29.4922
2.970000e-01, 29.4922
2.980000e-01, 29.4922
2.990000e-01, 29.4922
3.000000e-01, 29.4922
3.010000e-01, 29.4922
3.020000e-01, 29.4922
3.030000e-01, 29.4922
3.040000e-01, 29.4922
3.050000e-01, 29.4922
3.060000e-01, 29.4922
3.070000e-01, 29.4922
3.080000e-01, 29.4922
3.090000e-01, 29.4922
3.100000e-01, 29.4922
3.110000e-01, 29.4922
3.120000e-01, 29.4922
3.130000e-01, 29.4922
3.140000e-01, 29.4922
3.150000e-01, 29.4922
3.160000e-01, 29.4922
3.170000e-01, 29.4922
3.180000e-01, 29.4922
3.190000e-01, 29.4922
3.200000e-01, 29.4922
3.210000e-01, 29.4922
3.220000e-01, 29.4922
3.230000e-01, 29.4922
3.240000e-01, 29.4922
3.250000e-01, 29.4922
3.260000e-01, 29.4922
3.270000e-01, 29.4922
3.280000e-01, 29.4922
3.290000e-01, 29.4922
3.300000e-01, 29.4922
3.310000e-01, 29.4922
3.320000e-01, 29.4922
3.330000e-01, 29.4922
3.340000e-01, 29.4922
3.350000e-01, 29.4922
3.360000e-01, 29.4922
3.370000e-01, 29.4922
3.380000e-01, 29.4922
3.390000e-01, 29.4922
3.400000e-01, 29.4922
3.410000e-01, 29.4922
3.420000e-01, 29.4922
3.430000e-01, 29.4922
3.440000e-01, 29.4922
3.450000e-01, 29.4922
3.460000e-01, 29.4922
3.470000e-01, 29.4922
3.480000e-01, 29.4922
3.490000e-01, 29.4922
3.500000e-01, 29.4922
3.510000e-01, 29.4922
3.520000e-01, 29.4922
3.530000e-01, 29.4922
3.540000e-01, 29.4922
3.550000e-01, 29.4922
3.560000e-01, 29.4922
3.570000e-01, 29.4922
3.580000e-01, 29.4922
3.590000e-01, 29.4922
3.600000e-01, 29.4922
3.610000e-01, 29.4922
3.620000e-01, 29.4922
3.630000e-01, 29.4922
3.640000e-01, 29.4922
3.650000e-01, 29.4922
3.660000e-01, 29.4922
3.670000e-01, 29.4922
3.680000e-01, 29.4922
3.690000e-01, 29.4922
3.700000e-01, 29.4922
3.710000e-01, 29.4922
3.720000e-01, 29.4922
3.730000e-01, 29.4922
3.740000e-01, 29.4922
3.750000e-01, 29.4922
3.760000e-01, 29.4922
3.770000e-01, 29.4922
3.780000e-01, 29.4922
3.790000e-01, 29.4922
3.800000e-01, 29.4922
3.810000e-01, 29.4922
3.820000e-01, 29.4922
3.830000e-01, 29.4922
3.840000e-01, 29.4922
3.850000e-01, 29.4922
3.860000e-01, 29.4922
3.870000e-01, 29.4922
3.880000e-01, 29.4922
3.890000e-01, 29.4922
3.900000e-01, 29.4922
3.910000e-01, 29.4922
3.920000e-01, 29.4922
3.930000e-01, 29.4922
3.940000e-01, 29.4922
3.950000e-01, 29.4922
3.960000e-01, 29.4922
3.970000e-01, 29.4922
3.980000e-01, 29.4922
3.990000e-01, 29.4922
4.000000e-01, 29.4922
4.010000e-01, 29.4922
4.020000e-01, 29.4922
4.030000e-01, 29.4922
4.040000e-01, 29.4922
4.050000e-01, 29.4922
4.060000e-01, 29.4922
4.070000e-01, 29.4922
4.080000e-01, 29.4922
4.090000e-01, 29.4922
4.100000e-01, 29.4922
4.110000e-01, 29.4922
4.120000e-01, 29.4922
4.130000e-01, 29.4922
4.140000e-01, 29.4922
4.150000e-01, 29.4922
4.160000e-01, 29.4922
4.170000e-01, 29.4922
4.180000e-01, 29.4922
4.190000e-01, 29.4922
4.200000e-01, 29.4922
4.210000e-01, 29.4922
4.220000e-01, 29.4922
4.230000e-01, 29.4922
4.240000e-01, 29.4922
4.250000e-01, 29.4922
4.260000e-01, 29.4922
4.270000e-01, 29.4922
4.280000e-01, 29.4922
4.290000e-01, 29.4922
4.300000e-01, 29.4922
4.310000e-01, 29.4922
4.320000e-01, 29.4922
4.330000e-01, 29.4922
4.340000e-01, 29.4922
4.350000e-01, 29.4922
4.360000e-01, 29.4922
4.370000e-01, 29.4922
4.380000e-01, 29.4922
4.390000e-01, 29.4922
4.400000e-01, 29.4922
4.410000e-01, 29.4922
4.420000e-01, 29.4922
4.430000e-01, 29.4922
4.440000e-01, 29.4922
4.450000e-01, 29.4922
4.460000e-01, 29.4922
4.470000e-01, 29.4922
4.480000e-01, 29.4922
4.490000e-01, 29.4922
4.500000e-01, 29.4922
4.510000e-01, 29.4922
4.520000e-01, 29.4922
4.530000e-01, 29.4922
4.540000e-01, 29.4922
4.550000e-01, 29.4922
4.560000e-01, 29.4922
4.570000e-01, 29.4922
4.580000e-01, 29.4922
4.590000e-01, 29.4922
4.600000e-01, 29.4922
4.610000e-01, 29.4922
4.620000e-01, 29.4922
4.630000e-01, 29.4922
4.640000e-01, 29.4922
4.650000e-01, 29.4922
4.660000e-01, 29.4922
4.670000e-01, 29.4922
4.680000e-01, 29.4922
4.690000e-01, 29.4922
4.700000e-01, 29.4922
4.710000e-01, 29.4922
4.720000e-01, 29.4922
4.730000e-01, 29.4922
4.740000e-01, 29.4922
4.750000e-01, 29.4922
4.760000e-01, 29.4922
4.770000e-01, 29.4922
4.780000e-01, 29.4922
4.790000e-01, 29.4922
4.800000e-01, 29.4922
4.810000e-01, 29.4922
4.820000e-01, 29.4922
4.830000e-01, 29.4922
4.840000e-01, 29.4922
4.850000e-01, 29.4922
4.860000e-01, 29.4922
4.870000e-01, 29.4922
4.880000e-01, 29.4922
4.890000e-01, 29.4922
4.900000e-01, 29.4922
4.910000e-01, 29.4922
4.920000e-01, 29.4922
4.930000e-01, 29.4922
4.940000e-01, 29.4922
4.950000e-01, 29.4922
4.960000e-01, 29.4922
4.970000e-01, 29.4922
4.980000e-01, 29.4922
4.990000e-01, 29.4922
5.000000e-01, 29.4922
5.010000e-01, 29.4922
5.020000e-01, 29.4922
5.030000e-01, 29.4922
5.040000e-01, 29.4922
5.050000e-01, 29.4922
5.060000e-01, 29.4922
5.070000e-01, 29.4922
5.080000e-01, 29.4922
5.090000e-01, 29.4922
5.100000e-01, 29.4922
5.110000e-01, 29.4922
5.120000e-01, 29.4922
5.130000e-01, 29.4922
5.140000e-01, 29.4922
5.150000e-01, 29.4922
5.160000e-01, 29.4922
5.170000e-01, 29.4922
5.180000e-01, 29.4922
5.190000e-01, 29.4922
5.200000e-01, 29.4922
5.210000e-01, 29.4922
5.220000e-01, 29.4922
5.230000e-01, 29.4922
5.240000e-01, 29.4922
5.250000e-01, 29.4922
5.260000e-01, 29.4922
5.270000e-01, 29.4922
5.280000e-01, 29.4922
5.290000e-01, 29.4922
5.300000e-01, 29.4922
5.310000e-01, 29.4922
5.320000e-01, 29.4922
5.330000e-01, 29.4922
5.340000e-01, 29.4922
5.350000e-01, 29.4922
5.360000e-01, 29.4922
5.370000e-01, 29.4922
5.380000e-01, 29.4922
5.390000e-01, 29.4922
5.400000e-01, 29.4922
5.410000e-01, 29.4922
5.420000e-01, 29.4922
5.430000e-01, 29.4922
5.440000e-01, 29.4922
5.450000e-01, 29.4922
5.460000e-01, 29.4922
5.470000e-01, 29.4922
5.480000e-01, 29.4922
5.490000e-01, 29.4922
5.500000e-01, 29.4922
5.510000e-01, 29.4922
5.520000e-01, 29.4922
5.530000e-01, 29.4922
5.540000e-01, 29.4922
5.550000e-01, 29.4922
5.560000e-01, 29.4922
5.570000e-01, 29.4922
5.580000e-01, 29.4922
5.590000e-01, 29.4922
5.600000e-01, 29.4922
5.610000e-01, 29.4922
5.620000e-01, 29.4922
5.630000e-01, 29.4922
5.640000e-01, 29.4922
5.650000e-01, 29.4922
5.660000e-01, 29.4922
5.670000e-01, 29.4922
5.680000e-01, 29.4922
5.690000e-01, 29.4922
5.700000e-01, 29.4922
5.710000e-01, 29.4922
5.720000e-01, 29.4922
5.730000e-01, 29.4922
5.740000e-01, 29.4922
5.750000e-01, 29.4922
5.760000e-01, 29.4922
5.770000e-01, 29.4922
5.780000e-01, 29.4922
5.790000e-01, 29.4922
5.800000e-01, 29.4922
5.810000e-01, 29.4922
5.820000e-01, 29.4922
5.830000e-01, 29.4922
5.840000e-01, 29.4922
5.850000e-01, 29.4922
5.860000e-01, 29.4922
5.870000e-01, 29.4922
5.880000e-01, 29.4922
5.890000e-01, 29.4922
5.900000e-01, 29.4922
5.910000e-01, 29.4922
5.920000e-01, 29.4922
5.930000e-01, 29.4922
5.940000e-01, 29.4922
5.950000e-01, 29.4922
5.960000e-01, 29.4922
5.970000e-01, 29.4922
5.980000e-01, 29.4922
5.990000e-01, 29.4922
6.000000e-01, 29.4922
6.010000e-01, 29.4922
6.020000e-01, 29.4922
6.030000e-01, 29.4922
6.040000e-01, 29.4922
6.050000e-01, 29.4922
6.060000e-01, 29.4922
6.070000e-01, 29.4922
6.080000e-01, 29.4922
6.090000e-01, 29.4922
6.100000e-01, 29.4922
6.110000e-01, 29.4922
6.120000e-01, 29.4922
6.130000e-01, 29.4922
6.140000e-01, 29.4922
6.150000e-01, 29.4922
6.160000e-01, 29.4922
6.170000e-01, 29.4922
6.180000e-01, 29.4922
6.190000e-01, 29.4922
6.200000e-01, 29.4922
6.210000e-01, 29.4922
6.220000e-01, 29.4922
6.230000e-01, 29.4922
6.240000e-01, 29.4922
6.250000e-01, 29.4922
6.260000e-01, 29.4922
6.270000e-01, 29.4922
6.280000e-01, 29.4922
6.290000e-01, 29.4922
6.300000e-01, 29.4922
6.310000e-01, 29.4922
6.320000e-01, 29.4922
6.330000e-01, 29.4922
6.340000e-01, 29.4922
6.350000e-01, 29.4922
6.360000e-01, 29.4922
6.370000e-01, 29.4922
6.380000e-01, 29.4922
6.390000e-01, 29.4922
6.400000e-01, 29.4922
6.410000e-01, 29.4922
6.420000e-01, 29.4922
6.430000e-01, 29.4922
6.440000e-01, 29.4922
6.450000e-01, 29.4922
6.460000e-01, 29.4922
6.470000e-01, 29.4922
6.480000e-01, 29.4922
6.490000e-01, 29.4922
6.500000e-01, 29.4922
6.510000e-01, 29.4922
6.520000e-01, 29.4922
6.530000e-01, 29.4922
6.540000e-01, 29.4922
6.550000e-01, 29.4922
6.560000e-01, 29.4922
6.570000e-01, 29.4922
6.580000e-01, 29.4922
6.590000e-01, 29.4922
6.600000e-01, 29.4922
6.610000e-01, 29.4922
6.620000e-01, 29.4922
6.630000e-01, 29.4922
6.640000e-01, 29.4922
6.650000e-01, 29.4922
6.660000e-01, 29.4922
6.670000e-01, 29.4922
6.680000e-01, 29.4922
6.690000e-01, 29.4922
6.700000e-01, 29.4922
6.710000e-01, 29.4922
6.720000e-01, 29.4922
6.730000e-01, 29.4922
6.740000e-01, 29.4922
6.750000e-01, 29.4922
6.760000e-01, 29.4922
6.770000e-01, 29.4922
6.780000e-01, 29.4922
6.790000e-01, 29.4922
6.800000e-01, 29.4922
6.810000e-01, 29.4922
6.820000e-01, 29.4922
6.830000e-01, 29.4922
6.840000e-01, 29.4922
6.850000e-01, 29.4922
6.860000e-01, 29.4922
6.870000e-01, 29.4922
6.880000e-01, 29.4922
6.890000e-01, 29.4922
6.900000e-01, 29.4922
6.910000e-01, 29.4922
6.920000e-01, 29.4922
6.930000e-01, 29.4922
6.940000e-01, 29.4922
6.950000e-01, 29.4922
6.960000e-01, 29.4922
6.970000e-01, 29.4922
6.980000e-01, 29.4922
6.990000e-01, 29.4922
7.000000e-01, 29.4922
7.010000e-01, 29.4922
7.020000e-01, 29.4922
7.030000e-01, 29.4922
7.040000e-01, 29.4922
7.050000e-01, 29.4922
7.060000e-01, 29.4922
7.070000e-01, 29.4922
7.080000e-01, 29.4922
7.090000e-01, 29.4922
7.100000e-01, 29.4922
7.110000e-01, 29.4922
7.120000e-01, 29.4922
7.130000e-01, 29.4922
7.140000e-01, 29.4922
7.150000e-01, 29.4922
7.160000e-01, 29.4922
7.170000e-01, 29.4922
7.180000e-01, 29.4922
7.190000e-01, 29.4922
7.200000e-01, 29.4922
7.210000e-01, 29.4922
7.220000e-01, 29.4922
7.230000e-01, 29.4922
7.240000e-01, 29.4922
7.250000e-01, 29.4922
7.260000e-01, 29.4922
7.270000e-01, 29.4922
7.280000e-01, 29.4922
7.290000e-01, 29.4922
7.300000e-01, 29.4922
7.310000e-01, 29.4922
7.320000e-01, 29.4922
7.330000e-01, 29.4922
7.340000e-01, 29.4922
7.350000e-01, 29.4922
7.360000e-01, 29.4922
7.370000e-01, 29.4922
7.380000e-01, 29.4922
7.390000e-01, 29.4922
7.400000e-01, 29.4922
7.410000e-01, 29.4922
7.420000e-01, 29.4922
7.430000e-01, 29.4922
7.440000e-01, 29.4922
7.450000e-01, 29.4922
7.460000e-01, 29.4922
7.470000e-01, 29.4922
7.480000e-01, 29.4922
7.490000e-01, 29.4922
7.500000e-01, 29.4922
7.510000e-01, 29.4922
7.520000e-01, 29.4922
7.530000e-01, 29.4922
7.540000e-01, 29.4922
7.550000e-01, 29.4922
7.560000e-01, 29.4922
7.570000e-01, 29.4922
7.580000e-01, 29.4922
7.590000e-01, 29.4922
7.600000e-01, 29.4922
7.610000e-01, 29.4922
7.620000e-01, 29.4922
7.630000e-01, 29.4922
7.640000e-01, 29.4922
7.650000e-01, 29.4922
7.660000e-01, 29.4922
7.670000e-01, 29.4922
7.680000e-01, 29.4922
7.690000e-01, 29.4922
7.700000e-01, 29.4922
7.710000e-01, 29.4922
7.720000e-01, 29.4922
7.730000e-01, 29.4922
7.740000e-01, 29.4922
7.750000e-01, 29.4922
7.760000e-01, 29.4922
7.770000e-01, 29.4922
7.780000e-01, 29.4922
7.790000e-01, 29.4922
7.800000e-01, 29.4922
7.810000e-01, 29.4922
7.820000e-01, 29.4922
7.830000e-01, 29.4922
7.840000e-01, 29.4922
7.850000e-01, 29.4922
7.860000e-01, 29.4922
7.870000e-01, 29.4922
7.880000e-01, 29.4922
7.890000e-01, 29.4922
7.900000e-01, 29.4922
7.910000e-01, 29.4922
7.920000e-01, 29.4922
7.930000e-01, 29.4922
7.940000e-01, 29.4922
7.950000e-01, 29.4922
7.960000e-01, 29.4922
7.970000e-01, 29.4922
7.980000e-01, 29.4922
7.990000e-01, 29.4922
8.000000e-01, 29.4922
8.010000e-01, 29.4922
8.020000e-01, 29.4922
8.030000e-01, 29.4922
8.040000e-01, 29.4922
8.050000e-01, 29.4922
8.060000e-01, 29.4922
8.070000e-01, 29.4922
8.080000e-01, 29.4922
8.090000e-01, 29.4922
8.100000e-01, 29.4922
8.110000e-01, 29.4922
8.120000e-01, 29.4922
8.130000e-01, 29.4922
8.140000e-01, 29.4922
8.150000e-01, 29.4922
8.160000e-01, 29.4922
8.170000e-01, 29.4922
8.180000e-01, 29.4922
8.190000e-01, 29.4922
8.200000e-01, 29.4922
8.210000e-01, 29.4922
8.220000e-01, 29.4922
8.230000e-01, 29.4922
8.240000e-01, 29.4922
8.250000e-01, 29.4922
8.260000e-01, 29.4922
8.270000e-01, 29.4922
8.280000e-01, 29.4922
8.290000e-01, 29.4922
8.300000e-01, 29.4922
8.310000e-01, 29.4922
8.320000e-01, 29.4922
8.330000e-01, 29.4922
8.340000e-01, 29.4922
8.350000e-01, 29.4922
8.360000e-01, 29.4922
8.370000e-01, 29.4922
8.380000e-01, 29.4922
8.390000e-01, 29.4922
8.400000e-01, 29.4922
8.410000e-01, 29.4922
8.420000e-01, 29.4922
8.430000e-01, 29.4922
8.440000e-01, 29.4922
8.450000e-01, 29.4922
8.460000e-01, 29.4922
8.470000e-01, 29.4922
8.480000e-01, 29.4922
8.490000e-01, 29.4922
8.500000e-01, 29.4922
8.510000e-01, 29.4922
8.520000e-01, 29.4922
8.530000e-01, 29.4922
8.540000e-01, 29.4922
8.550000e-01, 29.4922
8.560000e-01, 29.4922
8.570000e-01, 29.4922
8.580000e-01, 29.4922
8.590000e-01, 29.4922
8.600000e-01, 29.4922
8.610000e-01, 29.4922
8.620000e-01, 29.4922
8.630000e-01, 29.4922
8.640000e-01, 29.4922
8.650000e-01, 29.4922
8.660000e-01, 29.4922
8.670000e-01, 29.4922
8.680000e-01, 29.4922
8.690000e-01, 29.4922
8.700000e-01, 29.4922
8.710000e-01, 29.4922
8.720000e-01, 29.4922
8.730000e-01, 29.4922
8.740000e-01, 29.4922
8.750000e-01, 29.4922
8.760000e-01, 29.4922
8.770000e-01, 29.4922
8.780000e-01, 29.4922
8.790000e-01, 29.4922
8.800000e-01, 29.4922
8.810000e-01, 29.4922
8.820000e-01, 29.4922
8.830000e-01, 29.4922
8.840000e-01, 29.4922
8.850000e-01, 29.4922
8.860000e-01, 29.4922
8.870000e-01, 29.4922
8.880000e-01, 29.4922
8.890000e-01, 29.4922
8.900000e-01, 29.4922
8.910000e-01, 29.4922
8.920000e-01, 29.4922
8.930000e-01, 29.4922
8.940000e-01, 29.4922
8.950000e-01, 29.4922
8.960000e-01, 29.4922
8.970000e-01, 29.4922
8.980000e-01, 29.4922
8.990000e-01, 29.4922
9.000000e-01, 29.4922
9.010000e-01, 29.4922
9.020000e-01, 29.4922
9.030000e-01, 29.4922
9.040000e-01, 29.4922
9.050000e-01, 29.4922
9.060000e-01, 29.4922
9.070000e-01, 29.4922
9.080000e-01, 29.4922
9.090000e-01, 29.4922
9.100000e-01, 29.4922
9.110000e-01, 29.4922
9.120000e-01, 29.4922
9.130000e-01, 29.4922
9.140000e-01, 29.4922
9.150000e-01, 29.4922
9.160000e-01, 29.4922
9.170000e-01, 29.4922
9.180000e-01, 29.4922
9.190000e-01, 29.4922
9.200000e-01, 29.4922
9.210000e-01, 29.4922
9.220000e-01, 29.4922
9.230000e-01, 29.4922
9.240000e-01, 29.4922
9.250000e-01, 29.4922
9.260000e-01, 29.4922
9.270000e-01, 29.4922
9.280000e-01, 29.4922
9.290000e-01, 29.4922
9.300000e-01, 29.4922
9.310000e-01, 29.4922
9.320000e-01, 29.4922
9.330000e-01, 29.4922
9.340000e-01, 29.4922
9.350000e-01, 29.4922
9.360000e-01, 29.4922
9.370000e-01, 29.4922
9.380000e-01, 29.4922
9.390000e-01, 29.4922
9.400000e-01, 29.4922
9.410000e-01, 29.4922
9.420000e-01, 29.4922
9.430000e-01, 29.4922
9.440000e-01, 29.4922
9.450000e-01, 29.4922
9.460000e-01, 29.4922
9.470000e-01, 29.4922
9.480000e-01, 29.4922
9.490000e-01, 29.4922
9.500000e-01, 29.4922
9.510000e-01, 29.4922
9.520000e-01, 29.4922
9.530000e-01, 29.4922
9.540000e-01, 29.4922
9.550000e-01, 29.4922
9.560000e-01, 29.4922
9.570000e-01, 29.4922
9.580000e-01, 29.4922
9.590000e-01, 29.4922
9.600000e-01, 29.4922
9.610000e-01, 29.4922
9.620000e-01, 29.4922
9.630000e-01, 29.4922
9.640000e-01, 29.4922
9.650000e-01, 29.4922
9.660000e-01, 29.4922
9.670000e-01, 29.4922
9.680000e-01, 29.4922
9.690000e-01, 29.4922
9.700000e-01, 29.4922
9.710000e-01, 29.4922
9.720000e-01, 29.4922
9.730000e-01, 29.4922
9.740000e-01, 29.4922
9.750000e-01, 29.4922
9.760000e-01, 29.4922
9.770000e-01, 29.4922
9.780000e-01, 29.4922
9.790000e-01, 29.4922
9.800000e-01, 29.4922
9.810000e-01, 29.4922
9.820000e-01, 29.4922
9.830000e-01, 29.4922
9.840000e-01, 29.4922
9.850000e-01, 29.4922
9.860000e-01, 29.4922
9.870000e-01, 29.4922
9.880000e-01, 29.4922
9.890000e-01, 29.4922
9.900000e-01, 29.4922
9.910000e-01, 29.4922
9.920000e-01, 29.4922
9.930000e-01, 29.4922
9.940000e-01, 29.4922
9.950000e-01, 29.4922
9.960000e-01, 29.4922
9.970000e-01, 29.4922
9.980000e-01, 29.4922
9.990000e-01, 29.4922
1.000000e+00, 29.4922
1.001000e+00, 29.4922
1.002000e+00, 29.4922
1.003000e+00, 29.4922
1.004000e+00, 29.4922
1.005000e+00, 29.4922
1.006000e+00, 29.4922
1.007000e+00, 29.4922
1.008000e+00, 29.4922
1.009000e+00, 29.4922
1.010000e+00, 29.4922
1.011000e+00, 29.4922
1.012000e+00, 29.4922
1.013000e+00, 29.4922
1.014000e+00, 29.4922
1.015000e+00, 29.4922
1.016000e+00, 29.4922
1.017000e+00, 29.4922
1.018000e+00, 29.4922
1.019000e+00, 29.4922
1.020000e+00, 29.4922
1.021000e+00, 29.4922
1.022000e+00, 29.4922
1.023000e+00, 29.4922
1.024000e+00, 29.4922
1.025000e+00, 29.4922
1.026000e+00, 29.4922
1.027000e+00, 29.4922
1.028000e+00, 29.4922
1.029000e+00, 29.4922
1.030000e+00, 29.4922
1.031000e+00, 29.4922
1.032000e+00, 29.4922
1.033000e+00, 29.4922
1.034000e+00, 29.4922
1.035000e+00, 29.4922
1.036000e+00, 29.4922
1.037000e+00, 29.4922
1.038000e+00, 29.4922
1.039000e+00, 29.4922
1.040000e+00, 29.4922
1.041000e+00, 29.4922
1.042000e+00, 29.4922
1.043000e+00, 29.4922
1.044000e+00, 29.4922
1.045000e+00, 29.4922
1.046000e+00, 29.4922
1.047000e+00, 29.4922
1.048000e+00, 29.4922
1.049000e+00, 29.4922
1.050000e+00, 29.4922
1.051000e+00, 29.4922
1.052000e+00, 29.4922
1.053000e+00, 29.4922
1.054000e+00, 29.4922
1.055000e+00, 29.4922
1.056000e+00, 29.4922
1.057000e+00, 29.4922
1.058000e+00, 29.4922
1.059000e+00, 29.4922
1.060000e+00, 29.4922
1.061000e+00, 29.4922
1.062000e+00, 29.4922
1.063000e+00, 29.4922
1.064000e+00, 29.4922
1.065000e+00, 29.4922
1.066000e+00, 29.4922
1.067000e+00, 29.4922
1.068000e+00, 29.4922
1.069000e+00, 29.4922
1.070000e+00, 29.4922
1.071000e+00, 29.4922
1.072000e+00, 29.4922
1.073000e+00, 29.4922
1.074000e+00, 29.4922
1.075000e+00, 29.4922
1.076000e+00, 29.4922
1.077000e+00, 29.4922
1.078000e+00, 29.4922
1.079000e+00, 29.4922
1.080000e+00, 29.4922
1.081000e+00, 29.4922
1.082000e+00, 29.4922
1.083000e+00, 29.4922
1.084000e+00, 29.4922
1.085000e+00, 29.4922
1.086000e+00, 29.4922
1.087000e+00, 29.4922
1.088000e+00, 29.4922
1.089000e+00, 29.4922
1.090000e+00, 29.4922
1.091000e+00, 29.4922
1.092000e+00, 29.4922
1.093000e+00, 29.4922
1.094000e+00, 29.4922
1.095000e+00, 29.4922
1.096000e+00, 29.4922
1.097000e+00, 29.4922
1.098000e+00, 29.4922
1.099000e+00, 29.4922
1.100000e+00, 29.4922
1.101000e+00, 29.4922
1.102000e+00, 29.4922
1.103000e+00, 29.4922
1.104000e+00, 29.4922
1.105000e+00, 29.4922
1.106000e+00, 29.4922
1.107000e+00, 29.4922
1.108000e+00, 29.4922
1.109000e+00, 29.4922
1.110000e+00, 29.4922
1.111000e+00, 29.4922
1.112000e+00, 29.4922
1.113000e+00, 29.4922
1.114000e+00, 29.4922
1.115000e+00, 29.4922
1.116000e+00, 29.4922
1.117000e+00, 29.4922
1.118000e+00, 29.4922
1.119000e+00, 29.4922
1.120000e+00, 29.4922
1.121000e+00, 29.4922
1.122000e+00, 29.4922
1.123000e+00, 29.4922
1.124000e+00, 29.4922
1.125000e+00, 29.4922
1.126000e+00, 29.4922
1.127000e+00, 29.4922
1.128000e+00, 29.4922
1.129000e+00, 29.4922
1.130000e+00, 29.4922
1.131000e+00, 29.4922
1.132000e+00, 29.4922
1.133000e+00, 29.4922
1.134000e+00, 29.4922
1.135000e+00, 29.4922
1.136000e+00, 29.4922
1.137000e+00, 29.4922
1.138000e+00, 29.4922
1.139000e+00, 29.4922
1.140000e+00, 29.4922
1.141000e+00, 29.4922
1.142000e+00, 29.4922
1.143000e+00, 29.4922
1.144000e+00, 29.4922
1.145000e+00, 29.4922
1.146000e+00, 29.4922
1.147000e+00, 29.4922
1.148000e+00, 29.4922
1.149000e+00, 29.4922
1.150000e+00, 29.4922
1.151000e+00, 29.4922
1.152000e+00, 29.4922
1.153000e+00, 29.4922
1.154000e+00, 29.4922
1.155000e+00, 29.4922
1.156000e+00, 29.4922
1.157000e+00, 29.4922
1.158000e+00, 29.4922
1.159000e+00, 29.4922
1.160000e+00, 29.4922
1.161000e+00, 29.4922
1.162000e+00, 29.4922
1.163000e+00, 29.4922
1.164000e+00, 29.4922
1.165000e+00, 29.4922
1.166000e+00, 29.4922
1.167000e+00, 29.4922
1.168000e+00, 29.4922
1.169000e+00, 29.4922
1.170000e+00, 29.4922
1.171000e+00, 29.4922
1.172000e+00, 29.4922
1.173000e+00, 29.4922
1.174000e+00, 29.4922
1.175000e+00, 29.4922
1.176000e+00, 29.4922
1.177000e+00, 29.4922
1.178000e+00, 29.4922
1.179000e+00, 29.4922
1.180000e+00, 29.4922
1.181000e+00, 29.4922
1.182000e+00, 29.4922
1.183000e+00, 29.4922
1.184000e+00, 29.4922
1.185000e+00, 29.4922
1.186000e+00, 29.4922
1.187000e+00, 29.4922
1.188000e+00, 29.4922
1.189000e+00, 29.4922
1.190000e+00, 29.4922
1.191000e+00, 29.4922
1.192000e+00, 29.4922
1.193000e+00, 29.4922
1.194000e+00, 29.4922
1.195000e+00, 29.4922
1.196000e+00, 29.4922
1.197000e+00, 29.4922
1.198000e+00, 29.4922
1.199000e+00, 29.4922
1.200000e+00, 29.4922
1.201000e+00, 29.4922
1.202000e+00, 29.4922
1.203000e+00, 29.4922
1.204000e+00, 29.4922
1.205000e+00, 29.4922
1.206000e+00, 29.4922
1.207000e+00, 29.4922
1.208000e+00, 29.4922
1.209000e+00, 29.4922
1.210000e+00, 29.4922
1.211000e+00, 29.4922
1.212000e+00, 29.4922
1.213000e+00, 29.4922
1.214000e+00, 29.4922
1.215000e+00, 29.4922
1.216000e+00, 29.4922
1.217000e+00, 29.4922
1.218000e+00, 29.4922
1.219000e+00, 29.4922
1.220000e+00, 29.4922
1.221000e+00, 29.4922
1.222000e+00, 29.4922
1.223000e+00, 29.4922
1.224000e+00, 29.4922
1.225000e+00, 29.4922
1.226000e+00, 29.4922
1.227000e+00, 29.4922
1.228000e+00, 29.4922
1.229000e+00, 29.4922
1.230000e+00, 29.4922
1.231000e+00, 29.4922
1.232000e+00, 29.4922
1.233000e+00, 29.4922
1.234000e+00, 29.4922
1.235000e+00, 29.4922
1.236000e+00, 29.4922
1.237000e+00, 29.4922
1.238000e+00, 29.4922
1.239000e+00, 29.4922
1.240000e+00, 29.4922
1.241000e+00, 29.4922
1.242000e+00, 29.4922
1.243000e+00, 29.4922
1.244000e+00, 29.4922
1.245000e+00, 29.4922
1.246000e+00, 29.4922
1.247000e+00, 29.4922
1.248000e+00, 29.4922
1.249000e+00, 29.4922
1.250000e+00, 29.4922
1.251000e+00, 29.4922
1.252000e+00, 29.4922
1.253000e+00, 29.4922
1.254000e+00, 29.4922
1.255000e+00, 29.4922
1.256000e+00, 29.4922
1.257000e+00, 29.4922
1.258000e+00, 29.4922
1.259000e+00, 29.4922
1.260000e+00, 29.4922
1.261000e+00, 29.4922
1.262000e+00, 29.4922
1.263000e+00, 29.4922
1.264000e+00, 29.4922
1.265000e+00, 29.4922
1.266000e+00, 29.4922
1.267000e+00, 29.4922
1.268000e+00, 29.4922
1.269000e+00, 29.4922
1.270000e+00, 29.4922
1.271000e+00, 29.4922
1.272000e+00, 29.4922
1.273000e+00, 29.4922
1.274000e+00, 29.4922
1.275000e+00, 29.4922
1.276000e+00, 29.4922
1.277000e+00, 29.4922
1.278000e+00, 29.4922
1.279000e+00, 29.4922
