<?xml version="1.0" encoding="UTF-8" standalone="no"?>
<svg
   xmlns:dc="http://purl.org/dc/elements/1.1/"
   xmlns:cc="http://creativecommons.org/ns#"
   xmlns:rdf="http://www.w3.org/1999/02/22-rdf-syntax-ns#"
   xmlns:svg="http://www.w3.org/2000/svg"
   xmlns="http://www.w3.org/2000/svg"
   xmlns:sodipodi="http://sodipodi.sourceforge.net/DTD/sodipodi-0.dtd"
   xmlns:inkscape="http://www.inkscape.org/namespaces/inkscape"
   width="77.773666mm"
   height="59.42374mm"
   version="1.1"
   id="svg2"
   inkscape:version="0.92.4 (5da689c313, 2019-01-14)"
   sodipodi:docname="nehalem_layout.svg">
  <metadata
     id="metadata45641">
    <rdf:RDF>
      <cc:Work
         rdf:about="">
        <dc:format>image/svg+xml</dc:format>
        <dc:type
           rdf:resource="http://purl.org/dc/dcmitype/StillImage" />
        <dc:title />
      </cc:Work>
    </rdf:RDF>
  </metadata>
  <defs
     id="defs45639" />
  <sodipodi:namedview
     pagecolor="#ffffff"
     bordercolor="#666666"
     borderopacity="1"
     objecttolerance="10"
     gridtolerance="10"
     guidetolerance="10"
     inkscape:pageopacity="0"
     inkscape:pageshadow="2"
     inkscape:window-width="1879"
     inkscape:window-height="1056"
     id="namedview45637"
     showgrid="false"
     inkscape:zoom="3.8068751"
     inkscape:cx="146.97386"
     inkscape:cy="112.29684"
     inkscape:window-x="41"
     inkscape:window-y="0"
     inkscape:window-maximized="1"
     inkscape:current-layer="svg2"
     fit-margin-top="0"
     fit-margin-left="0"
     fit-margin-right="0"
     fit-margin-bottom="0"
     units="mm"
     showborder="false" />
  <g
     id="label_shapes_layer"
     style="fill:none;stroke:#000000;stroke-width:29.31435394;stroke-miterlimit:4;stroke-dasharray:none;stroke-opacity:1"
     transform="matrix(0.01706095,0,0,0.01705203,0.21332805,0.89598012)">
    <rect
       x="100"
       y="8500"
       width="17000"
       height="4500"
       style="fill:none;fill-opacity:0.25;stroke:#000000;stroke-width:29.31435394;stroke-miterlimit:4;stroke-dasharray:none;stroke-opacity:1"
       id="rect45414" />
    <rect
       x="200"
       y="2855"
       width="1811"
       height="2696"
       style="fill:none;fill-opacity:0.25;stroke:#000000;stroke-width:29.31435394;stroke-miterlimit:4;stroke-dasharray:none;stroke-opacity:1"
       id="rect45416" />
    <rect
       x="15125"
       y="2855"
       width="1811"
       height="2696"
       style="fill:none;fill-opacity:0.25;stroke:#000000;stroke-width:29.31435394;stroke-miterlimit:4;stroke-dasharray:none;stroke-opacity:1"
       id="rect45418" />
    <rect
       x="8600"
       y="5551"
       width="1564"
       height="2902"
       style="fill:none;fill-opacity:0.25;stroke:#000000;stroke-width:29.31435394;stroke-miterlimit:4;stroke-dasharray:none;stroke-opacity:1"
       id="rect45420" />
    <rect
       x="6211"
       y="2855"
       width="1276"
       height="2696"
       style="fill:none;fill-opacity:0.25;stroke:#000000;stroke-width:29.31435394;stroke-miterlimit:4;stroke-dasharray:none;stroke-opacity:1"
       id="rect45422" />
    <rect
       x="7487"
       y="2855"
       width="1049"
       height="2696"
       style="fill:none;fill-opacity:0.25;stroke:#000000;stroke-width:29.31435394;stroke-miterlimit:4;stroke-dasharray:none;stroke-opacity:1"
       id="rect45424" />
    <rect
       x="4400"
       y="200"
       width="1811"
       height="2655"
       style="fill:none;fill-opacity:0.25;stroke:#000000;stroke-width:29.31435394;stroke-miterlimit:4;stroke-dasharray:none;stroke-opacity:1"
       id="rect45426" />
    <rect
       x="12800"
       y="5551"
       width="1564"
       height="2902"
       style="fill:none;fill-opacity:0.25;stroke:#000000;stroke-width:29.31435394;stroke-miterlimit:4;stroke-dasharray:none;stroke-opacity:1"
       id="rect45428" />
    <rect
       x="8600"
       y="200"
       width="2325"
       height="2655"
       style="fill:none;fill-opacity:0.25;stroke:#000000;stroke-width:29.31435394;stroke-miterlimit:4;stroke-dasharray:none;stroke-opacity:1"
       id="rect45430" />
    <rect
       x="6211"
       y="200"
       width="2325"
       height="2655"
       style="fill:none;fill-opacity:0.25;stroke:#000000;stroke-width:29.31435394;stroke-miterlimit:4;stroke-dasharray:none;stroke-opacity:1"
       id="rect45432" />
    <rect
       x="2772"
       y="5551"
       width="1564"
       height="2902"
       style="fill:none;fill-opacity:0.25;stroke:#000000;stroke-width:29.31435394;stroke-miterlimit:4;stroke-dasharray:none;stroke-opacity:1"
       id="rect45434" />
    <rect
       x="2031"
       y="5551"
       width="741"
       height="2902"
       style="fill:none;fill-opacity:0.25;stroke:#000000;stroke-width:29.31435394;stroke-miterlimit:4;stroke-dasharray:none;stroke-opacity:1"
       id="rect45436" />
    <rect
       x="4400"
       y="2855"
       width="1811"
       height="2696"
       style="fill:none;fill-opacity:0.25;stroke:#000000;stroke-width:29.31435394;stroke-miterlimit:4;stroke-dasharray:none;stroke-opacity:1"
       id="rect45438" />
    <rect
       x="2011"
       y="200"
       width="2325"
       height="2655"
       style="fill:none;fill-opacity:0.25;stroke:#000000;stroke-width:29.31435394;stroke-miterlimit:4;stroke-dasharray:none;stroke-opacity:1"
       id="rect45440" />
    <rect
       x="2011"
       y="2855"
       width="1276"
       height="2696"
       style="fill:none;fill-opacity:0.25;stroke:#000000;stroke-width:29.31435394;stroke-miterlimit:4;stroke-dasharray:none;stroke-opacity:1"
       id="rect45442" />
    <rect
       x="10925"
       y="200"
       width="1811"
       height="2655"
       style="fill:none;fill-opacity:0.25;stroke:#000000;stroke-width:29.31435394;stroke-miterlimit:4;stroke-dasharray:none;stroke-opacity:1"
       id="rect45444" />
    <rect
       x="10925"
       y="2855"
       width="1811"
       height="2696"
       style="fill:none;fill-opacity:0.25;stroke:#000000;stroke-width:29.31435394;stroke-miterlimit:4;stroke-dasharray:none;stroke-opacity:1"
       id="rect45446" />
    <rect
       x="1167"
       y="5551"
       width="864"
       height="2902"
       style="fill:none;fill-opacity:0.25;stroke:#000000;stroke-width:29.31435394;stroke-miterlimit:4;stroke-dasharray:none;stroke-opacity:1"
       id="rect45448" />
    <rect
       x="200"
       y="200"
       width="1811"
       height="2655"
       style="fill:none;fill-opacity:0.25;stroke:#000000;stroke-width:29.31435394;stroke-miterlimit:4;stroke-dasharray:none;stroke-opacity:1"
       id="rect45450" />
    <rect
       x="3287"
       y="2855"
       width="1049"
       height="2696"
       style="fill:none;fill-opacity:0.25;stroke:#000000;stroke-width:29.31435394;stroke-miterlimit:4;stroke-dasharray:none;stroke-opacity:1"
       id="rect45452" />
    <rect
       x="8600"
       y="2855"
       width="1049"
       height="2696"
       style="fill:none;fill-opacity:0.25;stroke:#000000;stroke-width:29.31435394;stroke-miterlimit:4;stroke-dasharray:none;stroke-opacity:1"
       id="rect45454" />
    <rect
       x="200"
       y="5551"
       width="967"
       height="2902"
       style="fill:none;fill-opacity:0.25;stroke:#000000;stroke-width:29.31435394;stroke-miterlimit:4;stroke-dasharray:none;stroke-opacity:1"
       id="rect45456" />
    <rect
       x="6231"
       y="5551"
       width="741"
       height="2902"
       style="fill:none;fill-opacity:0.25;stroke:#000000;stroke-width:29.31435394;stroke-miterlimit:4;stroke-dasharray:none;stroke-opacity:1"
       id="rect45458" />
    <rect
       x="6972"
       y="5551"
       width="1564"
       height="2902"
       style="fill:none;fill-opacity:0.25;stroke:#000000;stroke-width:29.31435394;stroke-miterlimit:4;stroke-dasharray:none;stroke-opacity:1"
       id="rect45460" />
    <rect
       x="15969"
       y="5551"
       width="967"
       height="2902"
       style="fill:none;fill-opacity:0.25;stroke:#000000;stroke-width:29.31435394;stroke-miterlimit:4;stroke-dasharray:none;stroke-opacity:1"
       id="rect45462" />
    <rect
       x="9649"
       y="2855"
       width="1276"
       height="2696"
       style="fill:none;fill-opacity:0.25;stroke:#000000;stroke-width:29.31435394;stroke-miterlimit:4;stroke-dasharray:none;stroke-opacity:1"
       id="rect45464" />
    <rect
       x="15105"
       y="5551"
       width="864"
       height="2902"
       style="fill:none;fill-opacity:0.25;stroke:#000000;stroke-width:29.31435394;stroke-miterlimit:4;stroke-dasharray:none;stroke-opacity:1"
       id="rect45466" />
    <rect
       x="11769"
       y="5551"
       width="967"
       height="2902"
       style="fill:none;fill-opacity:0.25;stroke:#000000;stroke-width:29.31435394;stroke-miterlimit:4;stroke-dasharray:none;stroke-opacity:1"
       id="rect45468" />
    <rect
       x="13849"
       y="2855"
       width="1276"
       height="2696"
       style="fill:none;fill-opacity:0.25;stroke:#000000;stroke-width:29.31435394;stroke-miterlimit:4;stroke-dasharray:none;stroke-opacity:1"
       id="rect45470" />
    <rect
       x="4400"
       y="5551"
       width="967"
       height="2902"
       style="fill:none;fill-opacity:0.25;stroke:#000000;stroke-width:29.31435394;stroke-miterlimit:4;stroke-dasharray:none;stroke-opacity:1"
       id="rect45472" />
    <rect
       x="12800"
       y="2855"
       width="1049"
       height="2696"
       style="fill:none;fill-opacity:0.25;stroke:#000000;stroke-width:29.31435394;stroke-miterlimit:4;stroke-dasharray:none;stroke-opacity:1"
       id="rect45474" />
    <rect
       x="10905"
       y="5551"
       width="864"
       height="2902"
       style="fill:none;fill-opacity:0.25;stroke:#000000;stroke-width:29.31435394;stroke-miterlimit:4;stroke-dasharray:none;stroke-opacity:1"
       id="rect45476" />
    <rect
       x="5367"
       y="5551"
       width="864"
       height="2902"
       style="fill:none;fill-opacity:0.25;stroke:#000000;stroke-width:29.31435394;stroke-miterlimit:4;stroke-dasharray:none;stroke-opacity:1"
       id="rect45478" />
    <rect
       x="10164"
       y="5551"
       width="741"
       height="2902"
       style="fill:none;fill-opacity:0.25;stroke:#000000;stroke-width:29.31435394;stroke-miterlimit:4;stroke-dasharray:none;stroke-opacity:1"
       id="rect45480" />
    <rect
       x="15125"
       y="200"
       width="1811"
       height="2655"
       style="fill:none;fill-opacity:0.25;stroke:#000000;stroke-width:29.31435394;stroke-miterlimit:4;stroke-dasharray:none;stroke-opacity:1"
       id="rect45482" />
    <rect
       x="12800"
       y="200"
       width="2325"
       height="2655"
       style="fill:none;fill-opacity:0.25;stroke:#000000;stroke-width:29.31435394;stroke-miterlimit:4;stroke-dasharray:none;stroke-opacity:1"
       id="rect45484" />
    <rect
       x="14364"
       y="5551"
       width="741"
       height="2902"
       style="fill:none;fill-opacity:0.25;stroke:#000000;stroke-width:29.31435394;stroke-miterlimit:4;stroke-dasharray:none;stroke-opacity:1"
       id="rect45486" />
  </g>
  <text
     xml:space="preserve"
     style="font-style:normal;font-variant:normal;font-weight:normal;font-stretch:normal;font-size:12.80336761px;line-height:0%;font-family:'Latin Modern Sans';-inkscape-font-specification:'Latin Modern Sans, Normal';text-align:center;letter-spacing:0px;word-spacing:0px;writing-mode:lr-tb;text-anchor:middle;fill:#000000;fill-opacity:1;stroke:none;stroke-width:1px;stroke-linecap:butt;stroke-linejoin:miter;stroke-opacity:1"
     x="145.67883"
     y="188.20352"
     id="text49773"
     transform="scale(0.9999647,1.0000353)"><tspan
       sodipodi:role="line"
       id="tspan49775"
       x="147.90598"
       y="188.20352"
       style="font-size:13.33684158px;line-height:1;stroke-width:1px">L3 </tspan></text>
  <text
     xml:space="preserve"
     style="font-style:normal;font-variant:normal;font-weight:normal;font-stretch:normal;font-size:12.80336761px;line-height:0%;font-family:'Latin Modern Sans';-inkscape-font-specification:'Latin Modern Sans, Normal';text-align:center;letter-spacing:0px;word-spacing:0px;writing-mode:lr-tb;text-anchor:middle;fill:#000000;fill-opacity:1;stroke:none;stroke-width:1px;stroke-linecap:butt;stroke-linejoin:miter;stroke-opacity:1"
     x="50.554768"
     y="28.785944"
     id="text49777"
     transform="scale(0.99976005,1.00024)"><tspan
       sodipodi:role="line"
       x="52.781918"
       y="28.785944"
       id="tspan49781"
       style="font-size:13.33684158px;line-height:1;stroke-width:1px"> </tspan></text>
  <text
     xml:space="preserve"
     style="font-style:normal;font-variant:normal;font-weight:normal;font-stretch:normal;font-size:12.80336761px;line-height:0%;font-family:'Latin Modern Sans';-inkscape-font-specification:'Latin Modern Sans, Normal';text-align:center;letter-spacing:0px;word-spacing:0px;writing-mode:lr-tb;text-anchor:middle;fill:#000000;fill-opacity:1;stroke:none;stroke-width:1px;stroke-linecap:butt;stroke-linejoin:miter;stroke-opacity:1"
     x="47.162292"
     y="23.066856"
     id="text49785"
     transform="scale(0.9999647,1.0000353)"><tspan
       sodipodi:role="line"
       id="tspan49787"
       x="49.389442"
       y="23.066856"
       style="font-size:13.33684158px;line-height:1;stroke-width:1px"> </tspan></text>
  <rect
     style="opacity:0.98999999;fill:none;fill-opacity:1;fill-rule:evenodd;stroke:#000000;stroke-width:1;stroke-linecap:round;stroke-linejoin:miter;stroke-miterlimit:4;stroke-dasharray:none;stroke-dashoffset:2.4000001;stroke-opacity:1"
     id="rect49789"
     width="292.94772"
     height="223.59366"
     x="0.5"
     y="0.5" />
  <text
     xml:space="preserve"
     style="font-style:normal;font-variant:normal;font-weight:normal;font-stretch:normal;font-size:12.80336761px;line-height:0%;font-family:'Latin Modern Sans';-inkscape-font-specification:'Latin Modern Sans, Normal';text-align:center;letter-spacing:0px;word-spacing:0px;writing-mode:lr-tb;text-anchor:middle;fill:#000000;fill-opacity:1;stroke:none;stroke-width:1px;stroke-linecap:butt;stroke-linejoin:miter;stroke-opacity:1"
     x="62.216251"
     y="123.89285"
     id="text49791"
     transform="scale(0.9999647,1.0000353)"><tspan
       sodipodi:role="line"
       id="tspan49793"
       x="62.216251"
       y="123.89285"
       style="font-size:13.33684158px;line-height:1;stroke-width:1px">L2</tspan></text>
  <text
     xml:space="preserve"
     style="font-style:normal;font-variant:normal;font-weight:normal;font-stretch:normal;font-size:12.80336761px;line-height:0%;font-family:'Latin Modern Sans';-inkscape-font-specification:'Latin Modern Sans, Normal';text-align:center;letter-spacing:0px;word-spacing:0px;writing-mode:lr-tb;text-anchor:middle;fill:#000000;fill-opacity:1;stroke:none;stroke-width:1px;stroke-linecap:butt;stroke-linejoin:miter;stroke-opacity:1"
     x="133.45686"
     y="123.89233"
     id="text49795"
     transform="scale(0.9999647,1.0000353)"><tspan
       sodipodi:role="line"
       id="tspan49797"
       x="133.45686"
       y="123.89233"
       style="font-size:13.33684158px;line-height:1;stroke-width:1px">L2</tspan></text>
  <text
     xml:space="preserve"
     style="font-style:normal;font-variant:normal;font-weight:normal;font-stretch:normal;font-size:12.80336761px;line-height:0%;font-family:'Latin Modern Sans';-inkscape-font-specification:'Latin Modern Sans, Normal';text-align:center;letter-spacing:0px;word-spacing:0px;writing-mode:lr-tb;text-anchor:middle;fill:#000000;fill-opacity:1;stroke:none;stroke-width:1px;stroke-linecap:butt;stroke-linejoin:miter;stroke-opacity:1"
     x="230.03539"
     y="123.89233"
     id="text49799"
     transform="scale(0.9999647,1.0000353)"><tspan
       sodipodi:role="line"
       id="tspan49801"
       x="230.03539"
       y="123.89233"
       style="font-size:13.33684158px;line-height:1;stroke-width:1px">L2</tspan></text>
  <text
     xml:space="preserve"
     style="font-style:normal;font-variant:normal;font-weight:normal;font-stretch:normal;font-size:12.80336761px;line-height:0%;font-family:'Latin Modern Sans';-inkscape-font-specification:'Latin Modern Sans, Normal';text-align:center;letter-spacing:0px;word-spacing:0px;writing-mode:lr-tb;text-anchor:middle;fill:#000000;fill-opacity:1;stroke:none;stroke-width:1px;stroke-linecap:butt;stroke-linejoin:miter;stroke-opacity:1"
     x="158.64474"
     y="123.89233"
     id="text49803"
     transform="scale(0.9999647,1.0000353)"><tspan
       sodipodi:role="line"
       id="tspan49805"
       x="158.64474"
       y="123.89233"
       style="font-size:13.33684158px;line-height:1;stroke-width:1px">L2</tspan></text>
  <text
     xml:space="preserve"
     style="font-style:normal;font-variant:normal;font-weight:normal;font-stretch:normal;font-size:12.80336761px;line-height:0%;font-family:'Latin Modern Sans';-inkscape-font-specification:'Latin Modern Sans, Normal';text-align:center;letter-spacing:0px;word-spacing:0px;writing-mode:lr-tb;text-anchor:middle;fill:#000000;fill-opacity:1;stroke:none;stroke-width:1px;stroke-linecap:butt;stroke-linejoin:miter;stroke-opacity:1"
     x="7.2194934"
     y="29.326313"
     id="text49811"
     transform="scale(0.9999647,1.0000353)"><tspan
       sodipodi:role="line"
       id="tspan49813"
       x="9.4466419"
       y="29.326313"
       style="font-size:13.33684158px;line-height:1;stroke-width:1px"> </tspan></text>
  <text
     xml:space="preserve"
     style="font-style:normal;font-variant:normal;font-weight:normal;font-stretch:normal;font-size:12.80336761px;line-height:0%;font-family:'Latin Modern Sans';-inkscape-font-specification:'Latin Modern Sans, Normal';text-align:center;letter-spacing:0px;word-spacing:0px;writing-mode:lr-tb;text-anchor:middle;fill:#000000;fill-opacity:1;stroke:none;stroke-width:1px;stroke-linecap:butt;stroke-linejoin:miter;stroke-opacity:1"
     x="54.018261"
     y="29.922825"
     id="text49815"
     transform="scale(0.9999647,1.0000353)"><tspan
       sodipodi:role="line"
       id="tspan49817"
       x="54.018261"
       y="29.922825"
       style="font-size:13.33684158px;line-height:1;stroke-width:1px">ALU</tspan></text>
  <text
     xml:space="preserve"
     style="font-style:normal;font-variant:normal;font-weight:normal;font-stretch:normal;font-size:12.80336761px;line-height:0%;font-family:'Latin Modern Sans';-inkscape-font-specification:'Latin Modern Sans, Normal';text-align:center;letter-spacing:0px;word-spacing:0px;writing-mode:lr-tb;text-anchor:middle;fill:#000000;fill-opacity:1;stroke:none;stroke-width:1px;stroke-linecap:butt;stroke-linejoin:miter;stroke-opacity:1"
     x="125.54205"
     y="29.923346"
     id="text49819"
     transform="scale(0.9999647,1.0000353)"><tspan
       sodipodi:role="line"
       id="tspan49821"
       x="125.54205"
       y="29.923346"
       style="font-size:13.33684158px;line-height:1;stroke-width:1px">ALU</tspan></text>
  <text
     xml:space="preserve"
     style="font-style:normal;font-variant:normal;font-weight:normal;font-stretch:normal;font-size:12.80336761px;line-height:0%;font-family:'Latin Modern Sans';-inkscape-font-specification:'Latin Modern Sans, Normal';text-align:center;letter-spacing:0px;word-spacing:0px;writing-mode:lr-tb;text-anchor:middle;fill:#000000;fill-opacity:1;stroke:none;stroke-width:1px;stroke-linecap:butt;stroke-linejoin:miter;stroke-opacity:1"
     x="166.11024"
     y="29.923346"
     id="text49819-7"
     transform="scale(0.9999647,1.0000353)"><tspan
       sodipodi:role="line"
       id="tspan49821-8"
       x="166.11024"
       y="29.923346"
       style="font-size:13.33684158px;line-height:1;stroke-width:1px">ALU</tspan></text>
  <text
     xml:space="preserve"
     style="font-style:normal;font-variant:normal;font-weight:normal;font-stretch:normal;font-size:12.80336761px;line-height:0%;font-family:'Latin Modern Sans';-inkscape-font-specification:'Latin Modern Sans, Normal';text-align:center;letter-spacing:0px;word-spacing:0px;writing-mode:lr-tb;text-anchor:middle;fill:#000000;fill-opacity:1;stroke:none;stroke-width:1px;stroke-linecap:butt;stroke-linejoin:miter;stroke-opacity:1"
     x="238.24588"
     y="29.923346"
     id="text49819-8"
     transform="scale(0.9999647,1.0000353)"><tspan
       sodipodi:role="line"
       id="tspan49821-85"
       x="238.24588"
       y="29.923346"
       style="font-size:13.33684158px;line-height:1;stroke-width:1px">ALU</tspan></text>
  <text
     xml:space="preserve"
     style="font-style:normal;font-variant:normal;font-weight:normal;font-stretch:normal;font-size:13.33333302px;line-height:1.25;font-family:'Latin Modern Sans';-inkscape-font-specification:'Latin Modern Sans, Normal';font-variant-ligatures:normal;font-variant-caps:normal;font-variant-numeric:normal;font-feature-settings:normal;text-align:center;letter-spacing:0px;word-spacing:0px;writing-mode:lr-tb;text-anchor:middle;fill:#000000;fill-opacity:1;stroke:none"
     x="-120.37692"
     y="270.44382"
     id="text889"
     transform="rotate(-90)"><tspan
       sodipodi:role="line"
       id="tspan887"
       x="-120.37692"
       y="270.44382"
       style="font-size:13.33333302px">BP</tspan></text>
  <text
     xml:space="preserve"
     style="font-style:normal;font-variant:normal;font-weight:normal;font-stretch:normal;font-size:13.33333302px;line-height:1.25;font-family:'Latin Modern Sans';-inkscape-font-specification:'Latin Modern Sans, Normal';font-variant-ligatures:normal;font-variant-caps:normal;font-variant-numeric:normal;font-feature-settings:normal;text-align:center;letter-spacing:0px;word-spacing:0px;writing-mode:lr-tb;text-anchor:middle;fill:#000000;fill-opacity:1;stroke:none"
     x="-120.37706"
     y="198.2108"
     id="text889-9"
     transform="rotate(-90)"><tspan
       sodipodi:role="line"
       id="tspan887-0"
       x="-120.37706"
       y="198.2108"
       style="font-size:13.33333302px">BP</tspan></text>
  <text
     xml:space="preserve"
     style="font-style:normal;font-variant:normal;font-weight:normal;font-stretch:normal;font-size:13.33333302px;line-height:1.25;font-family:'Latin Modern Sans';-inkscape-font-specification:'Latin Modern Sans, Normal';font-variant-ligatures:normal;font-variant-caps:normal;font-variant-numeric:normal;font-feature-settings:normal;text-align:center;letter-spacing:0px;word-spacing:0px;writing-mode:lr-tb;text-anchor:middle;fill:#000000;fill-opacity:1;stroke:none"
     x="-119.16972"
     y="31.791821"
     id="text889-9-7"
     transform="rotate(-90)"><tspan
       sodipodi:role="line"
       id="tspan887-0-3"
       x="-119.16972"
       y="31.791821"
       style="font-size:13.33333302px">BP<tspan
   style="font-size:64.99999762%;baseline-shift:super"
   id="tspan1111">11</tspan></tspan></text>
  <text
     xml:space="preserve"
     style="font-style:normal;font-variant:normal;font-weight:normal;font-stretch:normal;font-size:13.33333302px;line-height:1.25;font-family:'Latin Modern Sans';-inkscape-font-specification:'Latin Modern Sans, Normal';font-variant-ligatures:normal;font-variant-caps:normal;font-variant-numeric:normal;font-feature-settings:normal;text-align:center;letter-spacing:0px;word-spacing:0px;writing-mode:lr-tb;text-anchor:middle;fill:#000000;fill-opacity:1;stroke:none"
     x="-120.37706"
     y="103.37891"
     id="text889-9-3"
     transform="rotate(-90)"><tspan
       sodipodi:role="line"
       id="tspan887-0-1"
       x="-120.37706"
       y="103.37891"
       style="font-size:13.33333302px">BP</tspan></text>
  <text
     xml:space="preserve"
     style="font-style:normal;font-variant:normal;font-weight:normal;font-stretch:normal;font-size:13.33333302px;line-height:1.25;font-family:'Latin Modern Sans';-inkscape-font-specification:'Latin Modern Sans, Normal';font-variant-ligatures:normal;font-variant-caps:normal;font-variant-numeric:normal;font-feature-settings:normal;text-align:center;letter-spacing:0px;word-spacing:0px;writing-mode:lr-tb;text-anchor:middle;fill:#000000;fill-opacity:1;stroke:none"
     x="-73.532715"
     y="230.69788"
     id="text889-7"
     transform="rotate(-90)"><tspan
       sodipodi:role="line"
       id="tspan887-05"
       x="-73.532715"
       y="230.69788"
       style="font-size:13.33333302px">L1-D</tspan></text>
  <text
     xml:space="preserve"
     style="font-style:normal;font-variant:normal;font-weight:normal;font-stretch:normal;font-size:13.33333302px;line-height:1.25;font-family:'Latin Modern Sans';-inkscape-font-specification:'Latin Modern Sans, Normal';font-variant-ligatures:normal;font-variant-caps:normal;font-variant-numeric:normal;font-feature-settings:normal;text-align:center;letter-spacing:0px;word-spacing:0px;writing-mode:lr-tb;text-anchor:middle;fill:#000000;fill-opacity:1;stroke:none"
     x="-74.860603"
     y="160.14297"
     id="text889-7-1"
     transform="rotate(-90)"><tspan
       sodipodi:role="line"
       id="tspan887-05-3"
       x="-74.860603"
       y="160.14297"
       style="font-size:13.33333302px">L1-D</tspan></text>
  <text
     xml:space="preserve"
     style="font-style:normal;font-variant:normal;font-weight:normal;font-stretch:normal;font-size:13.33333302px;line-height:1.25;font-family:'Latin Modern Sans';-inkscape-font-specification:'Latin Modern Sans, Normal';font-variant-ligatures:normal;font-variant-caps:normal;font-variant-numeric:normal;font-feature-settings:normal;text-align:center;letter-spacing:0px;word-spacing:0px;writing-mode:lr-tb;text-anchor:middle;fill:#000000;fill-opacity:1;stroke:none"
     x="-72.989708"
     y="142.54207"
     id="text889-7-0"
     transform="rotate(-90)"><tspan
       sodipodi:role="line"
       id="tspan887-05-7"
       x="-72.989708"
       y="142.54207"
       style="font-size:13.33333302px">L1-D</tspan></text>
  <text
     xml:space="preserve"
     style="font-style:normal;font-variant:normal;font-weight:normal;font-stretch:normal;font-size:13.33333302px;line-height:1.25;font-family:'Latin Modern Sans';-inkscape-font-specification:'Latin Modern Sans, Normal';font-variant-ligatures:normal;font-variant-caps:normal;font-variant-numeric:normal;font-feature-settings:normal;text-align:center;letter-spacing:0px;word-spacing:0px;writing-mode:lr-tb;text-anchor:middle;fill:#000000;fill-opacity:1;stroke:none"
     x="-71.269478"
     y="69.440117"
     id="text889-7-4"
     transform="rotate(-90)"><tspan
       sodipodi:role="line"
       id="tspan887-05-4"
       x="-71.269478"
       y="69.440117"
       style="font-size:13.33333302px">L1-D<tspan
   style="font-size:64.99999762%;baseline-shift:super"
   id="tspan1107">9</tspan></tspan></text>
  <text
     xml:space="preserve"
     style="font-style:normal;font-variant:normal;font-weight:normal;font-stretch:normal;font-size:13.33333302px;line-height:1.25;font-family:'Latin Modern Sans';-inkscape-font-specification:'Latin Modern Sans, Normal';font-variant-ligatures:normal;font-variant-caps:normal;font-variant-numeric:normal;font-feature-settings:normal;text-align:center;letter-spacing:0px;word-spacing:0px;writing-mode:lr-tb;text-anchor:middle;fill:#000000;fill-opacity:1;stroke:none"
     x="273.05191"
     y="75.797661"
     id="text999"><tspan
       sodipodi:role="line"
       id="tspan997"
       x="273.05191"
       y="75.797661">ID</tspan></text>
  <text
     xml:space="preserve"
     style="font-style:normal;font-variant:normal;font-weight:normal;font-stretch:normal;font-size:13.33333302px;line-height:1.25;font-family:'Latin Modern Sans';-inkscape-font-specification:'Latin Modern Sans, Normal';font-variant-ligatures:normal;font-variant-caps:normal;font-variant-numeric:normal;font-feature-settings:normal;text-align:center;letter-spacing:0px;word-spacing:0px;writing-mode:lr-tb;text-anchor:middle;fill:#000000;fill-opacity:1;stroke:none"
     x="202.70732"
     y="75.797661"
     id="text999-4"><tspan
       sodipodi:role="line"
       id="tspan997-5"
       x="202.70732"
       y="75.797661">ID</tspan></text>
  <text
     xml:space="preserve"
     style="font-style:normal;font-variant:normal;font-weight:normal;font-stretch:normal;font-size:13.33333302px;line-height:1.25;font-family:'Latin Modern Sans';-inkscape-font-specification:'Latin Modern Sans, Normal';font-variant-ligatures:normal;font-variant-caps:normal;font-variant-numeric:normal;font-feature-settings:normal;text-align:center;letter-spacing:0px;word-spacing:0px;writing-mode:lr-tb;text-anchor:middle;fill:#000000;fill-opacity:1;stroke:none"
     x="90.383202"
     y="75.797661"
     id="text999-9"><tspan
       sodipodi:role="line"
       id="tspan997-1"
       x="90.383202"
       y="75.797661">ID</tspan></text>
  <text
     xml:space="preserve"
     style="font-style:normal;font-variant:normal;font-weight:normal;font-stretch:normal;font-size:13.33333302px;line-height:1.25;font-family:'Latin Modern Sans';-inkscape-font-specification:'Latin Modern Sans, Normal';font-variant-ligatures:normal;font-variant-caps:normal;font-variant-numeric:normal;font-feature-settings:normal;text-align:center;letter-spacing:0px;word-spacing:0px;writing-mode:lr-tb;text-anchor:middle;fill:#000000;fill-opacity:1;stroke:none"
     x="18.72011"
     y="75.797272"
     id="text999-5"><tspan
       sodipodi:role="line"
       id="tspan997-6"
       x="18.720108"
       y="75.797272">ID<tspan
   style="font-size:64.99999762%;baseline-shift:super"
   id="tspan1105">8</tspan></tspan></text>
  <text
     xml:space="preserve"
     style="font-style:normal;font-variant:normal;font-weight:normal;font-stretch:normal;font-size:13.33333302px;line-height:1.25;font-family:'Latin Modern Sans';-inkscape-font-specification:'Latin Modern Sans, Normal';font-variant-ligatures:normal;font-variant-caps:normal;font-variant-numeric:normal;font-feature-settings:normal;text-align:center;letter-spacing:0px;word-spacing:0px;writing-mode:lr-tb;text-anchor:middle;fill:#000000;fill-opacity:1;stroke:none"
     x="17.613562"
     y="29.924332"
     id="text1037"><tspan
       sodipodi:role="line"
       id="tspan1035"
       x="17.613562"
       y="29.924332">IS<tspan
   style="font-size:64.99999762%;baseline-shift:super"
   id="tspan1103">7</tspan></tspan></text>
  <text
     xml:space="preserve"
     style="font-style:normal;font-variant:normal;font-weight:normal;font-stretch:normal;font-size:13.33333302px;line-height:1.25;font-family:'Latin Modern Sans';-inkscape-font-specification:'Latin Modern Sans, Normal';font-variant-ligatures:normal;font-variant-caps:normal;font-variant-numeric:normal;font-feature-settings:normal;text-align:center;letter-spacing:0px;word-spacing:0px;writing-mode:lr-tb;text-anchor:middle;fill:#000000;fill-opacity:1;stroke:none"
     x="89.276566"
     y="29.924332"
     id="text1041"><tspan
       sodipodi:role="line"
       id="tspan1039"
       x="89.276566"
       y="29.924332">IS</tspan></text>
  <text
     xml:space="preserve"
     style="font-style:normal;font-variant:normal;font-weight:normal;font-stretch:normal;font-size:13.33333302px;line-height:1.25;font-family:'Latin Modern Sans';-inkscape-font-specification:'Latin Modern Sans, Normal';font-variant-ligatures:normal;font-variant-caps:normal;font-variant-numeric:normal;font-feature-settings:normal;text-align:center;letter-spacing:0px;word-spacing:0px;writing-mode:lr-tb;text-anchor:middle;fill:#000000;fill-opacity:1;stroke:none"
     x="201.60056"
     y="29.924332"
     id="text1045"><tspan
       sodipodi:role="line"
       id="tspan1043"
       x="201.60056"
       y="29.924332">IS</tspan></text>
  <text
     xml:space="preserve"
     style="font-style:normal;font-variant:normal;font-weight:normal;font-stretch:normal;font-size:13.33333302px;line-height:1.25;font-family:'Latin Modern Sans';-inkscape-font-specification:'Latin Modern Sans, Normal';font-variant-ligatures:normal;font-variant-caps:normal;font-variant-numeric:normal;font-feature-settings:normal;text-align:center;letter-spacing:0px;word-spacing:0px;writing-mode:lr-tb;text-anchor:middle;fill:#000000;fill-opacity:1;stroke:none"
     x="271.94556"
     y="29.924332"
     id="text1049"><tspan
       sodipodi:role="line"
       id="tspan1047"
       x="271.94556"
       y="29.924332">IS</tspan></text>
  <text
     xml:space="preserve"
     style="font-style:normal;font-variant:normal;font-weight:normal;font-stretch:normal;font-size:13.33333302px;line-height:1.25;font-family:'Latin Modern Sans';-inkscape-font-specification:'Latin Modern Sans, Normal';font-variant-ligatures:normal;font-variant-caps:normal;font-variant-numeric:normal;font-feature-settings:normal;text-align:center;letter-spacing:0px;word-spacing:0px;writing-mode:lr-tb;text-anchor:middle;fill:#000000;fill-opacity:1;stroke:none"
     x="-119.7074"
     y="284.87616"
     id="text889-92"
     transform="rotate(-90)"><tspan
       sodipodi:role="line"
       id="tspan887-2"
       x="-119.7074"
       y="284.87616"
       style="font-size:13.33333302px">IFU</tspan></text>
  <text
     xml:space="preserve"
     style="font-style:normal;font-variant:normal;font-weight:normal;font-stretch:normal;font-size:13.33333302px;line-height:1.25;font-family:'Latin Modern Sans';-inkscape-font-specification:'Latin Modern Sans, Normal';font-variant-ligatures:normal;font-variant-caps:normal;font-variant-numeric:normal;font-feature-settings:normal;text-align:center;letter-spacing:0px;word-spacing:0px;writing-mode:lr-tb;text-anchor:middle;fill:#000000;fill-opacity:1;stroke:none"
     x="-119.70764"
     y="214.17461"
     id="text889-92-0"
     transform="rotate(-90)"><tspan
       sodipodi:role="line"
       id="tspan887-2-7"
       x="-119.70764"
       y="214.17461"
       style="font-size:13.33333302px">IFU</tspan></text>
  <text
     xml:space="preserve"
     style="font-style:normal;font-variant:normal;font-weight:normal;font-stretch:normal;font-size:13.33356571px;line-height:1.25;font-family:'Latin Modern Sans';-inkscape-font-specification:'Latin Modern Sans, Normal';font-variant-ligatures:normal;font-variant-caps:normal;font-variant-numeric:normal;font-feature-settings:normal;text-align:center;letter-spacing:0px;word-spacing:0px;writing-mode:lr-tb;text-anchor:middle;fill:#000000;fill-opacity:1;stroke:none;stroke-width:1"
     x="-119.70973"
     y="87.223816"
     id="text889-92-06"
     transform="matrix(0,-0.99998255,1.0000174,0,0,0)"><tspan
       sodipodi:role="line"
       id="tspan887-2-6"
       x="-119.70973"
       y="87.223816"
       style="font-size:13.33356571px;stroke-width:1">IFU</tspan></text>
  <text
     xml:space="preserve"
     style="font-style:normal;font-variant:normal;font-weight:normal;font-stretch:normal;font-size:13.33333302px;line-height:1.25;font-family:'Latin Modern Sans';-inkscape-font-specification:'Latin Modern Sans, Normal';font-variant-ligatures:normal;font-variant-caps:normal;font-variant-numeric:normal;font-feature-settings:normal;text-align:center;letter-spacing:0px;word-spacing:0px;writing-mode:lr-tb;text-anchor:middle;fill:#000000;fill-opacity:1;stroke:none"
     x="-119.70764"
     y="16.300716"
     id="text889-92-5"
     transform="rotate(-90)"><tspan
       sodipodi:role="line"
       id="tspan887-2-3"
       x="-119.70764"
       y="16.300716"
       style="font-size:13.33333302px">IFU<tspan
   style="font-size:64.99999762%;baseline-shift:super"
   id="tspan1109">10</tspan></tspan></text>
</svg>
